%YAML 1.1
%TAG !u! tag:unity3d.com,2011:
--- !u!1 &8092741286210103132
GameObject:
  m_ObjectHideFlags: 0
  m_CorrespondingSourceObject: {fileID: 0}
  m_PrefabInstance: {fileID: 0}
  m_PrefabAsset: {fileID: 0}
  serializedVersion: 6
  m_Component:
  - component: {fileID: 8092741286210103138}
  - component: {fileID: 8092741286210103133}
  m_Layer: 0
  m_Name: AnimatorFlightResources
  m_TagString: Untagged
  m_Icon: {fileID: 0}
  m_NavMeshLayer: 0
  m_StaticEditorFlags: 0
  m_IsActive: 1
--- !u!4 &8092741286210103138
Transform:
  m_ObjectHideFlags: 0
  m_CorrespondingSourceObject: {fileID: 0}
  m_PrefabInstance: {fileID: 0}
  m_PrefabAsset: {fileID: 0}
  m_GameObject: {fileID: 8092741286210103132}
  m_LocalRotation: {x: 0, y: 0, z: 0, w: 1}
  m_LocalPosition: {x: 0, y: 0, z: 0}
  m_LocalScale: {x: 1, y: 1, z: 1}
  m_ConstrainProportionsScale: 0
  m_Children: []
  m_Father: {fileID: 0}
  m_RootOrder: 0
  m_LocalEulerAnglesHint: {x: 0, y: 0, z: 0}
--- !u!114 &8092741286210103133
MonoBehaviour:
  m_ObjectHideFlags: 0
  m_CorrespondingSourceObject: {fileID: 0}
  m_PrefabInstance: {fileID: 0}
  m_PrefabAsset: {fileID: 0}
  m_GameObject: {fileID: 8092741286210103132}
  m_Enabled: 1
  m_EditorHideFlags: 0
  m_Script: {fileID: 11500000, guid: 6c245dc9758429e4392d9a197c3645d3, type: 3}
  m_Name: 
  m_EditorClassIdentifier: 
  _stackGold: {fileID: 9178861889672590941, guid: ad6da75945a2b44438ee4cf2a002df53, type: 3}
  _stackElixirs: {fileID: 8757448042535723736, guid: 5067cb0624fd8e54989ad662dd0bd5f5, type: 3}
  _stackGems: {fileID: 3738012477227275448, guid: 48a9fbbee09d3ca49a5f634f4947ee8f, type: 3}
  _canvasResources: {fileID: 649236907674932762, guid: adbd15faa9b787d4ea359f43ae8ef853, type: 3}
