g Barrel
v 0.07406274 2.1283816E-08 0.23055689
v 0.06701485 0.0048926207 0.2644861
v 0.08033338 0.083830304 0.2903807
v 0.08033338 0.083830304 0.2903807
v 0.10643104 0.004882809 0.2568959
v 0.07406274 2.1283816E-08 0.23055689
v 0.23239364 0.81879646 -0.09786505
v 0.30411687 0.808133 -2.2916713E-05
v 0.25185677 0.81939 1.3561972E-08
v 0.28075776 0.8074267 -0.11770434
v 0.17697401 0.817106 -0.18081935
v 0.35462683 0.61918986 -3.423803E-05
v 0.21417204 0.8054427 -0.21753348
v 0.09409763 0.814576 -0.23635553
v 0.3283475 0.6204306 -0.1348232
v 0.37153864 0.3312149 -4.222652E-05
v 0.114517055 0.8024792 -0.28449696
v -0.0037562703 0.8115918 -0.2561355
v 0.34357172 0.33522856 -0.14068796
v 0.34507987 0.18357608 0.0019045427
v 0.25314298 0.6179791 -0.25044653
v -0.0032836033 0.7989839 -0.30848047
v 0.13921851 0.6121618 -0.329995
v 0.2636661 0.34689125 -0.2606381
v 0.3182617 0.18031356 -0.12980692
v -0.08834056 0.7968987 -0.2914461
v -0.074469164 0.80944103 -0.24234195
v -0.11868633 0.7574992 -0.29842454
v 0.0024559887 0.60378796 -0.36103132
v 0.2579991 0.00480728 -0.106799304
v 0.27941582 0.004811106 4.9925202E-05
v 0.19711095 0.0048164194 -0.19703001
v 0.24304317 0.18148343 -0.24111104
v 0.1064789 0.0048371083 -0.25695527
v 0.14325759 0.36435202 -0.34188086
v 0.13124654 0.18686719 -0.31519216
v 2.3459072E-05 0.004860976 -0.277478
v 2.4956638E-05 0.38486597 -0.37169483
v 1.6521897E-05 0.19560495 -0.3411449
v -0.10592511 0.004884805 -0.25575817
v -0.13723741 0.59406054 -0.33756194
v -0.13084692 0.20635131 -0.3152614
v -0.19538541 0.004906919 -0.19539928
v -0.14441764 0.40525872 -0.3448589
v -0.25835022 0.5844368 -0.26148087
v -0.24167655 0.21748254 -0.24154474
v -0.25502408 0.0049246424 -0.10564746
v -0.2677573 0.42241818 -0.26487076
v -0.3159236 0.22733262 -0.13116749
v -0.27595383 0.0049366676 -1.2818601E-05
v -0.3423528 0.23442937 -0.0006086137
v -0.37981048 0.43770632 -8.745594E-05
v -0.35061145 0.4337717 -0.14371376
v -0.37004757 0.5714211 -0.0013647635
v -0.34080574 0.5764433 -0.14322916
v -0.31352252 0.7898719 -6.037644E-05
v -0.28975132 0.7905474 -0.1187421
v -0.26094392 0.8037936 2.0273758E-09
v -0.24124043 0.8043873 -0.098416425
v -0.2221643 0.79251915 -0.2189842
v -0.18527889 0.80607766 -0.18161051
v -0.13533482 0.7950301 -0.27658957
v -0.11468971 0.8082189 -0.2284865
v -0.24124046 0.8043873 0.09841638
v -0.31352252 0.7898719 -6.037644E-05
v -0.26094392 0.8037936 2.0273758E-09
v -0.2896844 0.7905952 0.11859657
v -0.18527889 0.80607766 0.18161051
v -0.37004757 0.5714211 -0.0013647635
v -0.22207248 0.79260343 0.21878248
v -0.101875685 0.8086075 0.23699588
v -0.34074518 0.5702265 0.14058162
v -0.37981048 0.43770632 -8.745594E-05
v -0.12146702 0.7955892 0.28533447
v -0.0037562184 0.8115918 0.25613543
v -0.35066488 0.43375313 0.14358222
v -0.3423528 0.23442937 -0.0006086137
v -0.25829726 0.5730203 0.2591079
v -0.0032871529 0.7990871 0.30822504
v 0.09409766 0.814576 0.23635553
v -0.13722518 0.5792655 0.33566055
v -0.2678071 0.42250842 0.2648289
v -0.3168012 0.23770913 0.13050143
v 0.11445383 0.80256677 0.28428602
v 0.17697401 0.817106 0.18081935
v 0.0024591296 0.5879074 0.3596647
v -0.25499147 0.0049413177 0.10561225
v -0.27595383 0.0049366676 -1.2818601E-05
v -0.19533637 0.0049383165 0.19534016
v -0.24291539 0.2366705 0.24228978
v -0.105886854 0.004927232 0.2556739
v -0.14440952 0.40554366 0.34488323
v -0.13171196 0.23145267 0.31766012
v 2.3466911E-05 0.0049086055 0.27738813
v 9.993013E-05 0.38530916 0.37172636
v 0.1392339 0.5975956 0.3291628
v 1.3963483E-05 0.22281907 0.3448452
v 0.21408649 0.80550474 0.21739599
v 0.23239364 0.81879646 0.09786505
v 0.14336362 0.36484692 0.34187657
v 0.08033338 0.083830304 0.2903807
v 0.06701485 0.0048926207 0.2644861
v 0.13210878 0.21205741 0.3195164
v 0.10643104 0.004882809 0.2568959
v 0.19703588 0.004853186 0.19703346
v 0.28069854 0.8074587 0.117632434
v 0.25185677 0.81939 1.3561972E-08
v 0.30411687 0.808133 -2.2916713E-05
v 0.25316304 0.60689056 0.25002208
v 0.32835189 0.6144494 0.1346592
v 0.35462683 0.61918986 -3.423803E-05
v 0.26375937 0.34731787 0.26059178
v 0.24424759 0.20079893 0.24537782
v 0.25794226 0.0048278556 0.10686994
v 0.3436247 0.3354774 0.14061339
v 0.37153864 0.3312149 -4.222652E-05
v 0.31910384 0.19078156 0.13377024
v 0.27941582 0.004811106 4.9925202E-05
v 0.34507987 0.18357608 0.0019045427
v 0.20622638 -2.115136E-08 0.08540879
v 0.27941582 0.004811106 4.9925202E-05
v 0.22334045 -2.115136E-08 1.0574962E-08
v 0.25794226 0.0048278556 0.10686994
v 0.15763293 9.710585E-09 0.15760417
v 0.19703588 0.004853186 0.19703346
v 0.08520267 9.710585E-09 0.20563443
v 0.10643104 0.004882809 0.2568959
v 0.07406274 2.1283816E-08 0.23055689
v 2.2593944E-05 9.710585E-09 0.2221583
v 0.06701485 0.0048926207 0.2644861
v 2.3466911E-05 0.0049086055 0.27738813
v -0.084840275 9.710585E-09 0.20486882
v -0.105886854 0.004927232 0.2556739
v -0.15657315 9.710585E-09 0.15658984
v -0.19533637 0.0049383165 0.19534016
v -0.20444383 9.710585E-09 0.08468973
v -0.25499147 0.0049413177 0.10561225
v -0.22125804 9.710585E-09 3.7922043E-09
v -0.27595383 0.0049366676 -1.2818601E-05
v 0.22334045 -2.115136E-08 1.0574962E-08
v 0.27941582 0.004811106 4.9925202E-05
v 0.2579991 0.00480728 -0.106799304
v 0.20622641 -2.115136E-08 -0.085408784
v 0.19711095 0.0048164194 -0.19703001
v 0.15763292 9.710585E-09 -0.15760417
v 0.1064789 0.0048371083 -0.25695527
v 0.08520266 9.710585E-09 -0.20563443
v 2.3459072E-05 0.004860976 -0.277478
v 2.254265E-05 9.710585E-09 -0.2221583
v -0.10592511 0.004884805 -0.25575817
v -0.08484021 9.710585E-09 -0.20486888
v -0.19538541 0.004906919 -0.19539928
v -0.15657313 9.710585E-09 -0.15658984
v -0.25502408 0.0049246424 -0.10564746
v -0.20444381 9.710585E-09 -0.08468976
v -0.27595383 0.0049366676 -1.2818601E-05
v -0.22125804 9.710585E-09 3.7922043E-09
v -0.3170162 0.34210175 0.12724894
v -0.40681553 0.32127684 -0.00387643
v -0.34257644 0.33857685 -0.004276197
v -0.37673312 0.32541913 0.15166977
v -0.24299999 0.3405899 0.23950292
v -0.28942096 0.32418197 0.28457567
v -0.13148805 0.3342484 0.31532335
v -0.15767413 0.31770933 0.37454966
v 0.00072948675 0.3240008 0.3429301
v -0.001219152 0.30691025 0.40754
v 0.13352998 0.31136566 0.31782714
v 0.15616146 0.29335546 0.3780457
v 0.24650969 0.29824844 0.24358036
v 0.29022282 0.27908283 0.29013288
v 0.32209697 0.2866741 0.13139895
v 0.37998512 0.26632395 0.15702507
v 0.34837985 0.2784739 -0.001405905
v 0.41117442 0.25714415 -0.00067069015
v -0.35262245 0.19435433 -0.1438458
v -0.40681553 0.32127684 -0.00387643
v -0.3824259 0.20310095 0.0019292801
v -0.3755131 0.31238753 -0.15868092
v -0.2877075 0.30006266 -0.28970388
v -0.26938042 0.182154 -0.26665956
v -0.14561024 0.16831699 -0.34804812
v -0.15647683 0.28611028 -0.37748873
v -0.0012127403 0.27258348 -0.40883955
v -0.00015895223 0.15490487 -0.3759558
v 0.14507169 0.14392622 -0.34637088
v 0.15503183 0.2615082 -0.37867033
v 0.28866383 0.2546069 -0.29087788
v 0.2683155 0.13705893 -0.26378366
v 0.3510435 0.13540253 -0.1405139
v 0.37890393 0.25303614 -0.1581702
v 0.41117442 0.25714415 -0.00067069015
v 0.3806489 0.13927528 0.005005497
v 0.40988064 0.5672103 -0.0014514695
v 0.36851296 0.68008274 0.15294808
v 0.39806283 0.68561685 0.0017768082
v 0.3795181 0.5616195 0.15471001
v 0.2925021 0.55260694 0.28844473
v 0.28408924 0.67102486 0.28221342
v 0.15646288 0.65976125 0.37068057
v 0.1606727 0.5414774 0.38017502
v 0.002430367 0.52985424 0.4155234
v 0.0035158726 0.6479449 0.40458265
v -0.15252703 0.63734245 0.37760726
v -0.15912046 0.519474 0.38757738
v -0.29899222 0.5119528 0.29870138
v -0.28771922 0.6296009 0.2918321
v -0.37975818 0.6259922 0.15910196
v -0.3941583 0.50854456 0.1613316
v -0.42800224 0.5098805 -0.0030614482
v -0.41242892 0.6271677 0.00017567923
v -0.36034903 0.4903653 -0.0033250712
v -0.42800224 0.5098805 -0.0030614482
v -0.3941583 0.50854456 0.1613316
v -0.33168948 0.48912093 0.13505453
v -0.29899222 0.5119528 0.29870138
v -0.25117263 0.4919569 0.250465
v -0.15912046 0.519474 0.38757738
v -0.13309357 0.49833182 0.32479477
v 0.002430367 0.52985424 0.4155234
v 0.0029052761 0.50716496 0.34776223
v 0.1606727 0.5414774 0.38017502
v 0.13573194 0.51707 0.31765667
v 0.2925021 0.55260694 0.28844473
v 0.2460937 0.5265694 0.24052763
v 0.3795181 0.5616195 0.15471001
v 0.31878227 0.5342894 0.1285287
v 0.40988064 0.5672103 -0.0014514695
v 0.344104 0.5391262 -0.0020181176
v -0.35393026 0.20707676 0.14847717
v -0.3824259 0.20310095 0.0019292801
v -0.40681553 0.32127684 -0.00387643
v -0.37673312 0.32541913 0.15166977
v -0.28942096 0.32418197 0.28457567
v -0.2712423 0.205659 0.27327132
v -0.1469354 0.19902308 0.35699314
v -0.15767413 0.31770933 0.37454966
v -0.001219152 0.30691025 0.40754
v -0.00015357393 0.18813528 0.3866468
v 0.14641762 0.17462283 0.35769507
v 0.15616146 0.29335546 0.3780457
v 0.29022282 0.27908283 0.29013288
v 0.27021343 0.16055295 0.27477264
v 0.35238183 0.1481179 0.15083969
v 0.37998512 0.26632395 0.15702507
v 0.41117442 0.25714415 -0.00067069015
v 0.3806489 0.13927528 0.005005497
v 0.40988064 0.5672103 -0.0014514695
v 0.39806283 0.68561685 0.0017768082
v 0.36852148 0.6868207 -0.14951599
v 0.37949008 0.5685681 -0.1577202
v 0.29246247 0.56548667 -0.29176766
v 0.28406614 0.6835113 -0.27909184
v 0.15642741 0.67615426 -0.36800906
v 0.16065471 0.55839485 -0.38401225
v 0.002426781 0.54829806 -0.42005026
v 0.00351037 0.66580427 -0.40241617
v -0.15246746 0.6539644 -0.37607703
v -0.15918674 0.5366608 -0.39283648
v -0.29916453 0.52522033 -0.3045097
v -0.28764945 0.64241546 -0.29091665
v -0.37972388 0.6329655 -0.15860718
v -0.39432633 0.515772 -0.16739738
v -0.42800224 0.5098805 -0.0030614482
v -0.41242892 0.6271677 0.00017567923
v 0.344104 0.5391262 -0.0020181176
v 0.40988064 0.5672103 -0.0014514695
v 0.37949008 0.5685681 -0.1577202
v 0.31873485 0.5403887 -0.13264106
v 0.29246247 0.56548667 -0.29176766
v 0.24603185 0.5378851 -0.24487191
v 0.16065471 0.55839485 -0.38401225
v 0.13570069 0.5319532 -0.32240164
v 0.002426781 0.54829806 -0.42005026
v 0.0029046785 0.5234178 -0.35306495
v -0.15918674 0.5366608 -0.39283648
v -0.13312873 0.5135012 -0.33069834
v -0.29916453 0.52522033 -0.3045097
v -0.25128445 0.50368273 -0.25683042
v -0.39432633 0.515772 -0.16739738
v -0.33180398 0.4955141 -0.14164905
v -0.42800224 0.5098805 -0.0030614482
v -0.36034903 0.4903653 -0.0033250712
v -0.31635886 0.6512822 0.13213639
v -0.41242892 0.6271677 0.00017567923
v -0.34341285 0.65242743 0.0006629415
v -0.37975818 0.6259922 0.15910196
v -0.24011806 0.6540464 0.24203423
v -0.28771922 0.6296009 0.2918321
v -0.12802555 0.66018516 0.31318817
v -0.15252703 0.63734245 0.37760726
v 0.0014928799 0.6686633 0.33579054
v 0.0035158726 0.6479449 0.40458265
v 0.12860751 0.6781617 0.30786228
v 0.15646288 0.65976125 0.37068057
v 0.23473006 0.687274 0.23454057
v 0.28408924 0.67102486 0.28221342
v 0.30489188 0.6946867 0.1272907
v 0.36851296 0.68008274 0.15294808
v 0.3294854 0.69933987 0.0018836703
v 0.39806283 0.68561685 0.0017768082
v -0.34257644 0.33857685 -0.004276197
v -0.40681553 0.32127684 -0.00387643
v -0.3755131 0.31238753 -0.15868092
v -0.31608328 0.33055237 -0.13520126
v -0.2877075 0.30006266 -0.28970388
v -0.24169044 0.3192258 -0.24592254
v -0.15647683 0.28611028 -0.37748873
v -0.13057368 0.30628207 -0.31993186
v -0.0012127403 0.27258348 -0.40883955
v 0.0007343149 0.29365066 -0.3461251
v 0.15503183 0.2615082 -0.37867033
v 0.13266876 0.2832367 -0.32034716
v 0.28866383 0.2546069 -0.29087788
v 0.24532227 0.27664968 -0.24605814
v 0.37890393 0.25303614 -0.1581702
v 0.32127428 0.27495566 -0.13409254
v 0.41117442 0.25714415 -0.00067069015
v 0.34837985 0.2784739 -0.001405905
v -0.29249772 0.16524692 -0.11744098
v -0.3824259 0.20310095 0.0019292801
v -0.3170329 0.17268443 0.003135918
v -0.35262245 0.19435433 -0.1438458
v -0.22371478 0.15511252 -0.21919361
v -0.26938042 0.182154 -0.26665956
v -0.12126859 0.14381705 -0.2868977
v -0.14561024 0.16831699 -0.34804812
v -0.0005909345 0.13307141 -0.31022227
v -0.00015895223 0.15490487 -0.3759558
v 0.11998876 0.12450768 -0.285777
v 0.14507169 0.14392622 -0.34637088
v 0.22235036 0.11943097 -0.21737216
v 0.2683155 0.13705893 -0.26378366
v 0.29101673 0.11862089 -0.115170866
v 0.3510435 0.13540253 -0.1405139
v 0.31551126 0.12220997 0.0054629133
v 0.3806489 0.13927528 0.005005497
v 0.29194313 0.12965839 0.12630005
v 0.3806489 0.13927528 0.005005497
v 0.31551126 0.12220997 0.0054629133
v 0.35238183 0.1481179 0.15083969
v 0.22366533 0.13982974 0.22891897
v 0.27021343 0.16055295 0.27477264
v 0.120922096 0.15116648 0.29749078
v 0.14641762 0.17462283 0.35769507
v -0.0005842184 0.16193317 0.32132426
v -0.00015357393 0.18813528 0.3866468
v -0.12214307 0.17048661 0.29672122
v -0.1469354 0.19902308 0.35699314
v -0.22497302 0.17552678 0.227403
v -0.2712423 0.205659 0.27327132
v -0.29338577 0.17629577 0.12425668
v -0.35393026 0.20707676 0.14847717
v -0.3170329 0.17268443 0.003135918
v -0.3824259 0.20310095 0.0019292801
v 0.3049313 0.70056087 -0.12362889
v 0.39806283 0.68561685 0.0017768082
v 0.3294854 0.69933987 0.0018836703
v 0.36852148 0.6868207 -0.14951599
v 0.2347549 0.6981564 -0.23114082
v 0.28406614 0.6835113 -0.27909184
v 0.12861098 0.6924398 -0.3048345
v 0.15642741 0.67615426 -0.36800906
v 0.001488938 0.6842056 -0.3332187
v 0.00351037 0.66580427 -0.40241617
v -0.12801147 0.6746388 -0.3110305
v -0.15246746 0.6539644 -0.37607703
v -0.24010351 0.6651806 -0.24031202
v -0.28764945 0.64241546 -0.29091665
v -0.31635636 0.6573378 -0.13070945
v -0.37972388 0.6329655 -0.15860718
v -0.34341285 0.65242743 0.0006629415
v -0.41242892 0.6271677 0.00017567923
v 0.096672505 0.07637697 -0.23333377
v -0.096172445 0.07637697 -0.23221174
v 1.7766344E-05 0.07637697 -0.25197986
v -0.17732309 0.07637697 -0.17733124
v 0.17893164 0.07637697 -0.17890544
v -0.23132375 0.07637697 -0.09581945
v 0.23418345 0.07637697 -0.09698961
v -0.25025022 0.07637697 3.2326275E-09
v 0.25363117 0.07637697 1.2642324E-08
v -0.2313238 0.07637697 0.09581942
v 0.23418345 0.07637697 0.09698962
v -0.1773231 0.07637697 0.17733125
v 0.17893164 0.07637697 0.17890544
v -0.09617254 0.07637697 0.23221166
v 0.09667251 0.07637697 0.23333377
v 1.7820003E-05 0.07637697 0.2519798
v -0.11468971 0.8082189 -0.2284865
v -0.09428871 0.77258664 -0.239798
v -0.18527889 0.80607766 -0.18161051
v -0.17732309 0.07637697 -0.17733124
v -0.23132375 0.07637697 -0.09581945
v -0.24124043 0.8043873 -0.098416425
v -0.25025022 0.07637697 3.2326275E-09
v -0.26094392 0.8037936 2.0273758E-09
v -0.096172445 0.07637697 -0.23221174
v 1.7766344E-05 0.07637697 -0.25197986
v -0.0037562703 0.8115918 -0.2561355
v -0.074469164 0.80944103 -0.24234195
v 0.09409763 0.814576 -0.23635553
v 0.096672505 0.07637697 -0.23333377
v 0.17697401 0.817106 -0.18081935
v 0.17893164 0.07637697 -0.17890544
v 0.23239364 0.81879646 -0.09786505
v 0.23418345 0.07637697 -0.09698961
v 0.25185677 0.81939 1.3561972E-08
v 0.25363117 0.07637697 1.2642324E-08
v -0.26094392 0.8037936 2.0273758E-09
v -0.25025022 0.07637697 3.2326275E-09
v -0.2313238 0.07637697 0.09581942
v -0.24124046 0.8043873 0.09841638
v -0.1773231 0.07637697 0.17733125
v -0.18527889 0.80607766 0.18161051
v -0.09617254 0.07637697 0.23221166
v -0.101875685 0.8086075 0.23699588
v 1.7820003E-05 0.07637697 0.2519798
v -0.0037562184 0.8115918 0.25613543
v 0.09667251 0.07637697 0.23333377
v 0.09409766 0.814576 0.23635553
v 0.17893164 0.07637697 0.17890544
v 0.17697401 0.817106 0.18081935
v 0.23418345 0.07637697 0.09698962
v 0.23239364 0.81879646 0.09786505
v 0.25363117 0.07637697 1.2642324E-08
v 0.25185677 0.81939 1.3561972E-08
v 0.08234716 0.057665676 0.19866297
v -0.081875406 0.057665676 0.19778511
v 5.418443E-05 0.057665676 0.21457039
v -0.15104233 0.057665706 0.15108855
v 0.15234038 0.057665676 0.15227921
v -0.19711497 0.057665706 0.08166577
v 0.19933751 0.057665676 0.08254168
v -0.21326347 0.057665706 3.462353E-09
v 0.21588315 0.057665676 1.0036467E-08
v -0.19711496 0.057665706 -0.08166579
v 0.19933754 0.057665676 -0.08254168
v -0.15104233 0.057665706 -0.15108854
v 0.15234038 0.057665676 -0.15227921
v -0.08187534 0.057665676 -0.19778517
v 0.08234714 0.057665676 -0.19866297
v 5.4134955E-05 0.057665676 -0.21457039
v 0.20622641 -2.115136E-08 -0.085408784
v 0.21588315 0.057665676 1.0036467E-08
v 0.22334045 -2.115136E-08 1.0574962E-08
v 0.19933754 0.057665676 -0.08254168
v 0.15763292 9.710585E-09 -0.15760417
v 0.15234038 0.057665676 -0.15227921
v 0.08520266 9.710585E-09 -0.20563443
v 0.08234714 0.057665676 -0.19866297
v 2.254265E-05 9.710585E-09 -0.2221583
v 5.4134955E-05 0.057665676 -0.21457039
v -0.08484021 9.710585E-09 -0.20486888
v -0.08187534 0.057665676 -0.19778517
v -0.15657313 9.710585E-09 -0.15658984
v -0.15104233 0.057665706 -0.15108854
v -0.20444381 9.710585E-09 -0.08468976
v -0.19711496 0.057665706 -0.08166579
v -0.22125804 9.710585E-09 3.7922043E-09
v -0.21326347 0.057665706 3.462353E-09
v -0.20444383 9.710585E-09 0.08468973
v -0.21326347 0.057665706 3.462353E-09
v -0.22125804 9.710585E-09 3.7922043E-09
v -0.19711497 0.057665706 0.08166577
v -0.15657315 9.710585E-09 0.15658984
v -0.15104233 0.057665706 0.15108855
v -0.084840275 9.710585E-09 0.20486882
v -0.081875406 0.057665676 0.19778511
v 2.2593944E-05 9.710585E-09 0.2221583
v 5.418443E-05 0.057665676 0.21457039
v 0.08520267 9.710585E-09 0.20563443
v 0.08234716 0.057665676 0.19866297
v 0.15763293 9.710585E-09 0.15760417
v 0.15234038 0.057665676 0.15227921
v 0.20622638 -2.115136E-08 0.08540879
v 0.19933751 0.057665676 0.08254168
v 0.22334045 -2.115136E-08 1.0574962E-08
v 0.21588315 0.057665676 1.0036467E-08
v -0.09428871 0.77258664 -0.239798
v -0.11868633 0.7574992 -0.29842454
v -0.08834056 0.7968987 -0.2914461
v -0.074469164 0.80944103 -0.24234195
v -0.09428871 0.77258664 -0.239798
v -0.11468971 0.8082189 -0.2284865
v -0.13533482 0.7950301 -0.27658957
v -0.11868633 0.7574992 -0.29842454
v 0.30873805 0.61334854 -0.26329112
v 0.3310118 0.57829076 -0.2354553
v 0.3613769 0.59674245 -0.24966665
v 0.34562698 0.621532 -0.26934958
v 0.31035632 0.6612745 -0.2491319
v 0.3782711 0.60584164 -0.21997169
v 0.35490382 0.591159 -0.19346026
v 0.34677124 0.6554209 -0.25933748
v 0.33424833 0.67414266 -0.20713685
v 0.3749025 0.6324598 -0.2472589
v 0.3794154 0.63973045 -0.20995958
v 0.35652208 0.6390849 -0.17930102
v 0.36366543 0.66452 -0.22964248
v 0.05022684 0.57628465 -0.4068947
v 0.09866124 0.5665653 -0.39917174
v 0.10030267 0.58648074 -0.43180835
v 0.06605434 0.59335333 -0.43726933
v 0.03295565 0.62292296 -0.40173972
v 0.12233836 0.61258644 -0.42270225
v 0.12982443 0.60348433 -0.38629374
v 0.053841725 0.6263317 -0.43362418
v 0.064118885 0.6598419 -0.38886178
v 0.090865284 0.62205017 -0.4423071
v 0.110125795 0.64556473 -0.41905707
v 0.11255332 0.65012264 -0.38113874
v 0.075877495 0.6524373 -0.42451805
v -0.2493834 0.5462913 -0.32981142
v -0.20883992 0.5435754 -0.35894644
v -0.2336246 0.5607971 -0.3824753
v -0.26229325 0.56271744 -0.36187366
v -0.26471555 0.5905718 -0.31237108
v -0.21579745 0.5901878 -0.3907447
v -0.18362857 0.58514017 -0.37064108
v -0.27313468 0.59402853 -0.34954146
v -0.23950416 0.63213646 -0.3240658
v -0.25287208 0.5938695 -0.3820048
v -0.22663888 0.62149876 -0.37841246
v -0.19896062 0.6294207 -0.35320082
v -0.2553075 0.62341917 -0.35781085
v -0.41563642 0.5261444 -0.061550997
v -0.40593413 0.5274567 -0.11058308
v -0.44016623 0.5445246 -0.10943309
v -0.44702673 0.5435967 -0.07476213
v -0.41506445 0.5683912 -0.03481356
v -0.43290117 0.5753256 -0.1251978
v -0.39565992 0.5710158 -0.13287771
v -0.44662225 0.57346976 -0.055855915
v -0.40479022 0.6119502 -0.057108294
v -0.4540105 0.57634205 -0.09329429
v -0.4324968 0.6051985 -0.10629164
v -0.395088 0.6132626 -0.10614039
v -0.43935728 0.6042706 -0.07162066
v -0.33220568 0.523501 0.2443038
v -0.36140576 0.5287451 0.20405632
v -0.38385773 0.54341596 0.23135372
v -0.36321014 0.5397077 0.25981298
v -0.31208858 0.56379795 0.26601702
v -0.3902803 0.5756183 0.21824805
v -0.37048864 0.5742862 0.18552217
v -0.34898517 0.568202 0.27516657
v -0.32117155 0.609339 0.24748279
v -0.3813732 0.57309824 0.25538003
v -0.3760554 0.6041125 0.2336016
v -0.35037166 0.6145832 0.20723537
v -0.35540777 0.6004044 0.26206085
v -0.11449733 0.545966 0.39363533
v -0.12820874 0.59344447 0.386033
v -0.1203032 0.594011 0.42347163
v -0.11060781 0.5604386 0.42884722
v -0.06667606 0.53499 0.40326172
v -0.09618387 0.6198222 0.42490298
v -0.09409892 0.6299469 0.38805717
v -0.07679299 0.55267745 0.43565413
v -0.032566372 0.57149255 0.4052859
v -0.089015536 0.58781606 0.44461828
v -0.062369283 0.61206096 0.4317099
v -0.0462777 0.61897105 0.39768368
v -0.052673824 0.57848865 0.4370855
v 0.19967756 0.56689614 0.35410595
v 0.18131967 0.613149 0.35897
v 0.21315527 0.6156515 0.3800579
v 0.22613621 0.5829456 0.3766185
v 0.24110584 0.5591426 0.32720625
v 0.22946857 0.64287466 0.3644764
v 0.20439011 0.65164834 0.33693442
v 0.25543052 0.57746303 0.35759753
v 0.26417622 0.597642 0.30517086
v 0.25061017 0.612146 0.37303537
v 0.25876275 0.6373919 0.34545562
v 0.24581842 0.64389485 0.31003487
v 0.27174374 0.6046862 0.34201616
v 0.38345465 0.58530635 0.107043475
v 0.37480217 0.6320862 0.12243124
v 0.41244468 0.6334451 0.1156737
v 0.4185629 0.60036665 0.10479295
v 0.39462584 0.57641387 0.05912537
v 0.4142257 0.6602356 0.09267131
v 0.37732086 0.6699735 0.089901
v 0.4264621 0.5940787 0.07090968
v 0.39714462 0.6143012 0.026595268
v 0.43458068 0.6287988 0.08480491
v 0.42212492 0.6539474 0.058788273
v 0.38849208 0.6610811 0.041982964
v 0.42824316 0.6208691 0.04790741
v -0.17846425 0.24432738 0.34644678
v -0.20605558 0.21137619 0.3208941
v -0.22981279 0.22012645 0.34959072
v -0.21030264 0.24342646 0.3676592
v -0.19115779 0.29268858 0.34670797
v -0.25829846 0.23102301 0.331707
v -0.24634045 0.22678632 0.29560265
v -0.21927837 0.27762312 0.36784396
v -0.23144266 0.30809867 0.32141656
v -0.24708906 0.25208032 0.36163032
v -0.2672741 0.2652197 0.33189166
v -0.25903404 0.2751475 0.29586384
v -0.24776411 0.28851962 0.34996012
v 0.101516835 0.19979449 0.3734489
v 0.052121118 0.2005233 0.381165
v 0.06514433 0.20785587 0.41639423
v 0.10007239 0.20734051 0.41093814
v 0.12779757 0.24227226 0.3756773
v 0.048799653 0.23840757 0.42342585
v 0.029006213 0.24372996 0.39110932
v 0.118655756 0.23737693 0.4125138
v 0.10468263 0.28547886 0.38562164
v 0.08593366 0.23577608 0.43229198
v 0.067382924 0.26844394 0.42500156
v 0.05528687 0.28620774 0.3933377
v 0.10231094 0.26792857 0.41954547
v 0.33200663 0.17315142 0.1888375
v 0.30379215 0.16836162 0.2298375
v 0.33846596 0.17309693 0.24532215
v 0.35841668 0.17648377 0.21633063
v 0.3521793 0.2174505 0.17740685
v 0.33277953 0.20103423 0.2662308
v 0.29575035 0.20787098 0.25940695
v 0.37268084 0.20780802 0.20824793
v 0.3441375 0.2569597 0.20697625
v 0.3646452 0.20100816 0.24504015
v 0.34704378 0.23235834 0.25814816
v 0.315923 0.25217006 0.24797633
v 0.36699447 0.23574527 0.22915672
v 0.3680965 0.15224513 -0.0817636
v 0.37998867 0.16445503 -0.034758262
v 0.41430628 0.16597524 -0.051624253
v 0.40589726 0.15734155 -0.08486202
v 0.37016654 0.186789 -0.117853045
v 0.42417893 0.1990352 -0.043905567
v 0.39395076 0.21120875 -0.023842454
v 0.40736094 0.1817678 -0.110381104
v 0.3841287 0.23354265 -0.10693709
v 0.4297336 0.18684036 -0.07975107
v 0.42564273 0.22346126 -0.06942456
v 0.3960208 0.24575257 -0.059931807
v 0.41723365 0.21482761 -0.10266237
v 0.19571593 0.15844586 -0.3187333
v 0.23852536 0.16411866 -0.29353064
v 0.25079036 0.16740666 -0.32963103
v 0.22051936 0.16339536 -0.34745193
v 0.17528284 0.19746053 -0.34240523
v 0.2666127 0.19900542 -0.3285486
v 0.26090175 0.20880607 -0.29200003
v 0.20607093 0.19098292 -0.36419058
v 0.1976593 0.24214782 -0.34087452
v 0.24390101 0.19162293 -0.35845095
v 0.25216445 0.22659284 -0.34528723
v 0.24046879 0.24782069 -0.31567192
v 0.22189347 0.22258162 -0.3631081
v -0.042894796 0.18826044 -0.37491238
v -0.029356165 0.2344477 -0.38845652
v -0.049431432 0.22341594 -0.41911197
v -0.05900462 0.19075656 -0.40953478
v -0.0906774 0.17841361 -0.36396354
v -0.07364559 0.24911253 -0.42094722
v -0.0636001 0.27078813 -0.39105198
v -0.092792146 0.18379384 -0.40179273
v -0.1249212 0.2147541 -0.36655897
v -0.0857373 0.21307825 -0.4253961
v -0.10743283 0.24214979 -0.41320527
v -0.11138263 0.26094142 -0.38010317
v -0.11700615 0.20949039 -0.403628
v -0.30036497 0.20843297 -0.23026566
v -0.29202047 0.25055355 -0.25588256
v -0.32880175 0.24407384 -0.26422608
v -0.3347022 0.21428993 -0.24611218
v -0.32960802 0.2092109 -0.18971622
v -0.34357944 0.27440777 -0.25366732
v -0.31291908 0.2934521 -0.24095018
v -0.35538024 0.21484004 -0.2174394
v -0.35050663 0.2521094 -0.17478405
v -0.3611674 0.24184543 -0.24392885
v -0.3642574 0.27495766 -0.22499475
v -0.34216228 0.2942301 -0.2004009
v -0.37015778 0.24517389 -0.20688072
v -0.37757602 0.22872098 0.057475217
v -0.3904569 0.27274463 0.03757522
v -0.42137 0.2649524 0.05874408
v -0.41226196 0.23382285 0.07281545
v -0.3670433 0.22545385 0.10624409
v -0.42303044 0.29377168 0.07915746
v -0.39280483 0.31350112 0.066444
v -0.4048141 0.2315127 0.107300356
v -0.36939135 0.2662104 0.13511278
v -0.42800483 0.25981078 0.09608066
v -0.41558257 0.2914613 0.1136421
v -0.38227206 0.31023407 0.1152128
v -0.40647453 0.26033187 0.12771356
vt 0.9140625 0.05545044
vt 0.90527344 0.064331055
vt 0.9140625 0.08880615
vt 0.8417969 0.08203125
vt 0.8544922 0.056762695
vt 0.8417969 0.048736572
vt 0.33569336 0.029434204
vt 0.38427734 0.034088135
vt 0.37304688 0.015045166
vt 0.3408203 0.04925537
vt 0.29760742 0.036743164
vt 0.40356445 0.099487305
vt 0.29956055 0.05618286
vt 0.26000977 0.03930664
vt 0.35229492 0.10656738
vt 0.40820312 0.19458008
vt 0.25976562 0.058288574
vt 0.22216797 0.03552246
vt 0.3552246 0.19042969
vt 0.40161133 0.24377441
vt 0.30517578 0.11077881
vt 0.21887207 0.05545044
vt 0.25976562 0.11291504
vt 0.30615234 0.18554688
vt 0.3515625 0.2376709
vt 0.18774414 0.047424316
vt 0.19506836 0.027801514
vt 0.17321777 0.058441162
vt 0.21459961 0.11315918
vt 0.34228516 0.2956543
vt 0.38549805 0.30419922
vt 0.29882812 0.29052734
vt 0.30395508 0.23364258
vt 0.25512695 0.2890625
vt 0.2590332 0.17944336
vt 0.25732422 0.22998047
vt 0.21081543 0.2890625
vt 0.21191406 0.17248535
vt 0.21118164 0.2265625
vt 0.16601562 0.2902832
vt 0.16809082 0.11279297
vt 0.16442871 0.2232666
vt 0.12097168 0.2927246
vt 0.16430664 0.1652832
vt 0.1194458 0.11291504
vt 0.11669922 0.2208252
vt 0.07562256 0.29711914
vt 0.115356445 0.15917969
vt 0.066833496 0.22021484
vt 0.030197144 0.30444336
vt 0.013458252 0.22302246
vt 0.0084991455 0.15124512
vt 0.064086914 0.15441895
vt 0.013259888 0.10583496
vt 0.06842041 0.11151123
vt 0.033935547 0.030044556
vt 0.07891846 0.044281006
vt 0.04486084 0.010307312
vt 0.08331299 0.023590088
vt 0.12261963 0.048919678
vt 0.1227417 0.02822876
vt 0.16210938 0.045440674
vt 0.15612793 0.024505615
vt 0.6982422 0.31835938
vt 0.69921875 0.36865234
vt 0.71728516 0.35473633
vt 0.67871094 0.32617188
vt 0.68652344 0.28051758
vt 0.62646484 0.40014648
vt 0.6669922 0.2849121
vt 0.6796875 0.24279785
vt 0.6123047 0.34643555
vt 0.5805664 0.41015625
vt 0.66064453 0.24487305
vt 0.6767578 0.2055664
vt 0.57128906 0.35351562
vt 0.5048828 0.4116211
vt 0.6040039 0.29736328
vt 0.6582031 0.20593262
vt 0.6772461 0.16918945
vt 0.60009766 0.2512207
vt 0.5625 0.30297852
vt 0.5078125 0.35595703
vt 0.6591797 0.16760254
vt 0.68310547 0.13293457
vt 0.60009766 0.20703125
vt 0.42456055 0.35131836
vt 0.42016602 0.39868164
vt 0.42651367 0.30419922
vt 0.50634766 0.30517578
vt 0.42749023 0.25756836
vt 0.5541992 0.25512695
vt 0.50390625 0.2565918
vt 0.4272461 0.21166992
vt 0.5463867 0.20861816
vt 0.60253906 0.16357422
vt 0.5 0.20922852
vt 0.6645508 0.12902832
vt 0.6933594 0.09667969
vt 0.5410156 0.1619873
vt 0.4519043 0.1772461
vt 0.4248047 0.18334961
vt 0.49682617 0.16259766
vt 0.42626953 0.16186523
vt 0.4272461 0.11584473
vt 0.6748047 0.089660645
vt 0.7109375 0.062469482
vt 0.69384766 0.049804688
vt 0.60839844 0.11975098
vt 0.6176758 0.07336426
vt 0.63183594 0.023117065
vt 0.5371094 0.11431885
vt 0.49365234 0.11480713
vt 0.4260254 0.07043457
vt 0.53515625 0.06463623
vt 0.53515625 0.008529663
vt 0.4897461 0.06585693
vt 0.42041016 0.02571106
vt 0.4831543 0.013763428
vt 0.26098633 0.92871094
vt 0.23120117 0.95703125
vt 0.25219727 0.9589844
vt 0.24255371 0.9194336
vt 0.28027344 0.9033203
vt 0.26635742 0.8881836
vt 0.30688477 0.88671875
vt 0.29956055 0.8676758
vt 0.3112793 0.8779297
vt 0.33813477 0.88183594
vt 0.31420898 0.8652344
vt 0.3383789 0.8613281
vt 0.36865234 0.8881836
vt 0.3762207 0.8691406
vt 0.39526367 0.90478516
vt 0.4086914 0.88964844
vt 0.41430664 0.9291992
vt 0.43188477 0.9199219
vt 0.42333984 0.9589844
vt 0.44335938 0.95703125
vt 0.76708984 0.7480469
vt 0.76464844 0.72753906
vt 0.7270508 0.7397461
vt 0.7368164 0.7578125
vt 0.69677734 0.76416016
vt 0.71191406 0.77783203
vt 0.6767578 0.79785156
vt 0.6958008 0.8051758
vt 0.67041016 0.8359375
vt 0.69091797 0.8359375
vt 0.6777344 0.87402344
vt 0.69677734 0.8666992
vt 0.6977539 0.9067383
vt 0.7128906 0.8935547
vt 0.72802734 0.9301758
vt 0.7373047 0.91259766
vt 0.76464844 0.94189453
vt 0.76708984 0.921875
vt 0.31103516 0.67822266
vt 0.3647461 0.6435547
vt 0.3395996 0.6328125
vt 0.33081055 0.6953125
vt 0.27124023 0.71191406
vt 0.2849121 0.7338867
vt 0.22460938 0.7324219
vt 0.2310791 0.75683594
vt 0.1751709 0.73828125
vt 0.1743164 0.76220703
vt 0.12756348 0.7290039
vt 0.11968994 0.75146484
vt 0.086120605 0.70654297
vt 0.072265625 0.7246094
vt 0.05441284 0.67333984
vt 0.03616333 0.68603516
vt 0.035217285 0.6323242
vt 0.013511658 0.6381836
vt 0.27001953 0.796875
vt 0.20581055 0.7885742
vt 0.2199707 0.8183594
vt 0.25854492 0.765625
vt 0.31347656 0.7495117
vt 0.32202148 0.7817383
vt 0.37573242 0.7729492
vt 0.3701172 0.7402344
vt 0.42773438 0.7373047
vt 0.42993164 0.7709961
vt 0.48388672 0.77490234
vt 0.48535156 0.74072266
vt 0.54248047 0.75097656
vt 0.5371094 0.7841797
vt 0.58935547 0.7988281
vt 0.5986328 0.76660156
vt 0.6533203 0.7871094
vt 0.6401367 0.8183594
vt 0.8754883 0.78564453
vt 0.8515625 0.7246094
vt 0.84375 0.78027344
vt 0.88378906 0.7285156
vt 0.890625 0.67089844
vt 0.85839844 0.66845703
vt 0.86376953 0.6123047
vt 0.8959961 0.61279297
vt 0.89941406 0.55371094
vt 0.8671875 0.5551758
vt 0.8676758 0.49731445
vt 0.89941406 0.49414062
vt 0.8959961 0.43408203
vt 0.8642578 0.43896484
vt 0.8564453 0.38061523
vt 0.8876953 0.3737793
vt 0.875 0.31420898
vt 0.8442383 0.3227539
vt 0.22998047 0.3395996
vt 0.21972656 0.31298828
vt 0.16467285 0.3479004
vt 0.18261719 0.36889648
vt 0.124572754 0.3959961
vt 0.14733887 0.41015625
vt 0.10168457 0.4519043
vt 0.1270752 0.4584961
vt 0.09692383 0.5102539
vt 0.122558594 0.50878906
vt 0.10949707 0.5654297
vt 0.13293457 0.5566406
vt 0.13708496 0.6123047
vt 0.15637207 0.59765625
vt 0.1763916 0.6479492
vt 0.18969727 0.62841797
vt 0.2244873 0.67041016
vt 0.23046875 0.64697266
vt 0.7836914 0.7685547
vt 0.76416016 0.81933594
vt 0.7939453 0.8334961
vt 0.8144531 0.77978516
vt 0.8286133 0.7241211
vt 0.7973633 0.71533203
vt 0.8046875 0.6611328
vt 0.83691406 0.6665039
vt 0.83935547 0.60839844
vt 0.8066406 0.6064453
vt 0.80322266 0.5517578
vt 0.8359375 0.55029297
vt 0.8276367 0.49267578
vt 0.7949219 0.49804688
vt 0.7817383 0.44506836
vt 0.81396484 0.43603516
vt 0.7949219 0.38085938
vt 0.76416016 0.39379883
vt 0.9267578 0.3083496
vt 0.89501953 0.31396484
vt 0.90478516 0.36914062
vt 0.9370117 0.36547852
vt 0.9453125 0.42285156
vt 0.91308594 0.42504883
vt 0.9194336 0.4814453
vt 0.95166016 0.48095703
vt 0.9555664 0.54003906
vt 0.92285156 0.5385742
vt 0.92333984 0.5961914
vt 0.9550781 0.5996094
vt 0.9506836 0.65966797
vt 0.9189453 0.6542969
vt 0.90966797 0.71240234
vt 0.94140625 0.7192383
vt 0.92626953 0.7783203
vt 0.8955078 0.77001953
vt 0.14404297 0.3408203
vt 0.1381836 0.31762695
vt 0.090148926 0.33984375
vt 0.10345459 0.35961914
vt 0.050933838 0.37548828
vt 0.070129395 0.390625
vt 0.023406982 0.42285156
vt 0.046813965 0.43139648
vt 0.010818481 0.4777832
vt 0.03640747 0.4790039
vt 0.015419006 0.5361328
vt 0.040863037 0.5292969
vt 0.038116455 0.59228516
vt 0.06100464 0.578125
vt 0.078186035 0.6401367
vt 0.09613037 0.6196289
vt 0.13317871 0.67529297
vt 0.14355469 0.6489258
vt 0.45361328 0.5366211
vt 0.40771484 0.5756836
vt 0.43408203 0.58203125
vt 0.43139648 0.52197266
vt 0.4873047 0.50097656
vt 0.4711914 0.47973633
vt 0.53027344 0.4790039
vt 0.52246094 0.45385742
vt 0.5776367 0.4724121
vt 0.578125 0.44628906
vt 0.62402344 0.4814453
vt 0.6328125 0.4572754
vt 0.6645508 0.5048828
vt 0.68066406 0.48486328
vt 0.6953125 0.5395508
vt 0.7163086 0.5258789
vt 0.7128906 0.58203125
vt 0.73779297 0.57666016
vt 0.39404297 0.59765625
vt 0.36865234 0.60839844
vt 0.4033203 0.65966797
vt 0.4230957 0.6425781
vt 0.4494629 0.6977539
vt 0.46289062 0.67578125
vt 0.5029297 0.71972656
vt 0.50927734 0.69628906
vt 0.55908203 0.72558594
vt 0.55810547 0.70166016
vt 0.61328125 0.71484375
vt 0.60546875 0.6928711
vt 0.66064453 0.68847656
vt 0.64697266 0.67089844
vt 0.69677734 0.6503906
vt 0.67871094 0.6381836
vt 0.7207031 0.60302734
vt 0.69873047 0.59716797
vt 0.78271484 0.31713867
vt 0.8183594 0.36035156
vt 0.82421875 0.3347168
vt 0.76904297 0.3388672
vt 0.7495117 0.28686523
vt 0.7294922 0.30273438
vt 0.7285156 0.24743652
vt 0.70458984 0.25585938
vt 0.7211914 0.20324707
vt 0.69628906 0.20349121
vt 0.7290039 0.15942383
vt 0.7055664 0.15148926
vt 0.7504883 0.12042236
vt 0.73095703 0.105529785
vt 0.7832031 0.09075928
vt 0.7705078 0.070495605
vt 0.82421875 0.07373047
vt 0.81933594 0.049621582
vt 0.23388672 0.8886719
vt 0.19335938 0.92529297
vt 0.21728516 0.9301758
vt 0.21350098 0.87597656
vt 0.26342773 0.85546875
vt 0.24829102 0.8364258
vt 0.30249023 0.8339844
vt 0.2944336 0.8100586
vt 0.34692383 0.8261719
vt 0.34692383 0.80078125
vt 0.39135742 0.8334961
vt 0.39990234 0.8095703
vt 0.43115234 0.85498047
vt 0.44702148 0.83496094
vt 0.46142578 0.8881836
vt 0.4831543 0.8745117
vt 0.4790039 0.9301758
vt 0.50439453 0.9243164
vt 0.6923828 0.46166992
vt 0.65527344 0.4189453
vt 0.64990234 0.4440918
vt 0.7060547 0.4404297
vt 0.7270508 0.49243164
vt 0.7470703 0.47631836
vt 0.7504883 0.53271484
vt 0.77441406 0.5239258
vt 0.75927734 0.57910156
vt 0.78515625 0.5786133
vt 0.7529297 0.62646484
vt 0.77783203 0.6347656
vt 0.73095703 0.6694336
vt 0.7519531 0.6855469
vt 0.6953125 0.7026367
vt 0.70947266 0.72509766
vt 0.64990234 0.72216797
vt 0.6557617 0.74853516
vt 0.5136719 0.8955078
vt 0.5058594 0.85498047
vt 0.5053711 0.87597656
vt 0.5136719 0.8359375
vt 0.5283203 0.91015625
vt 0.5283203 0.82128906
vt 0.54785156 0.91845703
vt 0.54785156 0.81347656
vt 0.56884766 0.91845703
vt 0.5683594 0.8129883
vt 0.5883789 0.91015625
vt 0.5878906 0.82128906
vt 0.60302734 0.8955078
vt 0.60253906 0.8359375
vt 0.61083984 0.87597656
vt 0.61083984 0.85498047
vt 0.82470703 0.8647461
vt 0.83154297 0.8701172
vt 0.8251953 0.8466797
vt 0.95751953 0.84765625
vt 0.95751953 0.82666016
vt 0.8256836 0.82470703
vt 0.9580078 0.80566406
vt 0.8261719 0.80322266
vt 0.95751953 0.86865234
vt 0.95751953 0.8901367
vt 0.82421875 0.88964844
vt 0.82470703 0.87402344
vt 0.82373047 0.9111328
vt 0.95751953 0.9111328
vt 0.82373047 0.93310547
vt 0.9580078 0.9326172
vt 0.8232422 0.95458984
vt 0.9580078 0.95410156
vt 0.8232422 0.9760742
vt 0.9580078 0.97558594
vt 0.011230469 0.9453125
vt 0.1430664 0.9433594
vt 0.14282227 0.9223633
vt 0.010826111 0.9238281
vt 0.1427002 0.9008789
vt 0.010368347 0.90234375
vt 0.14257812 0.8798828
vt 0.0098724365 0.8803711
vt 0.1427002 0.8588867
vt 0.009391785 0.8588867
vt 0.14282227 0.83740234
vt 0.008956909 0.83740234
vt 0.14294434 0.81591797
vt 0.008636475 0.81591797
vt 0.1430664 0.7949219
vt 0.008468628 0.7944336
vt 0.14318848 0.7734375
vt 0.008476257 0.7729492
vt 0.48168945 0.5546875
vt 0.5151367 0.5058594
vt 0.49365234 0.52685547
vt 0.54296875 0.49438477
vt 0.4814453 0.58496094
vt 0.5732422 0.4946289
vt 0.49291992 0.61328125
vt 0.6010742 0.50634766
vt 0.51416016 0.6347656
vt 0.6220703 0.52734375
vt 0.54248047 0.6464844
vt 0.63378906 0.5551758
vt 0.5727539 0.6464844
vt 0.63378906 0.5854492
vt 0.6010742 0.6347656
vt 0.6220703 0.61328125
vt 0.9277344 0.016998291
vt 0.95410156 0.04067993
vt 0.9584961 0.02357483
vt 0.9243164 0.034332275
vt 0.89697266 0.012290955
vt 0.89453125 0.029785156
vt 0.86572266 0.009437561
vt 0.8642578 0.027038574
vt 0.83447266 0.008468628
vt 0.83447266 0.026107788
vt 0.80322266 0.009384155
vt 0.8041992 0.026992798
vt 0.77197266 0.012191772
vt 0.77441406 0.029708862
vt 0.7416992 0.016906738
vt 0.7446289 0.03427124
vt 0.7109375 0.023529053
vt 0.71533203 0.040649414
vt 0.68408203 0.9433594
vt 0.70996094 0.9667969
vt 0.71435547 0.94970703
vt 0.68066406 0.9604492
vt 0.6533203 0.93847656
vt 0.6513672 0.9560547
vt 0.6225586 0.9355469
vt 0.62109375 0.953125
vt 0.5913086 0.9345703
vt 0.5913086 0.95214844
vt 0.5600586 0.9355469
vt 0.56103516 0.953125
vt 0.5288086 0.93847656
vt 0.5307617 0.9560547
vt 0.49780273 0.9433594
vt 0.50097656 0.9604492
vt 0.46728516 0.94970703
vt 0.47143555 0.9667969
vt 0.97802734 0.011932373
vt 0.9741211 0.034942627
vt 0.9892578 0.02861023
vt 0.99072266 0.009887695
vt 0.87402344 0.07519531
vt 0.8876953 0.07702637
vt 0.8857422 0.057769775
vt 0.8720703 0.051971436
vt 0.31567383 0.98535156
vt 0.359375 0.98535156
vt 0.3479004 0.9658203
vt 0.3269043 0.9658203
vt 0.2932129 0.94677734
vt 0.35864258 0.9477539
vt 0.38134766 0.9477539
vt 0.31591797 0.94677734
vt 0.3154297 0.9091797
vt 0.3371582 0.9472656
vt 0.34765625 0.92822266
vt 0.35888672 0.9086914
vt 0.32666016 0.92871094
vt 0.359375 0.98535156
vt 0.38134766 0.9477539
vt 0.35864258 0.9477539
vt 0.3479004 0.9658203
vt 0.31567383 0.98535156
vt 0.34765625 0.92822266
vt 0.35888672 0.9086914
vt 0.3269043 0.9658203
vt 0.2932129 0.94677734
vt 0.3371582 0.9472656
vt 0.32666016 0.92871094
vt 0.3154297 0.9091797
vt 0.31591797 0.94677734
vt 0.359375 0.98535156
vt 0.38134766 0.9477539
vt 0.35864258 0.9477539
vt 0.3479004 0.9658203
vt 0.31567383 0.98535156
vt 0.34765625 0.92822266
vt 0.35888672 0.9086914
vt 0.3269043 0.9658203
vt 0.2932129 0.94677734
vt 0.3371582 0.9472656
vt 0.32666016 0.92871094
vt 0.3154297 0.9091797
vt 0.31591797 0.94677734
vt 0.359375 0.98535156
vt 0.38134766 0.9477539
vt 0.35864258 0.9477539
vt 0.3479004 0.9658203
vt 0.31567383 0.98535156
vt 0.34765625 0.92822266
vt 0.35888672 0.9086914
vt 0.3269043 0.9658203
vt 0.2932129 0.94677734
vt 0.3371582 0.9472656
vt 0.32666016 0.92871094
vt 0.3154297 0.9091797
vt 0.31591797 0.94677734
vt 0.359375 0.98535156
vt 0.38134766 0.9477539
vt 0.35864258 0.9477539
vt 0.3479004 0.9658203
vt 0.31567383 0.98535156
vt 0.34765625 0.92822266
vt 0.35888672 0.9086914
vt 0.3269043 0.9658203
vt 0.2932129 0.94677734
vt 0.3371582 0.9472656
vt 0.32666016 0.92871094
vt 0.3154297 0.9091797
vt 0.31591797 0.94677734
vt 0.38134766 0.9477539
vt 0.35888672 0.9086914
vt 0.34765625 0.92822266
vt 0.35864258 0.9477539
vt 0.359375 0.98535156
vt 0.32666016 0.92871094
vt 0.3154297 0.9091797
vt 0.3479004 0.9658203
vt 0.31567383 0.98535156
vt 0.3371582 0.9472656
vt 0.31591797 0.94677734
vt 0.2932129 0.94677734
vt 0.3269043 0.9658203
vt 0.38134766 0.9477539
vt 0.35888672 0.9086914
vt 0.34765625 0.92822266
vt 0.35864258 0.9477539
vt 0.359375 0.98535156
vt 0.32666016 0.92871094
vt 0.3154297 0.9091797
vt 0.3479004 0.9658203
vt 0.31567383 0.98535156
vt 0.3371582 0.9472656
vt 0.31591797 0.94677734
vt 0.2932129 0.94677734
vt 0.3269043 0.9658203
vt 0.38134766 0.9477539
vt 0.35888672 0.9086914
vt 0.34765625 0.92822266
vt 0.35864258 0.9477539
vt 0.359375 0.98535156
vt 0.32666016 0.92871094
vt 0.3154297 0.9091797
vt 0.3479004 0.9658203
vt 0.31567383 0.98535156
vt 0.3371582 0.9472656
vt 0.31591797 0.94677734
vt 0.2932129 0.94677734
vt 0.3269043 0.9658203
vt 0.31567383 0.98535156
vt 0.359375 0.98535156
vt 0.3479004 0.9658203
vt 0.3269043 0.9658203
vt 0.2932129 0.94677734
vt 0.35864258 0.9477539
vt 0.38134766 0.9477539
vt 0.31591797 0.94677734
vt 0.3154297 0.9091797
vt 0.3371582 0.9472656
vt 0.34765625 0.92822266
vt 0.35888672 0.9086914
vt 0.32666016 0.92871094
vt 0.359375 0.98535156
vt 0.38134766 0.9477539
vt 0.35864258 0.9477539
vt 0.3479004 0.9658203
vt 0.31567383 0.98535156
vt 0.34765625 0.92822266
vt 0.35888672 0.9086914
vt 0.3269043 0.9658203
vt 0.2932129 0.94677734
vt 0.3371582 0.9472656
vt 0.32666016 0.92871094
vt 0.3154297 0.9091797
vt 0.31591797 0.94677734
vt 0.359375 0.98535156
vt 0.38134766 0.9477539
vt 0.35864258 0.9477539
vt 0.3479004 0.9658203
vt 0.31567383 0.98535156
vt 0.34765625 0.92822266
vt 0.35888672 0.9086914
vt 0.3269043 0.9658203
vt 0.2932129 0.94677734
vt 0.3371582 0.9472656
vt 0.32666016 0.92871094
vt 0.3154297 0.9091797
vt 0.31591797 0.94677734
vt 0.359375 0.98535156
vt 0.38134766 0.9477539
vt 0.35864258 0.9477539
vt 0.34814453 0.9658203
vt 0.31567383 0.98535156
vt 0.34765625 0.92871094
vt 0.35888672 0.9086914
vt 0.32714844 0.9658203
vt 0.2932129 0.94677734
vt 0.33740234 0.9472656
vt 0.32666016 0.92871094
vt 0.31518555 0.9086914
vt 0.3161621 0.94677734
vt 0.359375 0.98535156
vt 0.38134766 0.9477539
vt 0.35864258 0.9477539
vt 0.3479004 0.9658203
vt 0.31567383 0.98535156
vt 0.34765625 0.92822266
vt 0.35888672 0.9086914
vt 0.3269043 0.9658203
vt 0.2932129 0.94677734
vt 0.3371582 0.9472656
vt 0.32666016 0.92871094
vt 0.3154297 0.9091797
vt 0.31591797 0.94677734
vt 0.38134766 0.9477539
vt 0.35888672 0.9086914
vt 0.34765625 0.92822266
vt 0.35864258 0.9477539
vt 0.359375 0.98535156
vt 0.32666016 0.92871094
vt 0.3154297 0.9091797
vt 0.3479004 0.9658203
vt 0.31567383 0.98535156
vt 0.3371582 0.9472656
vt 0.31591797 0.94677734
vt 0.2932129 0.94677734
vt 0.3269043 0.9658203
vt 0.38134766 0.9477539
vt 0.35888672 0.9086914
vt 0.34765625 0.92822266
vt 0.35864258 0.9477539
vt 0.359375 0.98535156
vt 0.32666016 0.92871094
vt 0.3154297 0.9091797
vt 0.3479004 0.9658203
vt 0.31567383 0.98535156
vt 0.3371582 0.9472656
vt 0.31591797 0.94677734
vt 0.2932129 0.94677734
vt 0.3269043 0.9658203
vt 0.38134766 0.9477539
vt 0.35888672 0.9086914
vt 0.34765625 0.92822266
vt 0.35864258 0.9477539
vt 0.359375 0.98535156
vt 0.32666016 0.92871094
vt 0.3154297 0.9091797
vt 0.3479004 0.9658203
vt 0.31567383 0.98535156
vt 0.3371582 0.9472656
vt 0.31591797 0.94677734
vt 0.2932129 0.94677734
vt 0.3269043 0.9658203
vn 0.94433594 -0.23486328 0.22998047
vn 0.94433594 -0.23486328 0.22998047
vn 0.94433594 -0.23486328 0.22998047
vn -0.51171875 -0.47338867 0.7167969
vn -0.51171875 -0.47338867 0.7167969
vn -0.51171875 -0.47338867 0.7167969
vn 0.19189453 0.9770508 -0.091552734
vn 0.5917969 0.79296875 -0.1439209
vn 0.21032715 0.97753906 -3.9756298E-05
vn 0.50878906 0.8330078 -0.21716309
vn 0.13952637 0.97558594 -0.16833496
vn 0.99072266 0.13452148 0.0012044907
vn 0.31103516 0.78808594 -0.53125
vn 0.06213379 0.9741211 -0.21826172
vn 0.91748047 0.13439941 -0.3737793
vn 1 -0.01626587 -0.00070524216
vn 0.20031738 0.828125 -0.5239258
vn -0.022979736 0.97216797 -0.23339844
vn 0.9243164 -0.020355225 -0.3815918
vn 0.96435547 -0.26513672 0.0033836365
vn 0.7084961 0.13537598 -0.6928711
vn 0.15698242 0.5732422 -0.8041992
vn 0.39331055 0.13842773 -0.9086914
vn 0.70947266 -0.027114868 -0.70410156
vn 0.88916016 -0.26171875 -0.37573242
vn -0.40283203 0.78515625 -0.47045898
vn -0.07208252 0.97021484 -0.23095703
vn -0.32861328 0.4482422 -0.83154297
vn 0.025680542 0.14001465 -0.9897461
vn 0.41259766 -0.8383789 -0.35620117
vn 0.46069336 -0.88720703 -0.026016235
vn 0.24206543 -0.83740234 -0.49023438
vn 0.6738281 -0.25317383 -0.69433594
vn 0.13964844 -0.62597656 -0.76708984
vn 0.3894043 -0.03616333 -0.92041016
vn 0.3544922 -0.24328613 -0.90283203
vn -0.011833191 -0.5786133 -0.8154297
vn 0.010757446 -0.046783447 -0.99902344
vn -0.018218994 -0.23510742 -0.9716797
vn -0.37158203 -0.8310547 -0.41357422
vn -0.35375977 0.107543945 -0.9291992
vn -0.38745117 -0.23046875 -0.8925781
vn -0.50439453 -0.82910156 -0.24084473
vn -0.37109375 -0.058441162 -0.9267578
vn -0.6875 0.16552734 -0.70703125
vn -0.6972656 -0.22912598 -0.6791992
vn -0.44702148 -0.88134766 -0.15332031
vn -0.6982422 -0.070251465 -0.71240234
vn -0.90234375 -0.22924805 -0.3647461
vn -0.5317383 -0.8261719 0.18530273
vn -0.97314453 -0.22961426 0.0027675629
vn -0.99658203 -0.08239746 -0.0012540817
vn -0.91845703 -0.07910156 -0.38745117
vn -0.98339844 0.18017578 0.0022697449
vn -0.9067383 0.17626953 -0.38330078
vn -0.6152344 0.77490234 0.14318848
vn -0.62402344 0.77490234 -0.099487305
vn -0.25610352 0.9667969 -4.8160553E-05
vn -0.23925781 0.9667969 -0.08807373
vn -0.5307617 0.5292969 -0.6621094
vn -0.19189453 0.96777344 -0.1619873
vn 0.07293701 0.7910156 -0.6074219
vn -0.1586914 0.96777344 -0.19604492
vn -0.23901367 0.9667969 0.08782959
vn -0.6152344 0.77490234 0.14318848
vn -0.25610352 0.9667969 -4.8160553E-05
vn -0.5366211 0.8149414 0.21887207
vn -0.19018555 0.9682617 0.1628418
vn -0.98339844 0.18017578 0.0022697449
vn -0.33740234 0.77734375 0.53125
vn -0.11639404 0.96972656 0.21411133
vn -0.90527344 0.17700195 0.38671875
vn -0.99658203 -0.08239746 -0.0012540817
vn -0.23144531 0.81884766 0.5253906
vn -0.027893066 0.97216797 0.23364258
vn -0.9194336 -0.078125 0.38500977
vn -0.97314453 -0.22961426 0.0027675629
vn -0.6850586 0.16796875 0.7084961
vn 0.13110352 0.7841797 0.6064453
vn 0.061920166 0.9741211 0.21765137
vn -0.36083984 0.15686035 0.9194336
vn -0.7001953 -0.06707764 0.7109375
vn -0.9003906 -0.2298584 0.36889648
vn 0.32006836 0.5053711 0.80126953
vn 0.13928223 0.9760742 0.16796875
vn 0.016845703 0.14697266 0.98876953
vn -0.42260742 -0.8261719 0.37280273
vn -0.5317383 -0.8261719 0.18530273
vn -0.25097656 -0.82666016 0.50341797
vn -0.6958008 -0.22998047 0.6801758
vn -0.1607666 -0.88134766 0.44433594
vn -0.37329102 -0.052520752 0.92626953
vn -0.3881836 -0.23168945 0.89208984
vn -0.04284668 -0.8857422 0.46166992
vn 0.009216309 -0.03793335 0.99902344
vn 0.39086914 0.14025879 0.90966797
vn -0.042266846 -0.22631836 0.97314453
vn 0.46679688 0.5517578 0.69091797
vn 0.19177246 0.9770508 0.091430664
vn 0.38989258 -0.026565552 0.92041016
vn 0.1854248 -0.29956055 0.93603516
vn -0.01550293 -0.83740234 0.5463867
vn 0.38085938 -0.23034668 0.8955078
vn 0.48266602 -0.7597656 0.43554688
vn 0.34277344 -0.8857422 0.31347656
vn 0.7871094 0.5180664 0.33422852
vn 0.21032715 0.97753906 -3.9756298E-05
vn 0.5917969 0.79296875 -0.1439209
vn 0.70654297 0.13671875 0.69433594
vn 0.9165039 0.13513184 0.3762207
vn 0.99072266 0.13452148 0.0012044907
vn 0.7104492 -0.018814087 0.7036133
vn 0.6694336 -0.2536621 0.6982422
vn 0.54345703 -0.8378906 0.04837036
vn 0.9248047 -0.015609741 0.37963867
vn 1 -0.01626587 -0.00070524216
vn 0.88623047 -0.2619629 0.3815918
vn 0.46069336 -0.88720703 -0.026016235
vn 0.96435547 -0.26513672 0.0033836365
vn 0.07928467 -0.99609375 0.033325195
vn 0.46069336 -0.88720703 -0.026016235
vn 0.08557129 -0.99609375 7.599592E-05
vn 0.54345703 -0.8378906 0.04837036
vn 0.06088257 -0.99609375 0.061798096
vn 0.34277344 -0.8857422 0.31347656
vn 0.04977417 -0.9975586 0.04837036
vn 0.48266602 -0.7597656 0.43554688
vn 0.034362793 -0.9975586 0.057281494
vn -0.006401062 -0.99609375 0.087646484
vn -0.01550293 -0.83740234 0.5463867
vn -0.04284668 -0.8857422 0.46166992
vn -0.03466797 -0.99609375 0.082214355
vn -0.1607666 -0.88134766 0.44433594
vn -0.06365967 -0.99609375 0.06317139
vn -0.25097656 -0.82666016 0.50341797
vn -0.08312988 -0.99609375 0.034301758
vn -0.42260742 -0.8261719 0.37280273
vn -0.08984375 -0.99609375 7.069111E-05
vn -0.5317383 -0.8261719 0.18530273
vn 0.08557129 -0.99609375 7.599592E-05
vn 0.46069336 -0.88720703 -0.026016235
vn 0.41259766 -0.8383789 -0.35620117
vn 0.07897949 -0.99609375 -0.033050537
vn 0.24206543 -0.83740234 -0.49023438
vn 0.06048584 -0.99609375 -0.06121826
vn 0.13964844 -0.62597656 -0.76708984
vn 0.032592773 -0.99609375 -0.0803833
vn -0.011833191 -0.5786133 -0.8154297
vn -0.00071287155 -0.99609375 -0.087524414
vn -0.37158203 -0.8310547 -0.41357422
vn -0.03439331 -0.99609375 -0.08135986
vn -0.50439453 -0.82910156 -0.24084473
vn -0.06329346 -0.99609375 -0.06262207
vn -0.44702148 -0.88134766 -0.15332031
vn -0.08282471 -0.99609375 -0.0340271
vn -0.5317383 -0.8261719 0.18530273
vn -0.08984375 -0.99609375 7.069111E-05
vn -0.23327637 0.96875 0.08569336
vn -0.6455078 0.7626953 -0.041137695
vn -0.25805664 0.96533203 -0.041992188
vn -0.59765625 0.77001953 0.22399902
vn -0.15661621 0.9692383 0.18920898
vn -0.73291016 0.19689941 0.6508789
vn -0.04647827 0.96728516 0.24853516
vn -0.23425293 0.7709961 0.59228516
vn 0.07397461 0.9633789 0.25683594
vn -0.050811768 0.19470215 0.9794922
vn 0.18188477 0.9584961 0.21899414
vn 0.28295898 0.75439453 0.59228516
vn 0.2626953 0.9536133 0.14758301
vn 0.48876953 0.27416992 0.828125
vn 0.31030273 0.94873047 0.056610107
vn 0.97216797 0.18725586 0.14172363
vn 0.32348633 0.9453125 -0.04144287
vn 0.9946289 0.101989746 -0.010467529
vn -0.84228516 -0.4555664 -0.28857422
vn -0.6455078 0.7626953 -0.041137695
vn -0.71191406 -0.6879883 0.14257812
vn -0.95751953 0.22583008 -0.17993164
vn -0.4260254 0.7402344 -0.52001953
vn -0.66503906 -0.47509766 -0.5756836
vn -0.37451172 -0.4951172 -0.7841797
vn -0.19750977 0.7285156 -0.65625
vn 0.026855469 0.08703613 -0.99560547
vn -0.17773438 -0.5488281 -0.81689453
vn 0.07739258 -0.7529297 -0.6533203
vn 0.09289551 0.6455078 -0.7578125
vn 0.51220703 0.7104492 -0.48266602
vn 0.3840332 -0.81396484 -0.43579102
vn 0.8076172 -0.5571289 -0.19348145
vn 0.9375 0.09075928 -0.33642578
vn 0.9946289 0.101989746 -0.010467529
vn 0.80908203 -0.5722656 -0.13342285
vn 0.9765625 -0.21459961 -0.0038070679
vn 0.70996094 0.46923828 0.52490234
vn 0.9067383 0.41845703 0.051635742
vn 0.8149414 -0.28515625 0.50439453
vn 0.8227539 -0.30395508 0.4802246
vn 0.72558594 0.45141602 0.51953125
vn 0.14770508 0.44726562 0.8823242
vn 0.2331543 -0.3005371 0.9248047
vn 0.26049805 -0.31396484 0.91308594
vn 0.14221191 0.43603516 0.8886719
vn -0.2722168 0.7626953 0.58691406
vn -0.19335938 -0.75146484 0.6308594
vn -0.6611328 -0.2364502 0.71191406
vn -0.48413086 0.75341797 0.44482422
vn -0.76416016 0.4333496 0.47753906
vn -0.58984375 -0.7626953 0.26538086
vn -0.69921875 -0.6821289 0.21276855
vn -0.69091797 0.70410156 0.16333008
vn -0.27661133 -0.9609375 -0.021087646
vn -0.69921875 -0.6821289 0.21276855
vn -0.58984375 -0.7626953 0.26538086
vn -0.25024414 -0.9614258 0.11413574
vn -0.6611328 -0.2364502 0.71191406
vn -0.17211914 -0.9589844 0.22607422
vn -0.19335938 -0.75146484 0.6308594
vn -0.057891846 -0.953125 0.296875
vn 0.26049805 -0.31396484 0.91308594
vn 0.07299805 -0.9458008 0.31713867
vn 0.2331543 -0.3005371 0.9248047
vn 0.19958496 -0.9370117 0.28637695
vn 0.8227539 -0.30395508 0.4802246
vn 0.3034668 -0.9291992 0.21105957
vn 0.8149414 -0.28515625 0.50439453
vn 0.3708496 -0.92285156 0.10333252
vn 0.9765625 -0.21459961 -0.0038070679
vn 0.3930664 -0.9194336 -0.020721436
vn -0.74902344 -0.4741211 0.46313477
vn -0.71191406 -0.6879883 0.14257812
vn -0.6455078 0.7626953 -0.041137695
vn -0.59765625 0.77001953 0.22399902
vn -0.73291016 0.19689941 0.6508789
vn -0.43188477 -0.68603516 0.5854492
vn -0.44677734 -0.66796875 0.59472656
vn -0.23425293 0.7709961 0.59228516
vn -0.050811768 0.19470215 0.9794922
vn 0.08099365 -0.7128906 0.69677734
vn 0.06173706 -0.69384766 0.71777344
vn 0.28295898 0.75439453 0.59228516
vn 0.48876953 0.27416992 0.828125
vn 0.5151367 -0.75390625 0.40771484
vn 0.51660156 -0.73535156 0.43920898
vn 0.97216797 0.18725586 0.14172363
vn 0.9946289 0.101989746 -0.010467529
vn 0.80908203 -0.5722656 -0.13342285
vn 0.9765625 -0.21459961 -0.0038070679
vn 0.9067383 0.41845703 0.051635742
vn 0.85791016 0.49536133 -0.13684082
vn 0.9042969 -0.20471191 -0.37426758
vn 0.5371094 -0.2770996 -0.796875
vn 0.41088867 0.81689453 -0.40527344
vn 0.1965332 0.8076172 -0.55566406
vn 0.30371094 -0.70751953 -0.6381836
vn -0.1895752 -0.2927246 -0.9370117
vn 0.13049316 0.7583008 -0.6386719
vn -0.4440918 0.70947266 -0.546875
vn -0.41796875 -0.67041016 -0.61328125
vn -0.7060547 -0.20214844 -0.67871094
vn -0.3876953 0.73535156 -0.55566406
vn -0.7373047 0.48217773 -0.47338867
vn -0.59375 -0.75341797 -0.28198242
vn -0.69921875 -0.6821289 0.21276855
vn -0.69091797 0.70410156 0.16333008
vn 0.3930664 -0.9194336 -0.020721436
vn 0.9765625 -0.21459961 -0.0038070679
vn 0.9042969 -0.20471191 -0.37426758
vn 0.36743164 -0.9189453 -0.14331055
vn 0.5371094 -0.2770996 -0.796875
vn 0.29858398 -0.921875 -0.24743652
vn 0.30371094 -0.70751953 -0.6381836
vn 0.19641113 -0.9272461 -0.31884766
vn -0.1895752 -0.2927246 -0.9370117
vn 0.07366943 -0.9345703 -0.34814453
vn -0.41796875 -0.67041016 -0.61328125
vn -0.053222656 -0.9428711 -0.3293457
vn -0.7060547 -0.20214844 -0.67871094
vn -0.1661377 -0.9506836 -0.26245117
vn -0.59375 -0.75341797 -0.28198242
vn -0.24584961 -0.95703125 -0.15454102
vn -0.69921875 -0.6821289 0.21276855
vn -0.27661133 -0.9609375 -0.021087646
vn -0.31933594 0.93896484 0.12939453
vn -0.69091797 0.70410156 0.16333008
vn -0.34350586 0.93896484 0.02078247
vn -0.76416016 0.4333496 0.47753906
vn -0.25561523 0.94189453 0.21777344
vn -0.48413086 0.75341797 0.44482422
vn -0.16479492 0.9477539 0.2734375
vn -0.2722168 0.7626953 0.58691406
vn -0.06201172 0.9550781 0.28955078
vn 0.14221191 0.43603516 0.8886719
vn 0.037872314 0.9633789 0.265625
vn 0.14770508 0.44726562 0.8823242
vn 0.12030029 0.9707031 0.20703125
vn 0.72558594 0.45141602 0.51953125
vn 0.17565918 0.9770508 0.12219238
vn 0.70996094 0.46923828 0.52490234
vn 0.19665527 0.97998047 0.022033691
vn 0.9067383 0.41845703 0.051635742
vn -0.25805664 0.96533203 -0.041992188
vn -0.6455078 0.7626953 -0.041137695
vn -0.95751953 0.22583008 -0.17993164
vn -0.22583008 0.95996094 -0.16638184
vn -0.4260254 0.7402344 -0.52001953
vn -0.14550781 0.9536133 -0.26293945
vn -0.19750977 0.7285156 -0.65625
vn -0.037994385 0.9482422 -0.3149414
vn 0.026855469 0.08703613 -0.99560547
vn 0.07519531 0.94433594 -0.3203125
vn 0.09289551 0.6455078 -0.7578125
vn 0.17614746 0.9423828 -0.2849121
vn 0.51220703 0.7104492 -0.48266602
vn 0.25390625 0.94189453 -0.22009277
vn 0.9375 0.09075928 -0.33642578
vn 0.30371094 0.9428711 -0.13623047
vn 0.9946289 0.101989746 -0.010467529
vn 0.32348633 0.9453125 -0.04144287
vn -0.3984375 -0.9121094 -0.09698486
vn -0.71191406 -0.6879883 0.14257812
vn -0.42163086 -0.9057617 0.03781128
vn -0.84228516 -0.4555664 -0.28857422
vn -0.3244629 -0.921875 -0.2121582
vn -0.66503906 -0.47509766 -0.5756836
vn -0.21081543 -0.93359375 -0.2890625
vn -0.37451172 -0.4951172 -0.7841797
vn -0.0758667 -0.94628906 -0.31396484
vn -0.17773438 -0.5488281 -0.81689453
vn 0.0569458 -0.95751953 -0.28295898
vn 0.07739258 -0.7529297 -0.6533203
vn 0.16540527 -0.96533203 -0.20288086
vn 0.3840332 -0.81396484 -0.43579102
vn 0.23388672 -0.9682617 -0.08868408
vn 0.8076172 -0.5571289 -0.19348145
vn 0.25439453 -0.9663086 0.04168701
vn 0.80908203 -0.5722656 -0.13342285
vn 0.22583008 -0.95947266 0.16796875
vn 0.80908203 -0.5722656 -0.13342285
vn 0.25439453 -0.9663086 0.04168701
vn 0.51660156 -0.73535156 0.43920898
vn 0.15393066 -0.94921875 0.27392578
vn 0.5151367 -0.75390625 0.40771484
vn 0.049072266 -0.9375 0.3449707
vn 0.06173706 -0.69384766 0.71777344
vn -0.076293945 -0.92529297 0.37182617
vn 0.08099365 -0.7128906 0.69677734
vn -0.20336914 -0.9145508 0.34936523
vn -0.44677734 -0.66796875 0.59472656
vn -0.31445312 -0.90722656 0.27905273
vn -0.43188477 -0.68603516 0.5854492
vn -0.39160156 -0.9042969 0.16992188
vn -0.74902344 -0.4741211 0.46313477
vn -0.42163086 -0.9057617 0.03781128
vn -0.71191406 -0.6879883 0.14257812
vn 0.17993164 0.98046875 -0.079589844
vn 0.9067383 0.41845703 0.051635742
vn 0.19665527 0.97998047 0.022033691
vn 0.85791016 0.49536133 -0.13684082
vn 0.12609863 0.97753906 -0.16894531
vn 0.41088867 0.81689453 -0.40527344
vn 0.04208374 0.9716797 -0.23181152
vn 0.1965332 0.8076172 -0.55566406
vn -0.061676025 0.96435547 -0.2578125
vn 0.13049316 0.7583008 -0.6386719
vn -0.16760254 0.9560547 -0.24047852
vn -0.4440918 0.70947266 -0.546875
vn -0.2602539 0.9482422 -0.18151855
vn -0.3876953 0.73535156 -0.55566406
vn -0.3227539 0.9423828 -0.08935547
vn -0.7373047 0.48217773 -0.47338867
vn -0.34350586 0.93896484 0.02078247
vn -0.69091797 0.70410156 0.16333008
vn -0 1 0
vn -0 1 0
vn -0 1 0
vn -0 1 0
vn -0 1 0
vn -0 1 0
vn -0 1 0
vn -0 1 0
vn -0 1 0
vn -0 1 0
vn -0 1 0
vn -0 1 0
vn -0 1 0
vn -0 1 0
vn -0 1 0
vn -0 1 0
vn 0.55126953 0.051361084 0.83251953
vn 0.38378906 0.010124207 0.92333984
vn 0.74072266 0.013267517 0.6713867
vn 0.7036133 0.011375427 0.7104492
vn 0.9238281 0.013786316 0.3828125
vn 0.9238281 0.013793945 0.3828125
vn 1 0.014511108 0
vn 1 0.014511108 0
vn 0.3876953 0.008995056 0.921875
vn -0.009437561 0.006038666 1
vn -0.07531738 0.0039138794 0.9970703
vn 0.19238281 -0.0357666 0.98046875
vn -0.38232422 0.0025615692 0.9238281
vn -0.3815918 0.0025558472 0.9243164
vn -0.70654297 1.4781952E-05 0.70751953
vn -0.7055664 1.2516975E-05 0.7084961
vn -0.92333984 -0.0016765594 0.38354492
vn -0.92333984 -0.0016765594 0.38378906
vn -1 -0.002281189 0
vn -1 -0.002281189 0
vn 1 0.014511108 0
vn 1 0.014511108 0
vn 0.9238281 0.013793945 -0.38232422
vn 0.9238281 0.013793945 -0.3828125
vn 0.70751953 0.011810303 -0.70654297
vn 0.70703125 0.0118255615 -0.70703125
vn 0.38330078 0.008964539 -0.9238281
vn 0.3828125 0.008995056 -0.9238281
vn 0.0005707741 0.005695343 -1
vn 3.761053E-05 0.00573349 -1
vn -0.3815918 0.0025596619 -0.9243164
vn -0.38232422 0.0025863647 -0.9238281
vn -0.7060547 1.2516975E-05 -0.7080078
vn -0.70654297 2.5629997E-05 -0.7080078
vn -0.92333984 -0.0016765594 -0.38378906
vn -0.92333984 -0.0016756058 -0.38354492
vn -1 -0.002281189 0
vn -1 -0.002281189 0
vn -0 -1 -1.7881393E-07
vn -0 -1 -5.9604645E-07
vn -0 -1 0
vn -1.1920929E-07 -1 0
vn -0 -1 0
vn -0 -1 0
vn -0 -1 0
vn -0 -1 0
vn -0 -1 0
vn -0 -1 0
vn -0 -1 0
vn -0 -1 0
vn -0 -1 0
vn -0 -1 4.172325E-07
vn -0 -1 0
vn -0 -1 0
vn -0.91503906 -0.12854004 0.38183594
vn -0.9916992 -0.1282959 -1.7881393E-07
vn -0.9916992 -0.1282959 -1.7881393E-07
vn -0.91552734 -0.12854004 0.3815918
vn -0.69873047 -0.12902832 0.7036133
vn -0.69873047 -0.12902832 0.7036133
vn -0.37597656 -0.12963867 0.91748047
vn -0.37548828 -0.12963867 0.91796875
vn 0.005050659 -0.13061523 0.99121094
vn 0.0047302246 -0.13061523 0.99121094
vn 0.38330078 -0.13208008 0.9140625
vn 0.38305664 -0.13208008 0.9140625
vn 0.703125 -0.1340332 0.6982422
vn 0.703125 -0.1340332 0.6982422
vn 0.9160156 -0.13598633 0.37768555
vn 0.9160156 -0.13598633 0.37768555
vn 0.99072266 -0.13671875 1.1920929E-07
vn 0.99072266 -0.13671875 1.7881393E-07
vn 0.9160156 -0.13598633 -0.37768555
vn 0.99072266 -0.13671875 1.7881393E-07
vn 0.99072266 -0.13671875 1.1920929E-07
vn 0.9160156 -0.13598633 -0.37768555
vn 0.703125 -0.1340332 -0.6982422
vn 0.703125 -0.1340332 -0.6982422
vn 0.38330078 -0.13208008 -0.9140625
vn 0.38305664 -0.13208008 -0.9140625
vn 0.005050659 -0.13061523 -0.99121094
vn 0.0050811768 -0.13061523 -0.99121094
vn -0.37548828 -0.12963867 -0.91748047
vn -0.37548828 -0.12963867 -0.91796875
vn -0.69873047 -0.12902832 -0.7036133
vn -0.69873047 -0.12902832 -0.7036133
vn -0.91503906 -0.12854004 -0.38183594
vn -0.91503906 -0.12854004 -0.38183594
vn -0.9916992 -0.1282959 -1.7881393E-07
vn -0.9916992 -0.1282959 -1.7881393E-07
vn -0.82910156 0.5366211 0.15698242
vn -0.32861328 0.4482422 -0.83154297
vn -0.40283203 0.78515625 -0.47045898
vn -0.82910156 0.5366211 0.15698242
vn 0.70214844 0.5566406 -0.44384766
vn 0.70214844 0.5566406 -0.44384766
vn 0.07293701 0.7910156 -0.6074219
vn -0.32861328 0.4482422 -0.83154297
vn -0.111450195 -0.22973633 -0.9667969
vn 0.30737305 -0.8432617 -0.44067383
vn 0.43481445 -0.7363281 -0.5185547
vn 0.107666016 -0.15185547 -0.9824219
vn -0.07574463 0.72558594 -0.68359375
vn 0.83447266 -0.5292969 0.15197754
vn 0.71435547 -0.64160156 0.2788086
vn 0.1262207 0.671875 -0.7294922
vn 0.34350586 0.9379883 0.047210693
vn 0.8442383 0.13452148 -0.51904297
vn 0.875 0.31152344 0.37109375
vn 0.7597656 0.30444336 0.57421875
vn 0.49389648 0.8671875 -0.06072998
vn -0.4584961 -0.6533203 -0.60253906
vn 0.36279297 -0.80322266 -0.47265625
vn 0.3725586 -0.69189453 -0.61865234
vn -0.3791504 -0.53808594 -0.7529297
vn -0.82128906 0.2553711 -0.5107422
vn 0.8979492 -0.051116943 -0.43701172
vn 0.9614258 -0.14953613 -0.2310791
vn -0.67041016 0.28295898 -0.68603516
vn -0.22631836 0.93603516 -0.2692871
vn 0.1899414 0.19018555 -0.9633789
vn 0.59375 0.7290039 -0.33984375
vn 0.61816406 0.77490234 -0.13232422
vn -0.15783691 0.8779297 -0.45239258
vn -0.65234375 -0.74853516 -0.119506836
vn 0.03186035 -0.79052734 -0.6118164
vn -0.08001709 -0.6845703 -0.7246094
vn -0.7128906 -0.64453125 -0.2770996
vn -0.9692383 0.09246826 0.22839355
vn 0.3215332 0.03652954 -0.94628906
vn 0.5288086 -0.021438599 -0.8486328
vn -0.9921875 0.123413086 -0.001953125
vn -0.47802734 0.87841797 -0.003194809
vn -0.5727539 0.1295166 -0.8095703
vn 0.0770874 0.7685547 -0.6352539
vn 0.22155762 0.8339844 -0.5048828
vn -0.5541992 0.8129883 -0.18005371
vn -0.5566406 -0.77441406 0.3005371
vn -0.39282227 -0.75439453 -0.5258789
vn -0.55322266 -0.64453125 -0.52783203
vn -0.7050781 -0.6689453 0.2355957
vn -0.5522461 0.011756897 0.8334961
vn -0.41210938 0.1161499 -0.9038086
vn -0.19348145 0.066833496 -0.9790039
vn -0.7270508 0.060546875 0.68408203
vn -0.35302734 0.8496094 0.39160156
vn -0.9711914 0.14294434 -0.1895752
vn -0.37841797 0.80566406 -0.45581055
vn -0.18591309 0.87109375 -0.45458984
vn -0.53222656 0.7885742 0.3088379
vn -0.16003418 -0.82470703 0.54248047
vn -0.6542969 -0.74316406 -0.14074707
vn -0.7675781 -0.6411133 -0.011138916
vn -0.3095703 -0.7270508 0.61279297
vn 0.23144531 -0.085998535 0.9692383
vn -0.94091797 0.15112305 -0.3034668
vn -0.8457031 0.13391113 -0.51708984
vn 0.0035495758 -0.04336548 0.99902344
vn 0.04650879 0.7998047 0.59814453
vn -0.8017578 0.087402344 0.5913086
vn -0.5883789 0.80810547 0.033569336
vn -0.4567871 0.8847656 -0.093322754
vn -0.13391113 0.73046875 0.6699219
vn -0.65478516 -0.671875 0.34594727
vn -0.9453125 0.26049805 0.19543457
vn -0.8691406 0.26757812 0.41601562
vn -0.6298828 -0.5708008 0.5263672
vn 0.1607666 -0.84375 0.51171875
vn -0.31445312 0.8510742 0.42016602
vn -0.2980957 0.9243164 0.23754883
vn 0.13098145 -0.73828125 0.6616211
vn 0.8100586 -0.19665527 0.5522461
vn -0.17224121 0.11529541 0.9785156
vn 0.43823242 0.6850586 0.58203125
vn 0.53222656 0.7446289 0.4020996
vn 0.6738281 -0.12719727 0.72802734
vn -0.17565918 -0.69433594 0.6977539
vn -0.5517578 0.20214844 0.80908203
vn -0.34155273 0.23022461 0.9111328
vn -0.041870117 -0.58740234 0.80810547
vn 0.52685547 -0.8144531 0.24316406
vn 0.017974854 0.84716797 0.5307617
vn -0.10644531 0.91503906 0.38891602
vn 0.6064453 -0.7036133 0.3701172
vn 0.9760742 -0.12188721 -0.17993164
vn 0.5566406 0.14538574 0.8178711
vn 0.671875 0.7319336 0.114746094
vn 0.61035156 0.78808594 -0.07891846
vn 0.9975586 -0.051849365 0.043151855
vn 0.33569336 -0.6928711 0.6381836
vn 0.16455078 0.21899414 0.96191406
vn 0.3876953 0.23498535 0.8911133
vn 0.5136719 -0.59033203 0.6225586
vn 0.52685547 -0.83154297 -0.17590332
vn 0.40039062 0.8432617 0.35864258
vn 0.21643066 0.91552734 0.3395996
vn 0.67529297 -0.7241211 -0.13903809
vn 0.578125 -0.15246582 -0.80126953
vn 0.9711914 0.120788574 0.20544434
vn 0.58447266 0.70947266 -0.3935547
vn 0.40771484 0.77001953 -0.49047852
vn 0.7495117 -0.0871582 -0.65625
vn 0.5234375 -0.36450195 0.77001953
vn 0.005870819 -0.9550781 0.29638672
vn -0.11016846 -0.8886719 0.44482422
vn 0.31445312 -0.3725586 0.8730469
vn 0.25732422 0.5961914 0.7602539
vn -0.75390625 -0.65478516 0.05529785
vn -0.7001953 -0.6977539 -0.15063477
vn 0.12225342 0.47705078 0.8701172
vn -0.43603516 0.8383789 0.3269043
vn -0.56591797 -0.16479492 0.8076172
vn -0.98291016 0.17468262 0.06121826
vn -0.9511719 0.27197266 -0.14733887
vn -0.52197266 0.7285156 0.44360352
vn 0.4501953 -0.8720703 0.19226074
vn -0.42285156 -0.8432617 0.33203125
vn -0.34204102 -0.79052734 0.5078125
vn 0.42236328 -0.80908203 0.40820312
vn 0.97216797 -0.011436462 0.23425293
vn -0.71728516 -0.105041504 0.68896484
vn -0.85595703 -0.072509766 0.51171875
vn 0.8955078 -0.08215332 0.43725586
vn 0.5361328 0.73339844 0.41748047
vn 0.14501953 -0.15588379 0.9770508
vn -0.27661133 0.63964844 0.71728516
vn -0.3154297 0.7739258 0.5488281
vn 0.51123047 0.64208984 0.57128906
vn 0.4411621 -0.83740234 -0.32226562
vn -0.05065918 -0.91748047 0.39453125
vn 0.14050293 -0.8725586 0.46826172
vn 0.57421875 -0.8041992 -0.15344238
vn 0.83496094 0.030334473 -0.5498047
vn 0.01828003 -0.23400879 0.97216797
vn -0.20959473 -0.1697998 0.9628906
vn 0.9321289 -0.07397461 -0.35498047
vn 0.6660156 0.7451172 0.026245117
vn 0.8105469 -0.25 0.52978516
vn 0.32128906 0.5385742 0.7788086
vn 0.1920166 0.67285156 0.71435547
vn 0.77246094 0.62402344 0.11804199
vn 0.108947754 -0.9609375 -0.25390625
vn 0.31591797 -0.75439453 0.5751953
vn 0.5029297 -0.73046875 0.46240234
vn 0.31152344 -0.9140625 -0.26049805
vn 0.14379883 -0.32641602 -0.93408203
vn 0.74853516 0.059265137 0.66064453
vn 0.5883789 0.17919922 0.7885742
vn 0.36254883 -0.37573242 -0.85302734
vn 0.4177246 0.58984375 -0.69140625
vn 0.94873047 -0.26049805 -0.17822266
vn 0.75097656 0.6542969 0.087402344
vn 0.6201172 0.77685547 0.107299805
vn 0.5727539 0.45214844 -0.68359375
vn -0.19787598 -0.92285156 -0.33032227
vn 0.5493164 -0.828125 0.11126709
vn 0.6040039 -0.7915039 -0.093322754
vn -0.05291748 -0.8779297 -0.47607422
vn -0.59375 -0.18737793 -0.78271484
vn 0.99609375 -0.048065186 -0.072631836
vn 0.98828125 0.049591064 0.14501953
vn -0.3876953 -0.25610352 -0.8852539
vn -0.13830566 0.6660156 -0.73291016
vn 0.5131836 -0.24682617 -0.8222656
vn 0.65234375 0.62646484 -0.42651367
vn 0.58154297 0.7519531 -0.3095703
vn -0.03704834 0.5366211 -0.8432617
vn 0.5415039 -0.78222656 -0.3083496
vn 0.80859375 0.13537598 -0.5722656
vn 0.67578125 0.025741577 -0.7363281
vn 0.42773438 -0.7553711 -0.4963379
vn -0.29711914 -0.9472656 -0.11834717
vn 0.13208008 0.65185547 -0.7470703
vn 0.15405273 0.77441406 -0.61376953
vn -0.3076172 -0.89697266 -0.31811523
vn -0.9477539 -0.27392578 -0.16357422
vn -0.17028809 -0.24719238 -0.95410156
vn -0.6484375 0.49047852 -0.58203125
vn -0.6538086 0.62353516 -0.42822266
vn -0.8647461 -0.32788086 -0.38085938
vn 0.06707764 -0.8798828 -0.47070312
vn 0.23413086 -0.07269287 -0.9692383
vn 0.0072288513 -0.1352539 -0.99072266
vn -0.12536621 -0.8310547 -0.5419922
vn -0.4404297 -0.8666992 0.23339844
vn -0.30566406 0.6064453 -0.734375
vn -0.17871094 0.72998047 -0.65966797
vn -0.57421875 -0.8144531 0.08258057
vn -0.84716797 -0.04006958 0.52978516
vn -0.79541016 -0.20397949 -0.5703125
vn -0.77685547 0.62402344 -0.08392334
vn -0.6699219 0.7421875 0.021575928
vn -0.9394531 -0.11682129 0.32226562
vn -0.3149414 -0.84521484 -0.43139648
vn -0.5649414 0.010894775 -0.8251953
vn -0.73291016 -0.066223145 -0.6767578
vn -0.4987793 -0.80126953 -0.33007812
vn -0.1328125 -0.89941406 0.4165039
vn -0.7402344 0.6357422 -0.21875
vn -0.6010742 0.7573242 -0.25439453
vn -0.3317871 -0.84472656 0.41967773
vn -0.17407227 -0.12597656 0.9765625
vn -0.9589844 -0.20776367 0.19372559
vn -0.57666016 0.5864258 0.5683594
vn -0.42382812 0.70751953 0.5654297
vn -0.39111328 -0.19030762 0.9003906
g Barrel_0
f 3/3/3 2/2/2 1/1/1
f 6/6/6 5/5/5 4/4/4
f 9/9/9 8/8/8 7/7/7
f 8/8/8 10/10/10 7/7/7
f 7/7/7 10/10/10 11/11/11
f 10/10/10 8/8/8 12/12/12
f 10/10/10 13/13/13 11/11/11
f 11/11/11 13/13/13 14/14/14
f 15/15/15 10/10/10 12/12/12
f 13/13/13 10/10/10 15/15/15
f 15/15/15 12/12/12 16/16/16
f 13/13/13 17/17/17 14/14/14
f 14/14/14 17/17/17 18/18/18
f 19/19/19 15/15/15 16/16/16
f 19/19/19 16/16/16 20/20/20
f 21/21/21 13/13/13 15/15/15
f 17/17/17 13/13/13 21/21/21
f 21/21/21 15/15/15 19/19/19
f 17/17/17 22/22/22 18/18/18
f 23/23/23 17/17/17 21/21/21
f 22/22/22 17/17/17 23/23/23
f 24/24/24 21/21/21 19/19/19
f 23/23/23 21/21/21 24/24/24
f 25/25/25 19/19/19 20/20/20
f 24/24/24 19/19/19 25/25/25
f 18/18/18 22/22/22 26/26/26
f 27/27/27 18/18/18 26/26/26
f 28/28/28 26/26/26 22/22/22
f 29/29/29 22/22/22 23/23/23
f 28/28/28 22/22/22 29/29/29
f 25/25/25 20/20/20 30/30/30
f 20/20/20 31/31/31 30/30/30
f 25/25/25 30/30/30 32/32/32
f 33/33/33 25/25/25 32/32/32
f 33/33/33 24/24/24 25/25/25
f 33/33/33 32/32/32 34/34/34
f 35/35/35 23/23/23 24/24/24
f 35/35/35 24/24/24 33/33/33
f 29/29/29 23/23/23 35/35/35
f 36/36/36 33/33/33 34/34/34
f 36/36/36 35/35/35 33/33/33
f 36/36/36 34/34/34 37/37/37
f 38/38/38 29/29/29 35/35/35
f 38/38/38 35/35/35 36/36/36
f 39/39/39 36/36/36 37/37/37
f 39/39/39 38/38/38 36/36/36
f 39/39/39 37/37/37 40/40/40
f 41/41/41 29/29/29 38/38/38
f 29/29/29 41/41/41 28/28/28
f 42/42/42 39/39/39 40/40/40
f 42/42/42 40/40/40 43/43/43
f 44/44/44 38/38/38 39/39/39
f 44/44/44 41/41/41 38/38/38
f 42/42/42 44/44/44 39/39/39
f 45/45/45 28/28/28 41/41/41
f 45/45/45 41/41/41 44/44/44
f 46/46/46 42/42/42 43/43/43
f 46/46/46 43/43/43 47/47/47
f 48/48/48 44/44/44 42/42/42
f 48/48/48 45/45/45 44/44/44
f 46/46/46 48/48/48 42/42/42
f 49/49/49 46/46/46 47/47/47
f 49/49/49 47/47/47 50/50/50
f 51/51/51 49/49/49 50/50/50
f 51/51/51 52/52/52 49/49/49
f 49/49/49 53/53/53 46/46/46
f 52/52/52 53/53/53 49/49/49
f 53/53/53 48/48/48 46/46/46
f 52/52/52 54/54/54 53/53/53
f 53/53/53 55/55/55 48/48/48
f 54/54/54 55/55/55 53/53/53
f 55/55/55 45/45/45 48/48/48
f 54/54/54 56/56/56 55/55/55
f 56/56/56 57/57/57 55/55/55
f 55/55/55 57/57/57 45/45/45
f 57/57/57 56/56/56 58/58/58
f 59/59/59 57/57/57 58/58/58
f 57/57/57 60/60/60 45/45/45
f 60/60/60 57/57/57 59/59/59
f 28/28/28 45/45/45 60/60/60
f 61/61/61 60/60/60 59/59/59
f 60/60/60 62/62/62 28/28/28
f 62/62/62 60/60/60 61/61/61
f 63/63/63 62/62/62 61/61/61
f 66/66/66 65/65/65 64/64/64
f 65/65/65 67/67/67 64/64/64
f 64/64/64 67/67/67 68/68/68
f 67/67/67 65/65/65 69/69/69
f 67/67/67 70/70/70 68/68/68
f 68/68/68 70/70/70 71/71/71
f 72/72/72 67/67/67 69/69/69
f 70/70/70 67/67/67 72/72/72
f 72/72/72 69/69/69 73/73/73
f 70/70/70 74/74/74 71/71/71
f 71/71/71 74/74/74 75/75/75
f 76/76/76 72/72/72 73/73/73
f 76/76/76 73/73/73 77/77/77
f 78/78/78 70/70/70 72/72/72
f 74/74/74 70/70/70 78/78/78
f 78/78/78 72/72/72 76/76/76
f 74/74/74 79/79/79 75/75/75
f 75/75/75 79/79/79 80/80/80
f 81/81/81 74/74/74 78/78/78
f 79/79/79 74/74/74 81/81/81
f 82/82/82 78/78/78 76/76/76
f 81/81/81 78/78/78 82/82/82
f 83/83/83 76/76/76 77/77/77
f 82/82/82 76/76/76 83/83/83
f 79/79/79 84/84/84 80/80/80
f 80/80/80 84/84/84 85/85/85
f 86/86/86 79/79/79 81/81/81
f 84/84/84 79/79/79 86/86/86
f 83/83/83 77/77/77 87/87/87
f 77/77/77 88/88/88 87/87/87
f 83/83/83 87/87/87 89/89/89
f 90/90/90 83/83/83 89/89/89
f 90/90/90 82/82/82 83/83/83
f 90/90/90 89/89/89 91/91/91
f 92/92/92 81/81/81 82/82/82
f 92/92/92 82/82/82 90/90/90
f 86/86/86 81/81/81 92/92/92
f 93/93/93 90/90/90 91/91/91
f 93/93/93 92/92/92 90/90/90
f 93/93/93 91/91/91 94/94/94
f 95/95/95 86/86/86 92/92/92
f 95/95/95 92/92/92 93/93/93
f 96/96/96 84/84/84 86/86/86
f 96/96/96 86/86/86 95/95/95
f 97/97/97 93/93/93 94/94/94
f 97/97/97 95/95/95 93/93/93
f 98/98/98 84/84/84 96/96/96
f 84/84/84 98/98/98 85/85/85
f 85/85/85 98/98/98 99/99/99
f 100/100/100 96/96/96 95/95/95
f 100/100/100 95/95/95 97/97/97
f 97/97/97 94/94/94 101/101/101
f 101/101/101 94/94/94 102/102/102
f 97/97/97 101/101/101 103/103/103
f 103/103/103 100/100/100 97/97/97
f 103/103/103 101/101/101 104/104/104
f 103/103/103 104/104/104 105/105/105
f 98/98/98 106/106/106 99/99/99
f 99/99/99 106/106/106 107/107/107
f 106/106/106 108/108/108 107/107/107
f 109/109/109 98/98/98 96/96/96
f 109/109/109 96/96/96 100/100/100
f 106/106/106 98/98/98 109/109/109
f 108/108/108 106/106/106 110/110/110
f 110/110/110 106/106/106 109/109/109
f 111/111/111 108/108/108 110/110/110
f 112/112/112 109/109/109 100/100/100
f 112/112/112 100/100/100 103/103/103
f 110/110/110 109/109/109 112/112/112
f 113/113/113 103/103/103 105/105/105
f 113/113/113 112/112/112 103/103/103
f 113/113/113 105/105/105 114/114/114
f 111/111/111 110/110/110 115/115/115
f 115/115/115 110/110/110 112/112/112
f 115/115/115 112/112/112 113/113/113
f 116/116/116 111/111/111 115/115/115
f 117/117/117 113/113/113 114/114/114
f 117/117/117 115/115/115 113/113/113
f 116/116/116 115/115/115 117/117/117
f 117/117/117 114/114/114 118/118/118
f 119/119/119 116/116/116 117/117/117
f 119/119/119 117/117/117 118/118/118
f 122/122/122 121/121/121 120/120/120
f 121/121/121 123/123/123 120/120/120
f 120/120/120 123/123/123 124/124/124
f 123/123/123 125/125/125 124/124/124
f 124/124/124 125/125/125 126/126/126
f 125/125/125 127/127/127 126/126/126
f 127/127/127 128/128/128 126/126/126
f 126/126/126 128/128/128 129/129/129
f 128/128/128 130/130/130 129/129/129
f 129/129/129 130/130/130 131/131/131
f 129/129/129 131/131/131 132/132/132
f 131/131/131 133/133/133 132/132/132
f 132/132/132 133/133/133 134/134/134
f 133/133/133 135/135/135 134/134/134
f 134/134/134 135/135/135 136/136/136
f 135/135/135 137/137/137 136/136/136
f 136/136/136 137/137/137 138/138/138
f 137/137/137 139/139/139 138/138/138
f 142/142/142 141/141/141 140/140/140
f 143/143/143 142/142/142 140/140/140
f 144/144/144 142/142/142 143/143/143
f 145/145/145 144/144/144 143/143/143
f 146/146/146 144/144/144 145/145/145
f 147/147/147 146/146/146 145/145/145
f 148/148/148 146/146/146 147/147/147
f 149/149/149 148/148/148 147/147/147
f 150/150/150 148/148/148 149/149/149
f 151/151/151 150/150/150 149/149/149
f 152/152/152 150/150/150 151/151/151
f 153/153/153 152/152/152 151/151/151
f 154/154/154 152/152/152 153/153/153
f 155/155/155 154/154/154 153/153/153
f 156/156/156 154/154/154 155/155/155
f 157/157/157 156/156/156 155/155/155
f 160/160/160 159/159/159 158/158/158
f 159/159/159 161/161/161 158/158/158
f 158/158/158 161/161/161 162/162/162
f 161/161/161 163/163/163 162/162/162
f 162/162/162 163/163/163 164/164/164
f 163/163/163 165/165/165 164/164/164
f 164/164/164 165/165/165 166/166/166
f 165/165/165 167/167/167 166/166/166
f 166/166/166 167/167/167 168/168/168
f 167/167/167 169/169/169 168/168/168
f 168/168/168 169/169/169 170/170/170
f 169/169/169 171/171/171 170/170/170
f 170/170/170 171/171/171 172/172/172
f 171/171/171 173/173/173 172/172/172
f 172/172/172 173/173/173 174/174/174
f 173/173/173 175/175/175 174/174/174
f 178/178/178 177/177/177 176/176/176
f 177/177/177 179/179/179 176/176/176
f 176/176/176 179/179/179 180/180/180
f 181/181/181 176/176/176 180/180/180
f 181/181/181 180/180/180 182/182/182
f 180/180/180 183/183/183 182/182/182
f 182/182/182 183/183/183 184/184/184
f 185/185/185 182/182/182 184/184/184
f 185/185/185 184/184/184 186/186/186
f 184/184/184 187/187/187 186/186/186
f 186/186/186 187/187/187 188/188/188
f 189/189/189 186/186/186 188/188/188
f 189/189/189 188/188/188 190/190/190
f 188/188/188 191/191/191 190/190/190
f 190/190/190 191/191/191 192/192/192
f 193/193/193 190/190/190 192/192/192
f 196/196/196 195/195/195 194/194/194
f 195/195/195 197/197/197 194/194/194
f 198/198/198 197/197/197 195/195/195
f 199/199/199 198/198/198 195/195/195
f 199/199/199 200/200/200 198/198/198
f 200/200/200 201/201/201 198/198/198
f 202/202/202 201/201/201 200/200/200
f 203/203/203 202/202/202 200/200/200
f 203/203/203 204/204/204 202/202/202
f 204/204/204 205/205/205 202/202/202
f 206/206/206 205/205/205 204/204/204
f 207/207/207 206/206/206 204/204/204
f 207/207/207 208/208/208 206/206/206
f 208/208/208 209/209/209 206/206/206
f 210/210/210 209/209/209 208/208/208
f 211/211/211 210/210/210 208/208/208
f 214/214/214 213/213/213 212/212/212
f 215/215/215 214/214/214 212/212/212
f 216/216/216 214/214/214 215/215/215
f 217/217/217 216/216/216 215/215/215
f 218/218/218 216/216/216 217/217/217
f 219/219/219 218/218/218 217/217/217
f 220/220/220 218/218/218 219/219/219
f 221/221/221 220/220/220 219/219/219
f 222/222/222 220/220/220 221/221/221
f 223/223/223 222/222/222 221/221/221
f 224/224/224 222/222/222 223/223/223
f 225/225/225 224/224/224 223/223/223
f 226/226/226 224/224/224 225/225/225
f 227/227/227 226/226/226 225/225/225
f 228/228/228 226/226/226 227/227/227
f 229/229/229 228/228/228 227/227/227
f 232/232/232 231/231/231 230/230/230
f 233/233/233 232/232/232 230/230/230
f 233/233/233 230/230/230 234/234/234
f 230/230/230 235/235/235 234/234/234
f 234/234/234 235/235/235 236/236/236
f 237/237/237 234/234/234 236/236/236
f 237/237/237 236/236/236 238/238/238
f 236/236/236 239/239/239 238/238/238
f 238/238/238 239/239/239 240/240/240
f 241/241/241 238/238/238 240/240/240
f 241/241/241 240/240/240 242/242/242
f 240/240/240 243/243/243 242/242/242
f 242/242/242 243/243/243 244/244/244
f 245/245/245 242/242/242 244/244/244
f 245/245/245 244/244/244 246/246/246
f 244/244/244 247/247/247 246/246/246
f 250/250/250 249/249/249 248/248/248
f 251/251/251 250/250/250 248/248/248
f 251/251/251 252/252/252 250/250/250
f 252/252/252 253/253/253 250/250/250
f 254/254/254 253/253/253 252/252/252
f 255/255/255 254/254/254 252/252/252
f 255/255/255 256/256/256 254/254/254
f 256/256/256 257/257/257 254/254/254
f 258/258/258 257/257/257 256/256/256
f 259/259/259 258/258/258 256/256/256
f 259/259/259 260/260/260 258/258/258
f 260/260/260 261/261/261 258/258/258
f 262/262/262 261/261/261 260/260/260
f 263/263/263 262/262/262 260/260/260
f 263/263/263 264/264/264 262/262/262
f 264/264/264 265/265/265 262/262/262
f 268/268/268 267/267/267 266/266/266
f 269/269/269 268/268/268 266/266/266
f 270/270/270 268/268/268 269/269/269
f 271/271/271 270/270/270 269/269/269
f 272/272/272 270/270/270 271/271/271
f 273/273/273 272/272/272 271/271/271
f 274/274/274 272/272/272 273/273/273
f 275/275/275 274/274/274 273/273/273
f 276/276/276 274/274/274 275/275/275
f 277/277/277 276/276/276 275/275/275
f 278/278/278 276/276/276 277/277/277
f 279/279/279 278/278/278 277/277/277
f 280/280/280 278/278/278 279/279/279
f 281/281/281 280/280/280 279/279/279
f 282/282/282 280/280/280 281/281/281
f 283/283/283 282/282/282 281/281/281
f 286/286/286 285/285/285 284/284/284
f 285/285/285 287/287/287 284/284/284
f 284/284/284 287/287/287 288/288/288
f 287/287/287 289/289/289 288/288/288
f 288/288/288 289/289/289 290/290/290
f 289/289/289 291/291/291 290/290/290
f 290/290/290 291/291/291 292/292/292
f 291/291/291 293/293/293 292/292/292
f 292/292/292 293/293/293 294/294/294
f 293/293/293 295/295/295 294/294/294
f 294/294/294 295/295/295 296/296/296
f 295/295/295 297/297/297 296/296/296
f 296/296/296 297/297/297 298/298/298
f 297/297/297 299/299/299 298/298/298
f 298/298/298 299/299/299 300/300/300
f 299/299/299 301/301/301 300/300/300
f 304/304/304 303/303/303 302/302/302
f 305/305/305 304/304/304 302/302/302
f 306/306/306 304/304/304 305/305/305
f 307/307/307 306/306/306 305/305/305
f 308/308/308 306/306/306 307/307/307
f 309/309/309 308/308/308 307/307/307
f 310/310/310 308/308/308 309/309/309
f 311/311/311 310/310/310 309/309/309
f 312/312/312 310/310/310 311/311/311
f 313/313/313 312/312/312 311/311/311
f 314/314/314 312/312/312 313/313/313
f 315/315/315 314/314/314 313/313/313
f 316/316/316 314/314/314 315/315/315
f 317/317/317 316/316/316 315/315/315
f 318/318/318 316/316/316 317/317/317
f 319/319/319 318/318/318 317/317/317
f 322/322/322 321/321/321 320/320/320
f 321/321/321 323/323/323 320/320/320
f 320/320/320 323/323/323 324/324/324
f 323/323/323 325/325/325 324/324/324
f 324/324/324 325/325/325 326/326/326
f 325/325/325 327/327/327 326/326/326
f 326/326/326 327/327/327 328/328/328
f 327/327/327 329/329/329 328/328/328
f 328/328/328 329/329/329 330/330/330
f 329/329/329 331/331/331 330/330/330
f 330/330/330 331/331/331 332/332/332
f 331/331/331 333/333/333 332/332/332
f 332/332/332 333/333/333 334/334/334
f 333/333/333 335/335/335 334/334/334
f 334/334/334 335/335/335 336/336/336
f 335/335/335 337/337/337 336/336/336
f 340/340/340 339/339/339 338/338/338
f 339/339/339 341/341/341 338/338/338
f 338/338/338 341/341/341 342/342/342
f 341/341/341 343/343/343 342/342/342
f 342/342/342 343/343/343 344/344/344
f 343/343/343 345/345/345 344/344/344
f 344/344/344 345/345/345 346/346/346
f 345/345/345 347/347/347 346/346/346
f 346/346/346 347/347/347 348/348/348
f 347/347/347 349/349/349 348/348/348
f 348/348/348 349/349/349 350/350/350
f 349/349/349 351/351/351 350/350/350
f 350/350/350 351/351/351 352/352/352
f 351/351/351 353/353/353 352/352/352
f 352/352/352 353/353/353 354/354/354
f 353/353/353 355/355/355 354/354/354
f 358/358/358 357/357/357 356/356/356
f 357/357/357 359/359/359 356/356/356
f 356/356/356 359/359/359 360/360/360
f 359/359/359 361/361/361 360/360/360
f 360/360/360 361/361/361 362/362/362
f 361/361/361 363/363/363 362/362/362
f 362/362/362 363/363/363 364/364/364
f 363/363/363 365/365/365 364/364/364
f 364/364/364 365/365/365 366/366/366
f 365/365/365 367/367/367 366/366/366
f 366/366/366 367/367/367 368/368/368
f 367/367/367 369/369/369 368/368/368
f 368/368/368 369/369/369 370/370/370
f 369/369/369 371/371/371 370/370/370
f 370/370/370 371/371/371 372/372/372
f 371/371/371 373/373/373 372/372/372
f 376/376/376 375/375/375 374/374/374
f 375/375/375 377/377/377 374/374/374
f 374/374/374 377/377/377 378/378/378
f 377/377/377 379/379/379 378/378/378
f 378/378/378 379/379/379 380/380/380
f 379/379/379 381/381/381 380/380/380
f 380/380/380 381/381/381 382/382/382
f 381/381/381 383/383/383 382/382/382
f 382/382/382 383/383/383 384/384/384
f 383/383/383 385/385/385 384/384/384
f 384/384/384 385/385/385 386/386/386
f 385/385/385 387/387/387 386/386/386
f 386/386/386 387/387/387 388/388/388
f 388/388/388 387/387/387 389/389/389
f 392/392/392 391/391/391 390/390/390
f 391/391/391 392/392/392 393/393/393
f 394/394/394 393/393/393 392/392/392
f 395/395/395 394/394/394 392/392/392
f 396/396/396 394/394/394 395/395/395
f 397/397/397 396/396/396 395/395/395
f 393/393/393 398/398/398 391/391/391
f 391/391/391 398/398/398 399/399/399
f 391/391/391 399/399/399 400/400/400
f 400/400/400 401/401/401 391/391/391
f 400/400/400 399/399/399 402/402/402
f 399/399/399 403/403/403 402/402/402
f 402/402/402 403/403/403 404/404/404
f 403/403/403 405/405/405 404/404/404
f 404/404/404 405/405/405 406/406/406
f 405/405/405 407/407/407 406/406/406
f 406/406/406 407/407/407 408/408/408
f 407/407/407 409/409/409 408/408/408
f 412/412/412 411/411/411 410/410/410
f 413/413/413 412/412/412 410/410/410
f 414/414/414 412/412/412 413/413/413
f 415/415/415 414/414/414 413/413/413
f 416/416/416 414/414/414 415/415/415
f 417/417/417 416/416/416 415/415/415
f 418/418/418 416/416/416 417/417/417
f 419/419/419 418/418/418 417/417/417
f 420/420/420 418/418/418 419/419/419
f 421/421/421 420/420/420 419/419/419
f 422/422/422 420/420/420 421/421/421
f 423/423/423 422/422/422 421/421/421
f 424/424/424 422/422/422 423/423/423
f 425/425/425 424/424/424 423/423/423
f 426/426/426 424/424/424 425/425/425
f 427/427/427 426/426/426 425/425/425
f 430/430/430 429/429/429 428/428/428
f 428/428/428 429/429/429 431/431/431
f 428/428/428 431/431/431 432/432/432
f 432/432/432 431/431/431 433/433/433
f 432/432/432 433/433/433 434/434/434
f 434/434/434 433/433/433 435/435/435
f 434/434/434 435/435/435 436/436/436
f 436/436/436 435/435/435 437/437/437
f 436/436/436 437/437/437 438/438/438
f 438/438/438 437/437/437 439/439/439
f 438/438/438 439/439/439 440/440/440
f 440/440/440 439/439/439 441/441/441
f 440/440/440 441/441/441 442/442/442
f 442/442/442 441/441/441 443/443/443
f 446/446/446 445/445/445 444/444/444
f 445/445/445 447/447/447 444/444/444
f 444/444/444 447/447/447 448/448/448
f 447/447/447 449/449/449 448/448/448
f 448/448/448 449/449/449 450/450/450
f 449/449/449 451/451/451 450/450/450
f 450/450/450 451/451/451 452/452/452
f 451/451/451 453/453/453 452/452/452
f 452/452/452 453/453/453 454/454/454
f 453/453/453 455/455/455 454/454/454
f 454/454/454 455/455/455 456/456/456
f 455/455/455 457/457/457 456/456/456
f 456/456/456 457/457/457 458/458/458
f 457/457/457 459/459/459 458/458/458
f 458/458/458 459/459/459 460/460/460
f 459/459/459 461/461/461 460/460/460
f 464/464/464 463/463/463 462/462/462
f 463/463/463 465/465/465 462/462/462
f 462/462/462 465/465/465 466/466/466
f 465/465/465 467/467/467 466/466/466
f 466/466/466 467/467/467 468/468/468
f 467/467/467 469/469/469 468/468/468
f 468/468/468 469/469/469 470/470/470
f 469/469/469 471/471/471 470/470/470
f 470/470/470 471/471/471 472/472/472
f 471/471/471 473/473/473 472/472/472
f 472/472/472 473/473/473 474/474/474
f 473/473/473 475/475/475 474/474/474
f 474/474/474 475/475/475 476/476/476
f 475/475/475 477/477/477 476/476/476
f 476/476/476 477/477/477 478/478/478
f 477/477/477 479/479/479 478/478/478
f 482/482/482 481/481/481 480/480/480
f 483/483/483 482/482/482 480/480/480
f 486/486/486 485/485/485 484/484/484
f 487/487/487 486/486/486 484/484/484
f 490/490/490 489/489/489 488/488/488
f 491/491/491 490/490/490 488/488/488
f 491/491/491 488/488/488 492/492/492
f 490/490/490 493/493/493 489/489/489
f 493/493/493 494/494/494 489/489/489
f 495/495/495 491/491/491 492/492/492
f 495/495/495 492/492/492 496/496/496
f 497/497/497 490/490/490 491/491/491
f 497/497/497 493/493/493 490/490/490
f 497/497/497 491/491/491 495/495/495
f 493/493/493 498/498/498 494/494/494
f 497/497/497 498/498/498 493/493/493
f 498/498/498 499/499/499 494/494/494
f 500/500/500 496/496/496 499/499/499
f 500/500/500 495/495/495 496/496/496
f 497/497/497 495/495/495 500/500/500
f 497/497/497 500/500/500 498/498/498
f 498/498/498 500/500/500 499/499/499
f 503/503/503 502/502/502 501/501/501
f 504/504/504 503/503/503 501/501/501
f 504/504/504 501/501/501 505/505/505
f 503/503/503 506/506/506 502/502/502
f 506/506/506 507/507/507 502/502/502
f 508/508/508 504/504/504 505/505/505
f 508/508/508 505/505/505 509/509/509
f 510/510/510 503/503/503 504/504/504
f 510/510/510 506/506/506 503/503/503
f 510/510/510 504/504/504 508/508/508
f 506/506/506 511/511/511 507/507/507
f 510/510/510 511/511/511 506/506/506
f 511/511/511 512/512/512 507/507/507
f 513/513/513 509/509/509 512/512/512
f 513/513/513 508/508/508 509/509/509
f 510/510/510 508/508/508 513/513/513
f 510/510/510 513/513/513 511/511/511
f 511/511/511 513/513/513 512/512/512
f 516/516/516 515/515/515 514/514/514
f 517/517/517 516/516/516 514/514/514
f 517/517/517 514/514/514 518/518/518
f 516/516/516 519/519/519 515/515/515
f 519/519/519 520/520/520 515/515/515
f 521/521/521 517/517/517 518/518/518
f 521/521/521 518/518/518 522/522/522
f 523/523/523 516/516/516 517/517/517
f 523/523/523 519/519/519 516/516/516
f 523/523/523 517/517/517 521/521/521
f 519/519/519 524/524/524 520/520/520
f 523/523/523 524/524/524 519/519/519
f 524/524/524 525/525/525 520/520/520
f 526/526/526 522/522/522 525/525/525
f 526/526/526 521/521/521 522/522/522
f 523/523/523 521/521/521 526/526/526
f 523/523/523 526/526/526 524/524/524
f 524/524/524 526/526/526 525/525/525
f 529/529/529 528/528/528 527/527/527
f 530/530/530 529/529/529 527/527/527
f 530/530/530 527/527/527 531/531/531
f 529/529/529 532/532/532 528/528/528
f 532/532/532 533/533/533 528/528/528
f 534/534/534 530/530/530 531/531/531
f 534/534/534 531/531/531 535/535/535
f 536/536/536 529/529/529 530/530/530
f 536/536/536 532/532/532 529/529/529
f 536/536/536 530/530/530 534/534/534
f 532/532/532 537/537/537 533/533/533
f 536/536/536 537/537/537 532/532/532
f 537/537/537 538/538/538 533/533/533
f 539/539/539 535/535/535 538/538/538
f 539/539/539 534/534/534 535/535/535
f 536/536/536 534/534/534 539/539/539
f 536/536/536 539/539/539 537/537/537
f 537/537/537 539/539/539 538/538/538
f 542/542/542 541/541/541 540/540/540
f 543/543/543 542/542/542 540/540/540
f 543/543/543 540/540/540 544/544/544
f 542/542/542 545/545/545 541/541/541
f 545/545/545 546/546/546 541/541/541
f 547/547/547 543/543/543 544/544/544
f 547/547/547 544/544/544 548/548/548
f 549/549/549 542/542/542 543/543/543
f 549/549/549 545/545/545 542/542/542
f 549/549/549 543/543/543 547/547/547
f 545/545/545 550/550/550 546/546/546
f 549/549/549 550/550/550 545/545/545
f 550/550/550 551/551/551 546/546/546
f 552/552/552 548/548/548 551/551/551
f 552/552/552 547/547/547 548/548/548
f 549/549/549 547/547/547 552/552/552
f 549/549/549 552/552/552 550/550/550
f 550/550/550 552/552/552 551/551/551
f 555/555/555 554/554/554 553/553/553
f 556/556/556 555/555/555 553/553/553
f 556/556/556 553/553/553 557/557/557
f 555/555/555 558/558/558 554/554/554
f 558/558/558 559/559/559 554/554/554
f 560/560/560 556/556/556 557/557/557
f 560/560/560 557/557/557 561/561/561
f 562/562/562 555/555/555 556/556/556
f 562/562/562 558/558/558 555/555/555
f 562/562/562 556/556/556 560/560/560
f 558/558/558 563/563/563 559/559/559
f 562/562/562 563/563/563 558/558/558
f 563/563/563 564/564/564 559/559/559
f 565/565/565 561/561/561 564/564/564
f 565/565/565 560/560/560 561/561/561
f 562/562/562 560/560/560 565/565/565
f 562/562/562 565/565/565 563/563/563
f 563/563/563 565/565/565 564/564/564
f 568/568/568 567/567/567 566/566/566
f 569/569/569 568/568/568 566/566/566
f 569/569/569 566/566/566 570/570/570
f 568/568/568 571/571/571 567/567/567
f 571/571/571 572/572/572 567/567/567
f 573/573/573 569/569/569 570/570/570
f 573/573/573 570/570/570 574/574/574
f 575/575/575 568/568/568 569/569/569
f 575/575/575 571/571/571 568/568/568
f 575/575/575 569/569/569 573/573/573
f 571/571/571 576/576/576 572/572/572
f 575/575/575 576/576/576 571/571/571
f 576/576/576 577/577/577 572/572/572
f 578/578/578 574/574/574 577/577/577
f 578/578/578 573/573/573 574/574/574
f 575/575/575 573/573/573 578/578/578
f 575/575/575 578/578/578 576/576/576
f 576/576/576 578/578/578 577/577/577
f 581/581/581 580/580/580 579/579/579
f 582/582/582 581/581/581 579/579/579
f 582/582/582 579/579/579 583/583/583
f 581/581/581 584/584/584 580/580/580
f 584/584/584 585/585/585 580/580/580
f 586/586/586 582/582/582 583/583/583
f 586/586/586 583/583/583 587/587/587
f 588/588/588 581/581/581 582/582/582
f 588/588/588 584/584/584 581/581/581
f 588/588/588 582/582/582 586/586/586
f 584/584/584 589/589/589 585/585/585
f 588/588/588 589/589/589 584/584/584
f 589/589/589 590/590/590 585/585/585
f 591/591/591 587/587/587 590/590/590
f 591/591/591 586/586/586 587/587/587
f 588/588/588 586/586/586 591/591/591
f 588/588/588 591/591/591 589/589/589
f 589/589/589 591/591/591 590/590/590
f 594/594/594 593/593/593 592/592/592
f 595/595/595 594/594/594 592/592/592
f 595/595/595 592/592/592 596/596/596
f 594/594/594 597/597/597 593/593/593
f 597/597/597 598/598/598 593/593/593
f 599/599/599 595/595/595 596/596/596
f 599/599/599 596/596/596 600/600/600
f 601/601/601 594/594/594 595/595/595
f 601/601/601 597/597/597 594/594/594
f 601/601/601 595/595/595 599/599/599
f 597/597/597 602/602/602 598/598/598
f 601/601/601 602/602/602 597/597/597
f 602/602/602 603/603/603 598/598/598
f 604/604/604 600/600/600 603/603/603
f 604/604/604 599/599/599 600/600/600
f 601/601/601 599/599/599 604/604/604
f 601/601/601 604/604/604 602/602/602
f 602/602/602 604/604/604 603/603/603
f 607/607/607 606/606/606 605/605/605
f 608/608/608 607/607/607 605/605/605
f 608/608/608 605/605/605 609/609/609
f 607/607/607 610/610/610 606/606/606
f 610/610/610 611/611/611 606/606/606
f 612/612/612 608/608/608 609/609/609
f 612/612/612 609/609/609 613/613/613
f 614/614/614 607/607/607 608/608/608
f 614/614/614 610/610/610 607/607/607
f 614/614/614 608/608/608 612/612/612
f 610/610/610 615/615/615 611/611/611
f 614/614/614 615/615/615 610/610/610
f 615/615/615 616/616/616 611/611/611
f 617/617/617 613/613/613 616/616/616
f 617/617/617 612/612/612 613/613/613
f 614/614/614 612/612/612 617/617/617
f 614/614/614 617/617/617 615/615/615
f 615/615/615 617/617/617 616/616/616
f 620/620/620 619/619/619 618/618/618
f 621/621/621 620/620/620 618/618/618
f 621/621/621 618/618/618 622/622/622
f 620/620/620 623/623/623 619/619/619
f 623/623/623 624/624/624 619/619/619
f 625/625/625 621/621/621 622/622/622
f 625/625/625 622/622/622 626/626/626
f 627/627/627 620/620/620 621/621/621
f 627/627/627 623/623/623 620/620/620
f 627/627/627 621/621/621 625/625/625
f 623/623/623 628/628/628 624/624/624
f 627/627/627 628/628/628 623/623/623
f 628/628/628 629/629/629 624/624/624
f 630/630/630 626/626/626 629/629/629
f 630/630/630 625/625/625 626/626/626
f 627/627/627 625/625/625 630/630/630
f 627/627/627 630/630/630 628/628/628
f 628/628/628 630/630/630 629/629/629
f 633/633/633 632/632/632 631/631/631
f 634/634/634 633/633/633 631/631/631
f 634/634/634 631/631/631 635/635/635
f 633/633/633 636/636/636 632/632/632
f 636/636/636 637/637/637 632/632/632
f 638/638/638 634/634/634 635/635/635
f 638/638/638 635/635/635 639/639/639
f 640/640/640 633/633/633 634/634/634
f 640/640/640 636/636/636 633/633/633
f 640/640/640 634/634/634 638/638/638
f 636/636/636 641/641/641 637/637/637
f 640/640/640 641/641/641 636/636/636
f 641/641/641 642/642/642 637/637/637
f 643/643/643 639/639/639 642/642/642
f 643/643/643 638/638/638 639/639/639
f 640/640/640 638/638/638 643/643/643
f 640/640/640 643/643/643 641/641/641
f 641/641/641 643/643/643 642/642/642
f 646/646/646 645/645/645 644/644/644
f 647/647/647 646/646/646 644/644/644
f 647/647/647 644/644/644 648/648/648
f 646/646/646 649/649/649 645/645/645
f 649/649/649 650/650/650 645/645/645
f 651/651/651 647/647/647 648/648/648
f 651/651/651 648/648/648 652/652/652
f 653/653/653 646/646/646 647/647/647
f 653/653/653 649/649/649 646/646/646
f 653/653/653 647/647/647 651/651/651
f 649/649/649 654/654/654 650/650/650
f 653/653/653 654/654/654 649/649/649
f 654/654/654 655/655/655 650/650/650
f 656/656/656 652/652/652 655/655/655
f 656/656/656 651/651/651 652/652/652
f 653/653/653 651/651/651 656/656/656
f 653/653/653 656/656/656 654/654/654
f 654/654/654 656/656/656 655/655/655
f 659/659/659 658/658/658 657/657/657
f 660/660/660 659/659/659 657/657/657
f 660/660/660 657/657/657 661/661/661
f 659/659/659 662/662/662 658/658/658
f 662/662/662 663/663/663 658/658/658
f 664/664/664 660/660/660 661/661/661
f 664/664/664 661/661/661 665/665/665
f 666/666/666 659/659/659 660/660/660
f 666/666/666 662/662/662 659/659/659
f 666/666/666 660/660/660 664/664/664
f 662/662/662 667/667/667 663/663/663
f 666/666/666 667/667/667 662/662/662
f 667/667/667 668/668/668 663/663/663
f 669/669/669 665/665/665 668/668/668
f 669/669/669 664/664/664 665/665/665
f 666/666/666 664/664/664 669/669/669
f 666/666/666 669/669/669 667/667/667
f 667/667/667 669/669/669 668/668/668
f 672/672/672 671/671/671 670/670/670
f 673/673/673 672/672/672 670/670/670
f 673/673/673 670/670/670 674/674/674
f 672/672/672 675/675/675 671/671/671
f 675/675/675 676/676/676 671/671/671
f 677/677/677 673/673/673 674/674/674
f 677/677/677 674/674/674 678/678/678
f 679/679/679 672/672/672 673/673/673
f 679/679/679 675/675/675 672/672/672
f 679/679/679 673/673/673 677/677/677
f 675/675/675 680/680/680 676/676/676
f 679/679/679 680/680/680 675/675/675
f 680/680/680 681/681/681 676/676/676
f 682/682/682 678/678/678 681/681/681
f 682/682/682 677/677/677 678/678/678
f 679/679/679 677/677/677 682/682/682
f 679/679/679 682/682/682 680/680/680
f 680/680/680 682/682/682 681/681/681
f 685/685/685 684/684/684 683/683/683
f 686/686/686 685/685/685 683/683/683
f 686/686/686 683/683/683 687/687/687
f 685/685/685 688/688/688 684/684/684
f 688/688/688 689/689/689 684/684/684
f 690/690/690 686/686/686 687/687/687
f 690/690/690 687/687/687 691/691/691
f 692/692/692 685/685/685 686/686/686
f 692/692/692 688/688/688 685/685/685
f 692/692/692 686/686/686 690/690/690
f 688/688/688 693/693/693 689/689/689
f 692/692/692 693/693/693 688/688/688
f 693/693/693 694/694/694 689/689/689
f 695/695/695 691/691/691 694/694/694
f 695/695/695 690/690/690 691/691/691
f 692/692/692 690/690/690 695/695/695
f 692/692/692 695/695/695 693/693/693
f 693/693/693 695/695/695 694/694/694
