g CartFrontWheels
v -0.0023662583 0.15651962 0.3620512
v 0.0424084 0.14563686 0.26363647
v 0.044329423 0.15203036 0.36203155
v -0.0016302312 0.14988375 0.26366493
v -0.06867631 0.13515687 0.36187434
v -0.065986164 0.12906167 0.26360703
v -0.1109407 0.111774825 0.36137325
v -0.10617978 0.107083336 0.26380703
v -0.13696489 0.06586716 0.3608396
v -0.13077992 0.06335227 0.26383933
v -0.15570542 0.00624597 0.35964438
v -0.14904223 0.0055433437 0.26424384
v -0.15248933 -0.051309217 0.35855144
v -0.14600001 -0.04952903 0.2645982
v -0.13528281 -0.08761985 0.3579349
v -0.13014048 -0.08324781 0.2648012
v -0.08583866 -0.124012195 0.35769004
v -0.08229005 -0.1183098 0.2647007
v -0.037939385 -0.15069972 0.35703146
v -0.035554275 -0.14439665 0.2649606
v -0.035554275 -0.14439665 0.2649606
v -0.037939385 -0.15069972 0.35703146
v -0.004998804 -0.15809579 0.35678118
v -0.005103246 -0.15133637 0.26507816
v 0.053053662 -0.14292693 0.35705832
v 0.05028514 -0.13677004 0.26500374
v 0.10654734 -0.10603375 0.35757822
v 0.101972856 -0.10107084 0.26493406
v 0.14750381 -0.052899044 0.35843092
v 0.1414683 -0.049875077 0.2647105
v 0.16208011 0.00818711 0.35957
v 0.1553714 0.0077757537 0.26430783
v 0.13225123 0.08073225 0.36101934
v 0.12653278 0.077277526 0.26380342
v 0.08881819 0.12916762 0.36177596
v 0.084670074 0.12394144 0.2636467
v 0.044329423 0.15203036 0.36203155
v 0.0424084 0.14563686 0.26363647
v -0.0023663177 0.1565196 -0.3620512
v 0.04432936 0.15203035 -0.36203146
v 0.042408347 0.14563684 -0.2636365
v -0.0016302816 0.14988372 -0.26366493
v -0.06867637 0.13515685 -0.36187434
v -0.06598622 0.12906165 -0.26360703
v -0.11094076 0.11177482 -0.36137325
v -0.106179826 0.107083336 -0.263807
v -0.13696495 0.065867156 -0.36083958
v -0.13077998 0.063352264 -0.26383936
v -0.15570548 0.0062459693 -0.35964438
v -0.1490423 0.0055433433 -0.26424384
v -0.1524894 -0.051309217 -0.35855144
v -0.14600009 -0.049529027 -0.2645982
v -0.13528287 -0.08761983 -0.35793486
v -0.13014053 -0.08324781 -0.26480117
v -0.08583872 -0.12401218 -0.35769004
v -0.08229011 -0.11830978 -0.2647007
v -0.037939444 -0.1506997 -0.35703146
v -0.035554323 -0.14439663 -0.2649606
v -0.035554323 -0.14439663 -0.2649606
v -0.004998862 -0.15809578 -0.35678118
v -0.037939444 -0.1506997 -0.35703146
v -0.0051032966 -0.15133636 -0.2650782
v 0.053053606 -0.14292692 -0.35705832
v 0.050285086 -0.13677002 -0.2650037
v 0.106547266 -0.10603375 -0.35757822
v 0.101972766 -0.10107083 -0.2649341
v 0.14750373 -0.052899044 -0.35843092
v 0.14146821 -0.049875073 -0.2647105
v 0.16208003 0.008187108 -0.35957
v 0.15537132 0.0077757523 -0.26430786
v 0.13225114 0.08073224 -0.36101934
v 0.1265327 0.07727752 -0.26380345
v 0.08881812 0.1291676 -0.36177596
v 0.08466999 0.12394142 -0.2636467
v 0.04432936 0.15203035 -0.36203146
v 0.042408347 0.14563684 -0.2636365
v -0.014025741 -0.0242933 -0.26164925
v -0.02805147 -5.100494E-09 0.26164922
v -0.01402572 -0.0242933 0.26164922
v -0.02805149 -5.100494E-09 -0.26164925
v -0.0140257105 0.024293294 0.26164922
v -0.014025733 0.024293294 -0.26164925
v 0.01402577 0.024293305 0.26164922
v 0.014025748 0.024293305 -0.26164925
v 0.028051546 -1.0714141E-08 0.26164922
v 0.028051523 -1.0714141E-08 -0.26164925
v 0.014025788 -0.024293311 0.26164922
v 0.0140257655 -0.024293311 -0.26164925
v -0.01402572 -0.0242933 0.26164922
v -0.014025741 -0.0242933 -0.26164925
v -0.028371563 0.049141057 0.42843628
v 2.8648843E-08 0.05674322 0.42843628
v 0.028371619 0.049141098 0.42843628
v 0.049141087 0.028371628 0.42843628
v -0.04914104 0.028371602 0.42843628
v 0.056743283 -2.1432633E-08 0.42843628
v -0.056743186 -1.0519374E-08 0.42843628
v 0.049141128 -0.028371641 0.42843628
v -0.04914105 -0.028371623 0.42843628
v 0.028371627 -0.049141098 0.42843628
v -0.028371582 -0.049141087 0.42843628
v 3.6347355E-08 -0.056743238 0.42843628
v 0.036991246 0.09086094 0.3673488
v 0.0303103 0.08392583 0.40972725
v -0.027197067 0.079130486 0.4118237
v -0.034208488 0.08640869 0.3673488
v -0.017910715 3.1316119E-09 0.38746676
v -0.027197067 0.079130486 0.4118237
v 0.0303103 0.08392583 0.40972725
v 0.017910775 -3.131616E-09 0.38746676
v -0.034208488 0.08640869 0.3673488
v -0.027197067 0.079130486 0.4118237
v -0.017910715 3.1316119E-09 0.38746676
v -0.040886905 -0.08473907 0.3673488
v -0.032915734 -0.07640634 0.40900028
v 0.030006105 -0.079904705 0.40957534
v 0.017910775 -3.131616E-09 0.38746676
v 0.03643464 -0.0864087 0.3673488
v 0.036991246 0.09086094 0.3673488
v 0.0303103 0.08392583 0.40972725
v 0.030006105 -0.079904705 0.40957534
v 0.03643464 -0.0864087 0.3673488
v -0.040886905 -0.08473907 0.3673488
v -0.032915734 -0.07640634 0.40900028
v -0.032915734 -0.07640634 0.40900028
v -0.017910715 3.1316119E-09 0.38746676
v 0.017910775 -3.131616E-09 0.38746676
v 0.030006105 -0.079904705 0.40957534
v 0.028371582 0.049141098 -0.42843628
v -8.806244E-09 0.05674322 -0.42843628
v -0.0283716 0.049141057 -0.42843628
v 0.04914105 0.028371628 -0.42843628
v -0.049141075 0.028371602 -0.42843628
v 0.056743246 -2.1432633E-08 -0.42843628
v -0.056743223 -1.0519374E-08 -0.42843628
v 0.04914109 -0.028371641 -0.42843628
v -0.049141087 -0.028371623 -0.42843628
v 0.028371591 -0.049141098 -0.42843628
v -0.028371619 -0.049141087 -0.42843628
v -1.1077317E-09 -0.056743238 -0.42843628
v 0.036991216 0.09086094 -0.3673488
v -0.034208518 0.08640869 -0.3673488
v -0.027197106 0.079130486 -0.4118237
v 0.03031026 0.08392583 -0.40972725
v -0.017910749 3.1316119E-09 -0.38746676
v 0.017910741 -3.131616E-09 -0.38746676
v 0.03031026 0.08392583 -0.40972725
v -0.027197106 0.079130486 -0.4118237
v -0.034208518 0.08640869 -0.3673488
v -0.017910749 3.1316119E-09 -0.38746676
v -0.027197106 0.079130486 -0.4118237
v -0.040886935 -0.08473907 -0.3673488
v -0.03291577 -0.07640634 -0.40900028
v 0.030006068 -0.079904705 -0.40957534
v 0.03643461 -0.0864087 -0.3673488
v 0.017910741 -3.131616E-09 -0.38746676
v 0.036991216 0.09086094 -0.3673488
v 0.03031026 0.08392583 -0.40972725
v 0.030006068 -0.079904705 -0.40957534
v -0.03291577 -0.07640634 -0.40900028
v -0.040886935 -0.08473907 -0.3673488
v 0.03643461 -0.0864087 -0.3673488
v -0.03291577 -0.07640634 -0.40900028
v 0.030006068 -0.079904705 -0.40957534
v 0.017910741 -3.131616E-09 -0.38746676
v -0.017910749 3.1316119E-09 -0.38746676
v 0.056743283 -2.1432633E-08 0.42843628
v 0.045596622 0.026325218 0.367
v 0.052650474 -2.1147354E-08 0.367
v 0.04559664 -0.026325226 0.367
v 0.049141087 0.028371628 0.42843628
v 0.049141128 -0.028371641 0.42843628
v 0.026325228 0.045596607 0.367
v 0.028371627 -0.049141098 0.42843628
v 0.028371619 0.049141098 0.42843628
v 0.026325239 -0.045596614 0.367
v 2.524777E-08 0.052650407 0.367
v 3.6347355E-08 -0.056743238 0.42843628
v 2.8648843E-08 0.05674322 0.42843628
v 3.4377504E-08 -0.05265042 0.367
v -0.026325177 0.04559658 0.367
v -0.028371582 -0.049141087 0.42843628
v -0.028371563 0.049141057 0.42843628
v -0.026325194 -0.045596603 0.367
v -0.045596555 0.026325194 0.367
v -0.04914105 -0.028371623 0.42843628
v -0.04914104 0.028371602 0.42843628
v -0.045596566 -0.026325213 0.367
v -0.052650366 -1.0697075E-08 0.367
v -0.056743186 -1.0519374E-08 0.42843628
v 0.056743246 -2.1432633E-08 -0.42843628
v 0.052650444 -2.1147354E-08 -0.367
v 0.04559659 0.026325218 -0.367
v 0.045596607 -0.026325226 -0.367
v 0.04914105 0.028371628 -0.42843628
v 0.04914109 -0.028371641 -0.42843628
v 0.026325194 0.045596607 -0.367
v 0.028371591 -0.049141098 -0.42843628
v 0.028371582 0.049141098 -0.42843628
v 0.026325205 -0.045596614 -0.367
v -6.836389E-09 0.052650407 -0.367
v -1.1077317E-09 -0.056743238 -0.42843628
v -8.806244E-09 0.05674322 -0.42843628
v 2.2933442E-09 -0.05265042 -0.367
v -0.026325213 0.04559658 -0.367
v -0.028371619 -0.049141087 -0.42843628
v -0.0283716 0.049141057 -0.42843628
v -0.026325228 -0.045596603 -0.367
v -0.04559659 0.026325194 -0.367
v -0.049141087 -0.028371623 -0.42843628
v -0.049141075 0.028371602 -0.42843628
v -0.045596592 -0.026325213 -0.367
v -0.052650392 -1.0697075E-08 -0.367
v -0.056743223 -1.0519374E-08 -0.42843628
v 0.08881819 0.12916762 0.36177596
v 0.13225123 0.08073225 0.36101934
v 0.10962871 0.06608681 0.37862742
v 0.07250607 0.10795615 0.3794781
v 0.044329423 0.15203036 0.36203155
v 0.1361617 0.0046395706 0.37700033
v 0.16208011 0.00818711 0.35957
v 0.036593225 0.1265332 0.3798277
v -0.0023662583 0.15651962 0.3620512
v 0.1232054 -0.044075746 0.37601325
v 0.14750381 -0.052899044 0.35843092
v 5.3579293E-05 0.13016963 0.3798533
v -0.06867631 0.13515687 0.36187434
v -0.058292005 0.11029102 0.37965748
v -0.1109407 0.111774825 0.36137325
v -0.092761666 0.092447504 0.37896883
v -0.13696489 0.06586716 0.3608396
v -0.112777844 0.054007925 0.3784595
v -0.15570542 0.00624597 0.35964438
v -0.1298341 0.00095117104 0.37711546
v -0.15248933 -0.051309217 0.35855144
v -0.12672031 -0.047406323 0.37599415
v -0.13528281 -0.08761985 0.3579349
v -0.11418574 -0.072282314 0.37541246
v -0.08583866 -0.124012195 0.35769004
v 0.08711189 -0.08909438 0.37511218
v 0.10654734 -0.10603375 0.35757822
v -0.0718288 -0.10160383 0.37510058
v -0.037939385 -0.15069972 0.35703146
v 0.04014453 -0.12047087 0.37445223
v 0.053053662 -0.14292693 0.35705832
v -0.030065402 -0.12554811 0.37446108
v -0.004998804 -0.15809579 0.35678118
v -0.00798693 -0.13235794 0.37407604
v 0.12653278 0.077277526 0.26380342
v 0.084670074 0.12394144 0.2636467
v 0.0724753 0.108188674 0.2432243
v 0.10960001 0.06634343 0.24349795
v 0.1553714 0.0077757537 0.26430783
v 0.036576096 0.12674507 0.24312812
v 0.0424084 0.14563686 0.26363647
v 0.13616115 0.004894982 0.24428077
v 0.1414683 -0.049875077 0.2647105
v 6.11747E-05 0.13037616 0.24315156
v -0.0016302312 0.14988375 0.26366493
v -0.058266394 0.110512845 0.24307458
v -0.065986164 0.12906167 0.26360703
v -0.092734605 0.092681244 0.24351811
v -0.10617978 0.107083336 0.26380703
v -0.11275391 0.0542787 0.24350202
v -0.13077992 0.06335227 0.26383933
v -0.12982881 0.00122186 0.24411176
v -0.14904223 0.0055433437 0.26424384
v -0.12673785 -0.047143023 0.24456885
v -0.14600001 -0.04952903 0.2645982
v 0.123232335 -0.04382486 0.24460414
v 0.101972856 -0.10107084 0.26493406
v -0.1142143 -0.07204594 0.24481577
v -0.13014048 -0.08324781 0.2648012
v 0.08714443 -0.08886097 0.24488327
v 0.05028514 -0.13677004 0.26500374
v -0.07186034 -0.101372086 0.2447195
v -0.08229005 -0.1183098 0.2647007
v 0.04016661 -0.120255195 0.24510884
v -0.005103246 -0.15133637 0.26507816
v -0.030089727 -0.12532888 0.24502742
v -0.035554275 -0.14439665 0.2649606
v -0.007991315 -0.13215375 0.2453227
v 0.08881812 0.1291676 -0.36177596
v 0.07250602 0.10795615 -0.3794781
v 0.109628625 0.0660868 -0.3786274
v 0.13225114 0.08073224 -0.36101934
v 0.04432936 0.15203035 -0.36203146
v 0.13616161 0.00463957 -0.37700033
v 0.16208003 0.008187108 -0.35957
v 0.036593173 0.12653318 -0.3798277
v -0.0023663177 0.1565196 -0.3620512
v 0.12320533 -0.044075742 -0.37601325
v 0.14750373 -0.052899044 -0.35843092
v 5.3518543E-05 0.13016962 -0.3798533
v -0.06867637 0.13515685 -0.36187434
v -0.058292057 0.11029102 -0.37965748
v -0.11094076 0.11177482 -0.36137325
v -0.092761725 0.0924475 -0.37896883
v -0.13696495 0.065867156 -0.36083958
v -0.112777896 0.054007925 -0.37845945
v -0.15570548 0.0062459693 -0.35964438
v -0.12983415 0.0009511708 -0.37711546
v -0.1524894 -0.051309217 -0.35855144
v -0.12672037 -0.047406323 -0.37599412
v -0.13528287 -0.08761983 -0.35793486
v -0.114185795 -0.07228231 -0.37541243
v -0.08583872 -0.12401218 -0.35769004
v 0.08711179 -0.08909437 -0.37511218
v 0.106547266 -0.10603375 -0.35757822
v -0.07182886 -0.10160382 -0.37510058
v -0.037939444 -0.1506997 -0.35703146
v 0.04014447 -0.120470844 -0.37445223
v 0.053053606 -0.14292692 -0.35705832
v -0.030065464 -0.1255481 -0.37446108
v -0.004998862 -0.15809578 -0.35678118
v -0.007986992 -0.13235793 -0.37407604
v 0.1265327 0.07727752 -0.26380345
v 0.10959993 0.06634342 -0.243498
v 0.07247526 0.108188674 -0.2432243
v 0.08466999 0.12394142 -0.2636467
v 0.15537132 0.0077757523 -0.26430786
v 0.036576044 0.12674506 -0.24312812
v 0.042408347 0.14563684 -0.2636365
v 0.13616106 0.0048949816 -0.24428077
v 0.14146821 -0.049875073 -0.2647105
v 6.11259E-05 0.13037615 -0.24315159
v -0.0016302816 0.14988372 -0.26366493
v -0.058266442 0.110512845 -0.24307458
v -0.06598622 0.12906165 -0.26360703
v -0.09273465 0.09268124 -0.24351816
v -0.106179826 0.107083336 -0.263807
v -0.11275396 0.054278698 -0.24350202
v -0.13077998 0.063352264 -0.26383936
v -0.12982887 0.0012218598 -0.24411178
v -0.1490423 0.0055433433 -0.26424384
v -0.12673791 -0.047143023 -0.24456885
v -0.14600009 -0.049529027 -0.2645982
v 0.12323227 -0.04382485 -0.24460416
v 0.101972766 -0.10107083 -0.2649341
v -0.11421435 -0.07204593 -0.24481572
v -0.13014053 -0.08324781 -0.26480117
v 0.08714436 -0.088860966 -0.24488327
v 0.050285086 -0.13677002 -0.2650037
v -0.07186039 -0.10137208 -0.2447195
v -0.08229011 -0.11830978 -0.2647007
v 0.040166564 -0.12025518 -0.24510889
v -0.0051032966 -0.15133636 -0.2650782
v -0.030089775 -0.12532887 -0.24502742
v -0.035554323 -0.14439663 -0.2649606
v -0.007991365 -0.13215373 -0.2453227
vt 0.6621094 0.6113281
vt 0.66845703 0.62841797
vt 0.6699219 0.6118164
vt 0.6611328 0.6279297
vt 0.6503906 0.61035156
vt 0.64941406 0.6269531
vt 0.6425781 0.6098633
vt 0.64208984 0.62646484
vt 0.63378906 0.6098633
vt 0.6333008 0.62646484
vt 0.6230469 0.61035156
vt 0.6230469 0.62646484
vt 0.61328125 0.61083984
vt 0.61376953 0.62646484
vt 0.6064453 0.61083984
vt 0.60791016 0.6269531
vt 0.5961914 0.6118164
vt 0.59765625 0.6274414
vt 0.58691406 0.61279297
vt 0.5888672 0.62841797
vt 0.9160156 0.2220459
vt 0.9003906 0.22021484
vt 0.89990234 0.22595215
vt 0.91552734 0.22729492
vt 0.89941406 0.23596191
vt 0.9145508 0.23693848
vt 0.8984375 0.24682617
vt 0.9140625 0.24743652
vt 0.8979492 0.25805664
vt 0.9140625 0.25830078
vt 0.8979492 0.26879883
vt 0.9140625 0.26831055
vt 0.8984375 0.28198242
vt 0.9145508 0.28100586
vt 0.8989258 0.29296875
vt 0.91552734 0.2915039
vt 0.89990234 0.30126953
vt 0.9160156 0.29956055
vt 0.69384766 0.35180664
vt 0.6948242 0.35961914
vt 0.7114258 0.35791016
vt 0.7104492 0.3503418
vt 0.6933594 0.3400879
vt 0.70996094 0.33911133
vt 0.6928711 0.3317871
vt 0.70947266 0.33129883
vt 0.6928711 0.32299805
vt 0.70947266 0.32299805
vt 0.6933594 0.3125
vt 0.7089844 0.31274414
vt 0.6933594 0.30273438
vt 0.70947266 0.3034668
vt 0.69384766 0.29614258
vt 0.70947266 0.29711914
vt 0.6948242 0.28588867
vt 0.7104492 0.28710938
vt 0.6958008 0.27661133
vt 0.7114258 0.2783203
vt 0.90185547 0.42456055
vt 0.91796875 0.4284668
vt 0.91748047 0.42285156
vt 0.90234375 0.42993164
vt 0.91845703 0.43847656
vt 0.9033203 0.43945312
vt 0.9194336 0.4494629
vt 0.9038086 0.44995117
vt 0.9199219 0.46069336
vt 0.9038086 0.4609375
vt 0.9199219 0.4711914
vt 0.9038086 0.47094727
vt 0.9194336 0.484375
vt 0.9033203 0.48364258
vt 0.9189453 0.49536133
vt 0.90234375 0.49414062
vt 0.91796875 0.50390625
vt 0.90185547 0.5019531
vt 0.7104492 0.25219727
vt 0.6220703 0.24743652
vt 0.6220703 0.25219727
vt 0.7104492 0.24743652
vt 0.6220703 0.24267578
vt 0.7104492 0.24267578
vt 0.6220703 0.23791504
vt 0.7104492 0.23791504
vt 0.6220703 0.23327637
vt 0.7104492 0.23327637
vt 0.6220703 0.22851562
vt 0.7104492 0.22851562
vt 0.6220703 0.22375488
vt 0.7104492 0.22375488
vt 0.61621094 0.9794922
vt 0.61865234 0.9838867
vt 0.6230469 0.9863281
vt 0.6279297 0.9863281
vt 0.61621094 0.9746094
vt 0.6323242 0.9838867
vt 0.61865234 0.9707031
vt 0.6347656 0.9794922
vt 0.6230469 0.96777344
vt 0.6347656 0.9746094
vt 0.6279297 0.96777344
vt 0.6323242 0.9707031
vt 0.35668945 0.98535156
vt 0.35546875 0.97802734
vt 0.34570312 0.97753906
vt 0.34472656 0.98535156
vt 0.70654297 0.6191406
vt 0.6923828 0.6176758
vt 0.69189453 0.6274414
vt 0.70654297 0.625
vt 0.19226074 0.6123047
vt 0.19995117 0.6113281
vt 0.19702148 0.59765625
vt 0.19226074 0.5834961
vt 0.19946289 0.58447266
vt 0.96533203 0.21154785
vt 0.95166016 0.21411133
vt 0.9663086 0.21875
vt 0.93652344 0.21875
vt 0.9370117 0.21154785
vt 0.9868164 0.13708496
vt 0.97998047 0.13598633
vt 0.97998047 0.14892578
vt 0.9868164 0.14758301
vt 0.71972656 0.6166992
vt 0.70654297 0.6191406
vt 0.70654297 0.625
vt 0.7207031 0.6274414
vt 0.011856079 0.9794922
vt 0.014328003 0.9838867
vt 0.018600464 0.9863281
vt 0.011856079 0.9746094
vt 0.023544312 0.9863281
vt 0.014328003 0.97021484
vt 0.027832031 0.9838867
vt 0.018615723 0.96777344
vt 0.030303955 0.9794922
vt 0.02355957 0.96777344
vt 0.030303955 0.9746094
vt 0.027832031 0.9707031
vt 0.18139648 0.46875
vt 0.1694336 0.46875
vt 0.17053223 0.47631836
vt 0.18029785 0.47583008
vt 0.9501953 0.7705078
vt 0.94433594 0.7705078
vt 0.9423828 0.78515625
vt 0.95166016 0.78466797
vt 0.9472656 0.6347656
vt 0.95214844 0.6489258
vt 0.9550781 0.6352539
vt 0.9472656 0.6635742
vt 0.95458984 0.6621094
vt 0.97265625 0.9277344
vt 0.97998047 0.92822266
vt 0.97509766 0.9135742
vt 0.97998047 0.8984375
vt 0.97265625 0.89941406
vt 0.19946289 0.5625
vt 0.19946289 0.5522461
vt 0.19226074 0.55078125
vt 0.19226074 0.56396484
vt 0.9526367 0.7573242
vt 0.9423828 0.75683594
vt 0.94433594 0.7705078
vt 0.9501953 0.7705078
vt 0.21716309 0.95751953
vt 0.22241211 0.94677734
vt 0.21984863 0.94677734
vt 0.21765137 0.9453125
vt 0.22521973 0.95751953
vt 0.20898438 0.95458984
vt 0.22436523 0.9453125
vt 0.2043457 0.94677734
vt 0.2322998 0.953125
vt 0.21618652 0.9433594
vt 0.22546387 0.9428711
vt 0.2043457 0.9375
vt 0.2364502 0.94628906
vt 0.21594238 0.94091797
vt 0.22509766 0.9404297
vt 0.20874023 0.9301758
vt 0.2364502 0.9375
vt 0.21704102 0.93847656
vt 0.22387695 0.9379883
vt 0.21643066 0.92578125
vt 0.23242188 0.9301758
vt 0.21911621 0.9370117
vt 0.22167969 0.9370117
vt 0.22509766 0.92578125
vt 0.79833984 0.7182617
vt 0.80078125 0.7290039
vt 0.80371094 0.7294922
vt 0.7988281 0.73046875
vt 0.80615234 0.71875
vt 0.79003906 0.7216797
vt 0.80566406 0.73046875
vt 0.78564453 0.7294922
vt 0.81347656 0.72265625
vt 0.7973633 0.7324219
vt 0.8066406 0.73291016
vt 0.78564453 0.73828125
vt 0.8173828 0.72998047
vt 0.7973633 0.7348633
vt 0.80615234 0.73583984
vt 0.79003906 0.74609375
vt 0.8173828 0.73828125
vt 0.79833984 0.7373047
vt 0.8051758 0.73779297
vt 0.7973633 0.7504883
vt 0.81347656 0.74560547
vt 0.80029297 0.73876953
vt 0.8027344 0.73876953
vt 0.80615234 0.75
vt 0.86035156 0.8466797
vt 0.8564453 0.8359375
vt 0.8515625 0.8383789
vt 0.85498047 0.84765625
vt 0.8598633 0.85546875
vt 0.84521484 0.82958984
vt 0.84814453 0.8251953
vt 0.8544922 0.8540039
vt 0.8564453 0.86279297
vt 0.83691406 0.8276367
vt 0.8378906 0.8222656
vt 0.8520508 0.8598633
vt 0.84765625 0.87109375
vt 0.8442383 0.8666992
vt 0.84033203 0.875
vt 0.8388672 0.8701172
vt 0.8310547 0.875
vt 0.83154297 0.8696289
vt 0.8208008 0.8730469
vt 0.8222656 0.8676758
vt 0.8120117 0.8671875
vt 0.81591797 0.86328125
vt 0.80810547 0.8613281
vt 0.8129883 0.859375
vt 0.8066406 0.8510742
vt 0.8276367 0.8286133
vt 0.8261719 0.82373047
vt 0.8125 0.85058594
vt 0.8071289 0.8413086
vt 0.81884766 0.8330078
vt 0.81640625 0.828125
vt 0.8125 0.84277344
vt 0.80908203 0.8354492
vt 0.81347656 0.8388672
vt 0.03564453 0.8779297
vt 0.032226562 0.8886719
vt 0.037078857 0.88916016
vt 0.040100098 0.8803711
vt 0.043884277 0.8676758
vt 0.037353516 0.8959961
vt 0.032562256 0.89697266
vt 0.04675293 0.87158203
vt 0.053741455 0.8647461
vt 0.03982544 0.9013672
vt 0.035736084 0.9042969
vt 0.047607422 0.9082031
vt 0.0446167 0.91259766
vt 0.05303955 0.9116211
vt 0.051757812 0.9165039
vt 0.0602417 0.9111328
vt 0.060638428 0.9165039
vt 0.06939697 0.9091797
vt 0.07104492 0.9135742
vt 0.07611084 0.90478516
vt 0.07922363 0.9082031
vt 0.0546875 0.8691406
vt 0.06500244 0.86572266
vt 0.07867432 0.9008789
vt 0.08306885 0.90283203
vt 0.06414795 0.87060547
vt 0.07501221 0.8701172
vt 0.07940674 0.89208984
vt 0.08441162 0.89208984
vt 0.072631836 0.8745117
vt 0.082214355 0.8774414
vt 0.07928467 0.88378906
vt 0.08404541 0.8828125
vt 0.07836914 0.8803711
vt 0.011917114 0.8183594
vt 0.017303467 0.81933594
vt 0.020339966 0.8105469
vt 0.015457153 0.8076172
vt 0.012237549 0.82714844
vt 0.027053833 0.80126953
vt 0.023880005 0.7973633
vt 0.017578125 0.8256836
vt 0.015548706 0.83447266
vt 0.035095215 0.7993164
vt 0.034210205 0.7939453
vt 0.020065308 0.83154297
vt 0.024490356 0.84277344
vt 0.027816772 0.8383789
vt 0.031799316 0.84716797
vt 0.03326416 0.8417969
vt 0.04095459 0.84716797
vt 0.040496826 0.8413086
vt 0.051513672 0.84472656
vt 0.0496521 0.83935547
vt 0.05987549 0.8388672
vt 0.056396484 0.83496094
vt 0.06390381 0.8330078
vt 0.05899048 0.8310547
vt 0.06524658 0.8227539
vt 0.0446167 0.80029297
vt 0.045684814 0.79541016
vt 0.059753418 0.8222656
vt 0.06500244 0.8129883
vt 0.05307007 0.8046875
vt 0.05581665 0.7998047
vt 0.059692383 0.8144531
vt 0.06311035 0.8076172
vt 0.05883789 0.8105469
vt 0.9165039 0.8779297
vt 0.9121094 0.8803711
vt 0.91503906 0.88916016
vt 0.9199219 0.8886719
vt 0.9082031 0.8676758
vt 0.91503906 0.8959961
vt 0.9199219 0.89697266
vt 0.9057617 0.87158203
vt 0.8984375 0.8647461
vt 0.91259766 0.9013672
vt 0.9165039 0.9042969
vt 0.90478516 0.9082031
vt 0.90771484 0.91259766
vt 0.89941406 0.9116211
vt 0.9003906 0.9165039
vt 0.89208984 0.9111328
vt 0.89160156 0.9165039
vt 0.8828125 0.9091797
vt 0.88134766 0.9135742
vt 0.87597656 0.90478516
vt 0.8730469 0.9082031
vt 0.89746094 0.8691406
vt 0.88720703 0.86572266
vt 0.87353516 0.9008789
vt 0.8691406 0.90283203
vt 0.8881836 0.87060547
vt 0.8774414 0.8701172
vt 0.8730469 0.89208984
vt 0.8676758 0.89208984
vt 0.8798828 0.8745117
vt 0.8701172 0.8774414
vt 0.8730469 0.88378906
vt 0.86816406 0.8828125
vt 0.87402344 0.8803711
vn -0.30639648 0.94970703 -0.066833496
vn 0.2866211 0.9555664 -0.06762695
vn 0.28271484 0.95703125 -0.06768799
vn -0.30639648 0.94970703 -0.066833496
vn -0.30639648 0.94970703 -0.066833496
vn -0.30639648 0.94970703 -0.066833496
vn -0.70947266 0.7011719 -0.06933594
vn -0.70947266 0.7011719 -0.06939697
vn -0.91845703 0.38989258 -0.068237305
vn -0.91845703 0.38964844 -0.068237305
vn -0.98828125 0.1340332 -0.070129395
vn -0.98828125 0.1340332 -0.070129395
vn -0.97558594 -0.20837402 -0.07098389
vn -0.97558594 -0.2084961 -0.07104492
vn -0.7338867 -0.67529297 -0.07281494
vn -0.7338867 -0.67529297 -0.07281494
vn -0.54248047 -0.83691406 -0.07171631
vn -0.54248047 -0.83691406 -0.07171631
vn -0.39038086 -0.91796875 -0.07269287
vn -0.39038086 -0.91796875 -0.07269287
vn -0.39038086 -0.91796875 -0.07269287
vn -0.39038086 -0.91796875 -0.07269287
vn 0.2529297 -0.96484375 -0.07171631
vn 0.2529297 -0.96484375 -0.071777344
vn 0.42333984 -0.90283203 -0.07293701
vn 0.42333984 -0.90283203 -0.07293701
vn 0.68896484 -0.7211914 -0.07232666
vn 0.68896484 -0.7211914 -0.072387695
vn 0.89697266 -0.43603516 -0.07147217
vn 0.89697266 -0.43603516 -0.07147217
vn 0.9902344 0.11798096 -0.07122803
vn 0.9902344 0.11798096 -0.07122803
vn 0.8520508 0.51904297 -0.068115234
vn 0.8520508 0.51904297 -0.068115234
vn 0.62841797 0.77490234 -0.067993164
vn 0.6279297 0.77490234 -0.067993164
vn 0.28271484 0.95703125 -0.06768799
vn 0.2866211 0.9555664 -0.06762695
vn -0.30639648 0.94970703 0.066833496
vn 0.2866211 0.9555664 0.06762695
vn 0.2866211 0.9555664 0.06762695
vn -0.30639648 0.94970703 0.066833496
vn -0.30639648 0.94970703 0.066833496
vn -0.30639648 0.94970703 0.066833496
vn -0.70947266 0.7011719 0.06933594
vn -0.70947266 0.7011719 0.06939697
vn -0.91845703 0.38964844 0.068237305
vn -0.91845703 0.38964844 0.068237305
vn -0.98828125 0.1340332 0.070129395
vn -0.98828125 0.1340332 0.070129395
vn -0.97558594 -0.20837402 0.07098389
vn -0.97558594 -0.20837402 0.07104492
vn -0.7338867 -0.67529297 0.07281494
vn -0.7338867 -0.67529297 0.07281494
vn -0.54248047 -0.83691406 0.07171631
vn -0.54248047 -0.83691406 0.07171631
vn -0.390625 -0.91748047 0.07269287
vn -0.390625 -0.91748047 0.07269287
vn -0.390625 -0.91748047 0.07269287
vn 0.2529297 -0.96484375 0.07171631
vn -0.390625 -0.91748047 0.07269287
vn 0.2529297 -0.96484375 0.07183838
vn 0.42333984 -0.90283203 0.07293701
vn 0.42333984 -0.90283203 0.07293701
vn 0.68896484 -0.7211914 0.07232666
vn 0.68603516 -0.7241211 0.07232666
vn 0.89746094 -0.43530273 0.07147217
vn 0.89697266 -0.43603516 0.07147217
vn 0.9902344 0.11798096 0.07122803
vn 0.9902344 0.11798096 0.07122803
vn 0.8520508 0.51904297 0.068115234
vn 0.8520508 0.51904297 0.068115234
vn 0.6279297 0.77490234 0.067993164
vn 0.6279297 0.77490234 0.067993164
vn 0.2866211 0.9555664 0.06762695
vn 0.2866211 0.9555664 0.06762695
vn -0.5 -0.86621094 0
vn -1 0 0
vn -0.5 -0.86621094 0
vn -1 0 0
vn -0.5 0.86621094 0
vn -0.5 0.86621094 0
vn 0.5 0.86621094 0
vn 0.5 0.86621094 0
vn 1 1.7881393E-07 0
vn 1 1.7881393E-07 0
vn 0.5 -0.86621094 0
vn 0.5 -0.86621094 0
vn -0.5 -0.86621094 0
vn -0.5 -0.86621094 0
vn -0 1.4305115E-06 1
vn -0 0 1
vn -0 0 1
vn -0 2.026558E-06 1
vn -0 -4.7683716E-07 1
vn -0 8.34465E-07 1
vn -0 -1.013279E-06 1
vn -0 0 1
vn -0 -1.7881393E-07 1
vn -0 -1.013279E-06 1
vn -0 -2.2649765E-06 1
vn -0 -8.6426735E-06 1
vn -0.068115234 0.984375 0.16137695
vn -0.068115234 0.984375 0.16137695
vn -0.068115234 0.984375 0.16137695
vn -0.068115234 0.984375 0.16137695
vn 0.035736084 -0.27539062 0.9604492
vn 0.035736084 -0.27539062 0.9604492
vn 0.035736084 -0.27539062 0.9604492
vn 0.035736084 -0.27539062 0.9604492
vn -0.87841797 -0.05529785 0.4741211
vn -0.9794922 -0.15466309 0.12915039
vn -0.9238281 0.030532837 0.3815918
vn -0.8642578 0.1182251 0.48901367
vn -0.9638672 0.22839355 0.13879395
vn 0.9760742 0.18115234 0.120666504
vn 0.93066406 -0.0027999878 0.36572266
vn 0.8803711 0.079711914 0.46801758
vn 0.8828125 -0.08319092 0.46191406
vn 0.9760742 -0.17736816 0.12487793
vn -0.036987305 -0.9838867 0.17468262
vn -0.036987305 -0.9838867 0.17468262
vn -0.036987305 -0.9838867 0.17468262
vn -0.036987305 -0.9838867 0.17468262
vn 0.0039138794 0.26879883 0.9633789
vn 0.0039138794 0.26879883 0.9633789
vn 0.0039138794 0.26879883 0.9633789
vn 0.0039138794 0.26879883 0.9633789
vn -0 0 -1
vn -0 0 -1
vn -0 1.4305115E-06 -1
vn -0 2.026558E-06 -1
vn -0 -5.9604645E-07 -1
vn -0 8.34465E-07 -1
vn -0 -1.1324883E-06 -1
vn -0 0 -1
vn -0 -6.556511E-07 -1
vn -0 -7.748604E-07 -1
vn -0 -3.2782555E-06 -1
vn -0 -4.2915344E-06 -1
vn -0.068115234 0.984375 -0.16137695
vn -0.068115234 0.984375 -0.16137695
vn -0.068115234 0.984375 -0.16137695
vn -0.068115234 0.984375 -0.16137695
vn 0.035736084 -0.27539062 -0.9604492
vn 0.035736084 -0.27539062 -0.9604492
vn 0.035736084 -0.27539062 -0.9604492
vn 0.035736084 -0.27539062 -0.9604492
vn -0.87841797 -0.05529785 -0.4741211
vn -0.9238281 0.030532837 -0.3815918
vn -0.9794922 -0.15466309 -0.12915039
vn -0.8642578 0.1182251 -0.48901367
vn -0.9638672 0.22839355 -0.13879395
vn 0.9760742 0.18115234 -0.120666504
vn 0.8803711 0.079711914 -0.46801758
vn 0.93066406 -0.0027999878 -0.36572266
vn 0.8828125 -0.08319092 -0.46191406
vn 0.9760742 -0.17736816 -0.12487793
vn -0.036987305 -0.9838867 -0.17468262
vn -0.036987305 -0.9838867 -0.17468262
vn -0.036987305 -0.9838867 -0.17468262
vn -0.036987305 -0.9838867 -0.17468262
vn 0.0039138794 0.26879883 -0.9633789
vn 0.0039138794 0.26879883 -0.9633789
vn 0.0039138794 0.26879883 -0.9633789
vn 0.0039138794 0.26879883 -0.9633789
vn 0.9975586 3.5762787E-07 -0.066467285
vn 0.8642578 0.4987793 -0.066467285
vn 0.9975586 3.5762787E-07 -0.066467285
vn 0.8642578 -0.4987793 -0.066467285
vn 0.8642578 0.4987793 -0.066467285
vn 0.8642578 -0.4987793 -0.066467285
vn 0.4987793 0.8642578 -0.066467285
vn 0.4987793 -0.8642578 -0.066467285
vn 0.4987793 0.8642578 -0.066467285
vn 0.4987793 -0.8642578 -0.066467285
vn -6.556511E-07 0.9975586 -0.066467285
vn -0 -0.9975586 -0.066467285
vn -5.9604645E-07 0.9975586 -0.066467285
vn -0 -0.9975586 -0.066467285
vn -0.4987793 0.8642578 -0.066467285
vn -0.4987793 -0.8642578 -0.066467285
vn -0.4987793 0.8642578 -0.066467285
vn -0.4987793 -0.8642578 -0.066467285
vn -0.8642578 0.4987793 -0.066467285
vn -0.8642578 -0.4987793 -0.066467285
vn -0.8642578 0.4987793 -0.066467285
vn -0.8642578 -0.4987793 -0.066467285
vn -0.9975586 0 -0.066467285
vn -0.9975586 0 -0.066467285
vn 0.9975586 2.9802322E-07 0.066467285
vn 0.9975586 2.9802322E-07 0.066467285
vn 0.8642578 0.4987793 0.066467285
vn 0.8642578 -0.4987793 0.066467285
vn 0.8642578 0.4987793 0.066467285
vn 0.8642578 -0.4987793 0.066467285
vn 0.4987793 0.8642578 0.066467285
vn 0.4987793 -0.8642578 0.066467285
vn 0.4987793 0.8642578 0.066467285
vn 0.4987793 -0.8642578 0.066467285
vn -5.364418E-07 0.9975586 0.066467285
vn -1.1920929E-07 -0.9975586 0.066467285
vn -5.364418E-07 0.9975586 0.066467285
vn -1.1920929E-07 -0.9975586 0.066467285
vn -0.4987793 0.8642578 0.066467285
vn -0.4987793 -0.8642578 0.066467285
vn -0.4987793 0.8642578 0.066467285
vn -0.4987793 -0.8642578 0.066467285
vn -0.8642578 0.4987793 0.066467285
vn -0.8642578 -0.4987793 0.066467285
vn -0.8642578 0.4987793 0.066467285
vn -0.8642578 -0.4987793 0.066467285
vn -0.9975586 1.7881393E-07 0.066467285
vn -0.9975586 1.7881393E-07 0.066467285
vn 0.62841797 0.77490234 -0.067993164
vn 0.8520508 0.51904297 -0.068115234
vn 0.00078868866 -0.02609253 0.9995117
vn -0.0005311966 -0.01701355 1
vn 0.28271484 0.95703125 -0.06768799
vn 0.00075387955 -0.024780273 0.9995117
vn 0.9902344 0.11798096 -0.07122803
vn 0.08441162 0.25878906 0.96240234
vn -0.30639648 0.94970703 -0.066833496
vn 2.7239323E-05 -0.020111084 1
vn 0.89697266 -0.43603516 -0.07147217
vn -0.07904053 0.48779297 0.8696289
vn -0.30639648 0.94970703 -0.066833496
vn -0.17163086 0.40161133 0.89941406
vn -0.70947266 0.7011719 -0.06933594
vn -0.1538086 0.1340332 0.9790039
vn -0.91845703 0.38989258 -0.068237305
vn 0.00047540665 -0.022994995 0.9995117
vn -0.98828125 0.1340332 -0.070129395
vn 0.00079774857 -0.024841309 0.9995117
vn -0.97558594 -0.20837402 -0.07098389
vn 0.0004720688 -0.021774292 1
vn -0.7338867 -0.67529297 -0.07281494
vn -2.2113323E-05 -0.021224976 1
vn -0.54248047 -0.83691406 -0.07171631
vn -0.00013577938 -0.019866943 1
vn 0.68896484 -0.7211914 -0.07232666
vn -0.1126709 -0.19348145 0.9746094
vn -0.39038086 -0.91796875 -0.07269287
vn 0.12213135 -0.28344727 0.9511719
vn 0.42333984 -0.90283203 -0.07293701
vn -0.14990234 -0.36279297 0.9199219
vn 0.2529297 -0.96484375 -0.07171631
vn 0.04034424 -0.5078125 0.86083984
vn 0.8520508 0.51904297 -0.068115234
vn 0.6279297 0.77490234 -0.067993164
vn -0.00059461594 -0.003238678 -1
vn 0.00080776215 -0.012382507 -1
vn 0.9902344 0.11798096 -0.07122803
vn 0.10345459 0.33276367 -0.9375
vn 0.2866211 0.9555664 -0.06762695
vn 0.00077724457 -0.011100769 -1
vn 0.89697266 -0.43603516 -0.07147217
vn -0.10229492 0.6357422 -0.7651367
vn -0.30639648 0.94970703 -0.066833496
vn -0.21691895 0.5258789 -0.8222656
vn -0.30639648 0.94970703 -0.066833496
vn -0.18469238 0.1772461 -0.9667969
vn -0.70947266 0.7011719 -0.06939697
vn 0.0004887581 -0.009178162 -1
vn -0.91845703 0.38964844 -0.068237305
vn 0.0008072853 -0.011062622 -1
vn -0.98828125 0.1340332 -0.070129395
vn 0.000497818 -0.008117676 -1
vn -0.97558594 -0.2084961 -0.07104492
vn 5.9366226E-05 -0.006450653 -1
vn 0.68896484 -0.7211914 -0.072387695
vn -1.6748905E-05 -0.0075149536 -1
vn -0.7338867 -0.67529297 -0.07281494
vn -0.00017523766 -0.0060691833 -1
vn 0.42333984 -0.90283203 -0.07293701
vn -0.13989258 -0.2232666 -0.96484375
vn -0.54248047 -0.83691406 -0.07171631
vn 0.15515137 -0.3413086 -0.9272461
vn 0.2529297 -0.96484375 -0.071777344
vn -0.19750977 -0.45117188 -0.8701172
vn -0.39038086 -0.91796875 -0.07269287
vn 0.053466797 -0.64990234 -0.7578125
vn 0.6279297 0.77490234 0.067993164
vn -0.0005373955 -0.01701355 -1
vn 0.0008187294 -0.026138306 -0.9995117
vn 0.8520508 0.51904297 0.068115234
vn 0.2866211 0.9555664 0.06762695
vn 0.0007557869 -0.024810791 -0.9995117
vn 0.9902344 0.11798096 0.07122803
vn 0.08441162 0.25878906 -0.96240234
vn -0.30639648 0.94970703 0.066833496
vn 2.9146671E-05 -0.020111084 -1
vn 0.89746094 -0.43530273 0.07147217
vn -0.07904053 0.48779297 -0.8696289
vn -0.30639648 0.94970703 0.066833496
vn -0.17163086 0.40161133 -0.89941406
vn -0.70947266 0.7011719 0.06933594
vn -0.15393066 0.1340332 -0.9790039
vn -0.91845703 0.38964844 0.068237305
vn 0.00047540665 -0.022994995 -0.9995117
vn -0.98828125 0.1340332 0.070129395
vn 0.0008020401 -0.024810791 -0.9995117
vn -0.97558594 -0.20837402 0.07098389
vn 0.00047373772 -0.02178955 -1
vn -0.7338867 -0.67529297 0.07281494
vn -1.41859055E-05 -0.021224976 -1
vn -0.54248047 -0.83691406 0.07171631
vn -0.00017750263 -0.01991272 -1
vn 0.68896484 -0.7211914 0.07232666
vn -0.1126709 -0.19348145 -0.9746094
vn -0.390625 -0.91748047 0.07269287
vn 0.12213135 -0.28344727 -0.9511719
vn 0.42333984 -0.90283203 0.07293701
vn -0.14990234 -0.36279297 -0.9199219
vn 0.2529297 -0.96484375 0.07171631
vn 0.04034424 -0.5078125 -0.86083984
vn 0.8520508 0.51904297 0.068115234
vn 0.0008087158 -0.012382507 1
vn -0.00050115585 -0.0033111572 1
vn 0.6279297 0.77490234 0.067993164
vn 0.9902344 0.11798096 0.07122803
vn 0.10345459 0.33276367 0.9375
vn 0.2866211 0.9555664 0.06762695
vn 0.00077819824 -0.011116028 1
vn 0.89697266 -0.43603516 0.07147217
vn -0.10235596 0.6357422 0.7651367
vn -0.30639648 0.94970703 0.066833496
vn -0.21691895 0.5258789 0.8222656
vn -0.30639648 0.94970703 0.066833496
vn -0.18469238 0.1772461 0.9667969
vn -0.70947266 0.7011719 0.06939697
vn 0.0004851818 -0.009185791 1
vn -0.91845703 0.38964844 0.068237305
vn 0.00080919266 -0.011054993 1
vn -0.98828125 0.1340332 0.070129395
vn 0.00048041344 -0.008056641 1
vn -0.97558594 -0.20837402 0.07104492
vn 8.684397E-05 -0.0063934326 1
vn 0.68603516 -0.7241211 0.07232666
vn -2.7298927E-05 -0.0075035095 1
vn -0.7338867 -0.67529297 0.07281494
vn -0.0001860857 -0.0060806274 1
vn 0.42333984 -0.90283203 0.07293701
vn -0.13989258 -0.2232666 0.96484375
vn -0.54248047 -0.83691406 0.07171631
vn 0.15515137 -0.3413086 0.9272461
vn 0.2529297 -0.96484375 0.07183838
vn -0.19750977 -0.45117188 0.8701172
vn -0.390625 -0.91748047 0.07269287
vn 0.05343628 -0.64990234 0.7578125
g CartFrontWheels_0
f 3/3/3 2/2/2 1/1/1
f 2/2/2 4/4/4 1/1/1
f 1/1/1 4/4/4 5/5/5
f 4/4/4 6/6/6 5/5/5
f 5/5/5 6/6/6 7/7/7
f 6/6/6 8/8/8 7/7/7
f 9/9/9 7/7/7 8/8/8
f 10/10/10 9/9/9 8/8/8
f 9/9/9 10/10/10 11/11/11
f 10/10/10 12/12/12 11/11/11
f 11/11/11 12/12/12 13/13/13
f 12/12/12 14/14/14 13/13/13
f 15/15/15 13/13/13 14/14/14
f 16/16/16 15/15/15 14/14/14
f 15/15/15 16/16/16 17/17/17
f 16/16/16 18/18/18 17/17/17
f 17/17/17 18/18/18 19/19/19
f 18/18/18 20/20/20 19/19/19
f 23/23/23 22/22/22 21/21/21
f 24/24/24 23/23/23 21/21/21
f 23/23/23 24/24/24 25/25/25
f 24/24/24 26/26/26 25/25/25
f 25/25/25 26/26/26 27/27/27
f 26/26/26 28/28/28 27/27/27
f 27/27/27 28/28/28 29/29/29
f 28/28/28 30/30/30 29/29/29
f 31/31/31 29/29/29 30/30/30
f 32/32/32 31/31/31 30/30/30
f 31/31/31 32/32/32 33/33/33
f 32/32/32 34/34/34 33/33/33
f 33/33/33 34/34/34 35/35/35
f 34/34/34 36/36/36 35/35/35
f 35/35/35 36/36/36 37/37/37
f 36/36/36 38/38/38 37/37/37
f 41/41/41 40/40/40 39/39/39
f 42/42/42 41/41/41 39/39/39
f 42/42/42 39/39/39 43/43/43
f 44/44/44 42/42/42 43/43/43
f 44/44/44 43/43/43 45/45/45
f 46/46/46 44/44/44 45/45/45
f 45/45/45 47/47/47 46/46/46
f 47/47/47 48/48/48 46/46/46
f 48/48/48 47/47/47 49/49/49
f 50/50/50 48/48/48 49/49/49
f 50/50/50 49/49/49 51/51/51
f 52/52/52 50/50/50 51/51/51
f 51/51/51 53/53/53 52/52/52
f 53/53/53 54/54/54 52/52/52
f 54/54/54 53/53/53 55/55/55
f 56/56/56 54/54/54 55/55/55
f 56/56/56 55/55/55 57/57/57
f 58/58/58 56/56/56 57/57/57
f 61/61/61 60/60/60 59/59/59
f 60/60/60 62/62/62 59/59/59
f 62/62/62 60/60/60 63/63/63
f 64/64/64 62/62/62 63/63/63
f 64/64/64 63/63/63 65/65/65
f 66/66/66 64/64/64 65/65/65
f 66/66/66 65/65/65 67/67/67
f 68/68/68 66/66/66 67/67/67
f 67/67/67 69/69/69 68/68/68
f 69/69/69 70/70/70 68/68/68
f 70/70/70 69/69/69 71/71/71
f 72/72/72 70/70/70 71/71/71
f 72/72/72 71/71/71 73/73/73
f 74/74/74 72/72/72 73/73/73
f 74/74/74 73/73/73 75/75/75
f 76/76/76 74/74/74 75/75/75
f 79/79/79 78/78/78 77/77/77
f 78/78/78 80/80/80 77/77/77
f 78/78/78 81/81/81 80/80/80
f 81/81/81 82/82/82 80/80/80
f 81/81/81 83/83/83 82/82/82
f 83/83/83 84/84/84 82/82/82
f 83/83/83 85/85/85 84/84/84
f 85/85/85 86/86/86 84/84/84
f 85/85/85 87/87/87 86/86/86
f 87/87/87 88/88/88 86/86/86
f 87/87/87 89/89/89 88/88/88
f 89/89/89 90/90/90 88/88/88
f 93/93/93 92/92/92 91/91/91
f 93/93/93 91/91/91 94/94/94
f 91/91/91 95/95/95 94/94/94
f 94/94/94 95/95/95 96/96/96
f 95/95/95 97/97/97 96/96/96
f 96/96/96 97/97/97 98/98/98
f 97/97/97 99/99/99 98/98/98
f 98/98/98 99/99/99 100/100/100
f 99/99/99 101/101/101 100/100/100
f 100/100/100 101/101/101 102/102/102
f 105/105/105 104/104/104 103/103/103
f 106/106/106 105/105/105 103/103/103
f 109/109/109 108/108/108 107/107/107
f 110/110/110 109/109/109 107/107/107
f 113/113/113 112/112/112 111/111/111
f 113/113/113 111/111/111 114/114/114
f 113/113/113 114/114/114 115/115/115
f 118/118/118 117/117/117 116/116/116
f 119/119/119 117/117/117 118/118/118
f 119/119/119 120/120/120 117/117/117
f 123/123/123 122/122/122 121/121/121
f 124/124/124 123/123/123 121/121/121
f 127/127/127 126/126/126 125/125/125
f 128/128/128 127/127/127 125/125/125
f 131/131/131 130/130/130 129/129/129
f 131/131/131 129/129/129 132/132/132
f 133/133/133 131/131/131 132/132/132
f 134/134/134 133/133/133 132/132/132
f 134/134/134 135/135/135 133/133/133
f 136/136/136 135/135/135 134/134/134
f 136/136/136 137/137/137 135/135/135
f 138/138/138 137/137/137 136/136/136
f 138/138/138 139/139/139 137/137/137
f 140/140/140 139/139/139 138/138/138
f 143/143/143 142/142/142 141/141/141
f 144/144/144 143/143/143 141/141/141
f 147/147/147 146/146/146 145/145/145
f 148/148/148 147/147/147 145/145/145
f 151/151/151 150/150/150 149/149/149
f 149/149/149 150/150/150 152/152/152
f 152/152/152 150/150/150 153/153/153
f 156/156/156 155/155/155 154/154/154
f 156/156/156 157/157/157 155/155/155
f 158/158/158 157/157/157 156/156/156
f 161/161/161 160/160/160 159/159/159
f 162/162/162 161/161/161 159/159/159
f 165/165/165 164/164/164 163/163/163
f 166/166/166 165/165/165 163/163/163
f 169/169/169 168/168/168 167/167/167
f 170/170/170 169/169/169 167/167/167
f 168/168/168 171/171/171 167/167/167
f 172/172/172 170/170/170 167/167/167
f 168/168/168 173/173/173 171/171/171
f 170/170/170 172/172/172 174/174/174
f 173/173/173 175/175/175 171/171/171
f 176/176/176 170/170/170 174/174/174
f 173/173/173 177/177/177 175/175/175
f 176/176/176 174/174/174 178/178/178
f 177/177/177 179/179/179 175/175/175
f 180/180/180 176/176/176 178/178/178
f 177/177/177 181/181/181 179/179/179
f 180/180/180 178/178/178 182/182/182
f 181/181/181 183/183/183 179/179/179
f 184/184/184 180/180/180 182/182/182
f 181/181/181 185/185/185 183/183/183
f 184/184/184 182/182/182 186/186/186
f 185/185/185 187/187/187 183/183/183
f 188/188/188 184/184/184 186/186/186
f 185/185/185 189/189/189 187/187/187
f 188/188/188 186/186/186 190/190/190
f 189/189/189 190/190/190 187/187/187
f 189/189/189 188/188/188 190/190/190
f 193/193/193 192/192/192 191/191/191
f 192/192/192 194/194/194 191/191/191
f 195/195/195 193/193/193 191/191/191
f 194/194/194 196/196/196 191/191/191
f 197/197/197 193/193/193 195/195/195
f 196/196/196 194/194/194 198/198/198
f 199/199/199 197/197/197 195/195/195
f 194/194/194 200/200/200 198/198/198
f 201/201/201 197/197/197 199/199/199
f 198/198/198 200/200/200 202/202/202
f 203/203/203 201/201/201 199/199/199
f 200/200/200 204/204/204 202/202/202
f 205/205/205 201/201/201 203/203/203
f 202/202/202 204/204/204 206/206/206
f 207/207/207 205/205/205 203/203/203
f 204/204/204 208/208/208 206/206/206
f 209/209/209 205/205/205 207/207/207
f 206/206/206 208/208/208 210/210/210
f 211/211/211 209/209/209 207/207/207
f 208/208/208 212/212/212 210/210/210
f 213/213/213 209/209/209 211/211/211
f 210/210/210 212/212/212 214/214/214
f 214/214/214 213/213/213 211/211/211
f 212/212/212 213/213/213 214/214/214
f 217/217/217 216/216/216 215/215/215
f 218/218/218 217/217/217 215/215/215
f 218/218/218 215/215/215 219/219/219
f 217/217/217 220/220/220 216/216/216
f 220/220/220 221/221/221 216/216/216
f 222/222/222 218/218/218 219/219/219
f 219/219/219 223/223/223 222/222/222
f 221/221/221 220/220/220 224/224/224
f 225/225/225 221/221/221 224/224/224
f 223/223/223 226/226/226 222/222/222
f 226/226/226 223/223/223 227/227/227
f 228/228/228 226/226/226 227/227/227
f 228/228/228 222/222/222 226/226/226
f 228/228/228 227/227/227 229/229/229
f 230/230/230 222/222/222 228/228/228
f 230/230/230 228/228/228 229/229/229
f 218/218/218 222/222/222 230/230/230
f 229/229/229 231/231/231 230/230/230
f 232/232/232 218/218/218 230/230/230
f 231/231/231 232/232/232 230/230/230
f 232/232/232 217/217/217 218/218/218
f 232/232/232 231/231/231 233/233/233
f 232/232/232 234/234/234 217/217/217
f 234/234/234 232/232/232 233/233/233
f 234/234/234 220/220/220 217/217/217
f 234/234/234 233/233/233 235/235/235
f 234/234/234 236/236/236 220/220/220
f 236/236/236 234/234/234 235/235/235
f 235/235/235 237/237/237 236/236/236
f 236/236/236 224/224/224 220/220/220
f 237/237/237 238/238/238 236/236/236
f 236/236/236 238/238/238 224/224/224
f 238/238/238 237/237/237 239/239/239
f 238/238/238 240/240/240 224/224/224
f 224/224/224 240/240/240 225/225/225
f 240/240/240 241/241/241 225/225/225
f 242/242/242 238/238/238 239/239/239
f 238/238/238 242/242/242 240/240/240
f 242/242/242 239/239/239 243/243/243
f 240/240/240 244/244/244 241/241/241
f 242/242/242 244/244/244 240/240/240
f 244/244/244 245/245/245 241/241/241
f 246/246/246 242/242/242 243/243/243
f 242/242/242 246/246/246 244/244/244
f 243/243/243 247/247/247 246/246/246
f 248/248/248 247/247/247 245/245/245
f 244/244/244 248/248/248 245/245/245
f 247/247/247 248/248/248 246/246/246
f 246/246/246 248/248/248 244/244/244
f 251/251/251 250/250/250 249/249/249
f 252/252/252 251/251/251 249/249/249
f 252/252/252 249/249/249 253/253/253
f 250/250/250 251/251/251 254/254/254
f 255/255/255 250/250/250 254/254/254
f 256/256/256 252/252/252 253/253/253
f 253/253/253 257/257/257 256/256/256
f 255/255/255 254/254/254 258/258/258
f 259/259/259 255/255/255 258/258/258
f 259/259/259 258/258/258 260/260/260
f 254/254/254 260/260/260 258/258/258
f 261/261/261 259/259/259 260/260/260
f 262/262/262 260/260/260 254/254/254
f 260/260/260 262/262/262 261/261/261
f 251/251/251 262/262/262 254/254/254
f 262/262/262 263/263/263 261/261/261
f 264/264/264 262/262/262 251/251/251
f 263/263/263 262/262/262 264/264/264
f 252/252/252 264/264/264 251/251/251
f 265/265/265 263/263/263 264/264/264
f 266/266/266 264/264/264 252/252/252
f 264/264/264 266/266/266 265/265/265
f 256/256/256 266/266/266 252/252/252
f 266/266/266 267/267/267 265/265/265
f 266/266/266 268/268/268 267/267/267
f 256/256/256 268/268/268 266/266/266
f 268/268/268 269/269/269 267/267/267
f 256/256/256 270/270/270 268/268/268
f 257/257/257 270/270/270 256/256/256
f 270/270/270 257/257/257 271/271/271
f 269/269/269 268/268/268 272/272/272
f 270/270/270 272/272/272 268/268/268
f 273/273/273 269/269/269 272/272/272
f 274/274/274 270/270/270 271/271/271
f 270/270/270 274/274/274 272/272/272
f 274/274/274 271/271/271 275/275/275
f 272/272/272 276/276/276 273/273/273
f 274/274/274 276/276/276 272/272/272
f 276/276/276 277/277/277 273/273/273
f 278/278/278 274/274/274 275/275/275
f 274/274/274 278/278/278 276/276/276
f 278/278/278 275/275/275 279/279/279
f 276/276/276 280/280/280 277/277/277
f 278/278/278 280/280/280 276/276/276
f 280/280/280 281/281/281 277/277/277
f 279/279/279 281/281/281 282/282/282
f 282/282/282 278/278/278 279/279/279
f 278/278/278 282/282/282 280/280/280
f 281/281/281 280/280/280 282/282/282
f 285/285/285 284/284/284 283/283/283
f 286/286/286 285/285/285 283/283/283
f 283/283/283 284/284/284 287/287/287
f 288/288/288 285/285/285 286/286/286
f 289/289/289 288/288/288 286/286/286
f 284/284/284 290/290/290 287/287/287
f 291/291/291 287/287/287 290/290/290
f 288/288/288 289/289/289 292/292/292
f 289/289/289 293/293/293 292/292/292
f 294/294/294 291/291/291 290/290/290
f 291/291/291 294/294/294 295/295/295
f 294/294/294 296/296/296 295/295/295
f 294/294/294 290/290/290 296/296/296
f 295/295/295 296/296/296 297/297/297
f 296/296/296 290/290/290 298/298/298
f 296/296/296 298/298/298 297/297/297
f 290/290/290 284/284/284 298/298/298
f 299/299/299 297/297/297 298/298/298
f 284/284/284 300/300/300 298/298/298
f 300/300/300 299/299/299 298/298/298
f 284/284/284 285/285/285 300/300/300
f 299/299/299 300/300/300 301/301/301
f 285/285/285 302/302/302 300/300/300
f 300/300/300 302/302/302 301/301/301
f 285/285/285 288/288/288 302/302/302
f 301/301/301 302/302/302 303/303/303
f 288/288/288 304/304/304 302/302/302
f 302/302/302 304/304/304 303/303/303
f 305/305/305 303/303/303 304/304/304
f 288/288/288 292/292/292 304/304/304
f 306/306/306 305/305/305 304/304/304
f 292/292/292 306/306/306 304/304/304
f 305/305/305 306/306/306 307/307/307
f 292/292/292 308/308/308 306/306/306
f 308/308/308 292/292/292 293/293/293
f 309/309/309 308/308/308 293/293/293
f 306/306/306 310/310/310 307/307/307
f 308/308/308 310/310/310 306/306/306
f 307/307/307 310/310/310 311/311/311
f 312/312/312 308/308/308 309/309/309
f 308/308/308 312/312/312 310/310/310
f 313/313/313 312/312/312 309/309/309
f 310/310/310 314/314/314 311/311/311
f 312/312/312 314/314/314 310/310/310
f 315/315/315 311/311/311 314/314/314
f 316/316/316 312/312/312 313/313/313
f 312/312/312 316/316/316 314/314/314
f 316/316/316 315/315/315 314/314/314
f 315/315/315 316/316/316 313/313/313
f 319/319/319 318/318/318 317/317/317
f 320/320/320 319/319/319 317/317/317
f 317/317/317 318/318/318 321/321/321
f 319/319/319 320/320/320 322/322/322
f 320/320/320 323/323/323 322/322/322
f 318/318/318 324/324/324 321/321/321
f 325/325/325 321/321/321 324/324/324
f 322/322/322 323/323/323 326/326/326
f 323/323/323 327/327/327 326/326/326
f 326/326/326 327/327/327 328/328/328
f 326/326/326 328/328/328 322/322/322
f 327/327/327 329/329/329 328/328/328
f 322/322/322 328/328/328 330/330/330
f 330/330/330 328/328/328 329/329/329
f 322/322/322 330/330/330 319/319/319
f 331/331/331 330/330/330 329/329/329
f 319/319/319 330/330/330 332/332/332
f 330/330/330 331/331/331 332/332/332
f 319/319/319 332/332/332 318/318/318
f 331/331/331 333/333/333 332/332/332
f 332/332/332 334/334/334 318/318/318
f 334/334/334 332/332/332 333/333/333
f 334/334/334 324/324/324 318/318/318
f 335/335/335 334/334/334 333/333/333
f 336/336/336 334/334/334 335/335/335
f 334/334/334 336/336/336 324/324/324
f 337/337/337 336/336/336 335/335/335
f 336/336/336 338/338/338 324/324/324
f 338/338/338 325/325/325 324/324/324
f 325/325/325 338/338/338 339/339/339
f 336/336/336 337/337/337 340/340/340
f 336/336/336 340/340/340 338/338/338
f 337/337/337 341/341/341 340/340/340
f 338/338/338 342/342/342 339/339/339
f 340/340/340 342/342/342 338/338/338
f 339/339/339 342/342/342 343/343/343
f 344/344/344 340/340/340 341/341/341
f 340/340/340 344/344/344 342/342/342
f 345/345/345 344/344/344 341/341/341
f 342/342/342 346/346/346 343/343/343
f 344/344/344 346/346/346 342/342/342
f 343/343/343 346/346/346 347/347/347
f 348/348/348 344/344/344 345/345/345
f 344/344/344 348/348/348 346/346/346
f 349/349/349 348/348/348 345/345/345
f 349/349/349 347/347/347 350/350/350
f 346/346/346 350/350/350 347/347/347
f 348/348/348 350/350/350 346/346/346
f 348/348/348 349/349/349 350/350/350
