g CartRearWheels
v -0.0012667254 -0.14453806 0.35769004
v 0.06002132 -0.14094609 0.3579349
v 0.05808976 -0.13447866 0.2648012
v -0.0011371039 -0.13782291 0.2647007
v -0.05597352 -0.14083228 0.35703146
v -0.054540947 -0.13424706 0.2649606
v -0.087628 -0.12909444 0.35678118
v -0.08385895 -0.12348238 0.26507816
v -0.12805335 -0.084755115 0.35705832
v -0.12237819 -0.08109934 0.26500374
v -0.15282345 -0.02467915 0.35757822
v -0.146284 -0.023008326 0.26493406
v -0.15823321 0.042189877 0.35843092
v -0.15152444 0.04143881 0.2647105
v -0.13718803 0.10135986 0.35957
v -0.13178566 0.097361036 0.26430783
v -0.07266047 0.14595532 0.36101934
v -0.069746174 0.13994348 0.26380342
v -0.009854719 0.16292135 0.36177596
v -0.07266047 0.14595532 0.36101934
v -0.069746174 0.13994348 0.26380342
v -0.009222165 0.15627906 0.2636467
v 0.039908674 0.15786535 0.36203155
v 0.038037606 0.15145703 0.26363647
v 0.08151599 0.13619806 0.3620512
v 0.077284545 0.13103361 0.26366493
v 0.12549329 0.0821667 0.36187434
v 0.119917445 0.07851998 0.26360703
v 0.1482044 0.039538037 0.36137325
v 0.14165641 0.038196415 0.26380703
v 0.14502703 -0.013137158 0.3608396
v 0.13847017 -0.011877749 0.26383933
v 0.12827215 -0.073346525 0.35964438
v 0.12230125 -0.07030677 0.26424384
v 0.09422808 -0.119864754 0.35855144
v 0.08975526 -0.11483743 0.2645982
v 0.06002132 -0.14094609 0.3579349
v 0.05808976 -0.13447866 0.2648012
v -0.0012667552 -0.14453803 -0.35769004
v 0.058089722 -0.13447866 -0.26480117
v 0.06002129 -0.14094609 -0.35793486
v -0.0011371262 -0.13782291 -0.2647007
v -0.055973545 -0.14083226 -0.35703146
v -0.054540962 -0.13424705 -0.2649606
v -0.08762803 -0.12909442 -0.35678118
v -0.083858974 -0.12348236 -0.2650782
v -0.12805337 -0.08475511 -0.35705832
v -0.12237819 -0.081099324 -0.2650037
v -0.15282346 -0.024679154 -0.35757822
v -0.14628401 -0.023008324 -0.2649341
v -0.15823323 0.04218987 -0.35843092
v -0.15152447 0.041438807 -0.2647105
v -0.13718805 0.10135985 -0.35957
v -0.13178568 0.09736103 -0.26430786
v -0.0726605 0.14595532 -0.36101934
v -0.069746196 0.13994347 -0.26380345
v -0.009854749 0.16292132 -0.36177596
v -0.069746196 0.13994347 -0.26380345
v -0.0726605 0.14595532 -0.36101934
v -0.009222195 0.15627906 -0.2636467
v 0.03990864 0.15786532 -0.36203146
v 0.03803758 0.15145701 -0.2636365
v 0.08151595 0.13619804 -0.3620512
v 0.077284515 0.1310336 -0.26366493
v 0.12549326 0.08216669 -0.36187434
v 0.119917415 0.078519985 -0.26360703
v 0.14820436 0.039538033 -0.36137325
v 0.14165637 0.038196407 -0.263807
v 0.145027 -0.013137162 -0.36083958
v 0.13847013 -0.011877749 -0.26383936
v 0.1282721 -0.07334652 -0.35964438
v 0.122301206 -0.07030676 -0.26424384
v 0.09422806 -0.119864754 -0.35855144
v 0.08975521 -0.11483742 -0.2645982
v 0.06002129 -0.14094609 -0.35793486
v 0.058089722 -0.13447866 -0.26480117
v -0.0071833963 -0.0217946 -0.26164925
v -0.007183373 -0.0217946 0.26164922
v 0.017810674 -0.00905949 0.26164922
v 0.017810652 -0.00905949 -0.26164925
v 0.019278781 0.018953549 0.26164922
v 0.01927876 0.018953549 -0.26164925
v -0.004247168 0.03423149 0.26164922
v -0.0042471904 0.03423149 -0.26164925
v -0.029241243 0.021496376 0.26164922
v -0.029241268 0.021496376 -0.26164925
v -0.03070934 -0.006516672 0.26164922
v -0.030709364 -0.006516672 -0.26164925
v -0.007183373 -0.0217946 0.26164922
v -0.0071833963 -0.0217946 -0.26164925
v -0.0027455331 0.062883906 0.42843628
v 0.025189314 0.053807314 0.42843628
v 0.044843324 0.03197931 0.42843628
v -0.03147614 0.056777038 0.42843628
v 0.050950192 0.003248727 0.42843628
v -0.05330417 0.03712301 0.42843628
v 0.041873597 -0.024686135 0.42843628
v -0.062380746 0.009188134 0.42843628
v 0.020045616 -0.04434015 0.42843628
v -0.05627386 -0.019542465 0.42843628
v -0.008684972 -0.050447028 0.42843628
v -0.036619842 -0.041370444 0.42843628
v 0.012747731 0.10256769 0.3673488
v 0.07003595 0.060055573 0.3673488
v 0.060191687 0.057770252 0.4118237
v 0.014573693 0.09311272 0.40972725
v 0.009305956 -0.0035364479 0.38746676
v -0.02073646 0.015973318 0.38746676
v 0.014573693 0.09311272 0.40972725
v 0.060191687 0.057770252 0.4118237
v 0.07003595 0.060055573 0.3673488
v 0.009305956 -0.0035364479 0.38746676
v 0.060191687 0.057770252 0.4118237
v -0.01757678 -0.08711836 0.3673488
v -0.01972366 -0.07578852 0.40900028
v -0.074399695 -0.044452794 0.40957534
v -0.08333346 -0.04640627 0.3673488
v -0.02073646 0.015973318 0.38746676
v 0.012747731 0.10256769 0.3673488
v 0.014573693 0.09311272 0.40972725
v -0.074399695 -0.044452794 0.40957534
v -0.01972366 -0.07578852 0.40900028
v -0.01757678 -0.08711836 0.3673488
v -0.08333346 -0.04640627 0.3673488
v -0.01972366 -0.07578852 0.40900028
v -0.074399695 -0.044452794 0.40957534
v -0.02073646 0.015973318 0.38746676
v 0.009305956 -0.0035364479 0.38746676
v 0.044843286 0.03197931 -0.42843628
v 0.025189275 0.053807314 -0.42843628
v -0.0027455704 0.062883906 -0.42843628
v -0.031476177 0.056777038 -0.42843628
v 0.050950155 0.003248727 -0.42843628
v -0.053304203 0.03712301 -0.42843628
v 0.04187356 -0.024686135 -0.42843628
v -0.062380783 0.009188134 -0.42843628
v 0.020045578 -0.04434015 -0.42843628
v -0.056273896 -0.019542465 -0.42843628
v -0.00868501 -0.050447028 -0.42843628
v -0.03661988 -0.041370444 -0.42843628
v 0.012747701 0.10256769 -0.3673488
v 0.014573656 0.09311272 -0.40972725
v 0.060191654 0.057770252 -0.4118237
v 0.07003592 0.060055573 -0.3673488
v 0.009305922 -0.0035364479 -0.38746676
v 0.060191654 0.057770252 -0.4118237
v 0.014573656 0.09311272 -0.40972725
v -0.020736493 0.015973318 -0.38746676
v 0.07003592 0.060055573 -0.3673488
v 0.060191654 0.057770252 -0.4118237
v 0.009305922 -0.0035364479 -0.38746676
v -0.017576814 -0.08711836 -0.3673488
v -0.019723697 -0.07578852 -0.40900028
v -0.07439973 -0.044452794 -0.40957534
v -0.020736493 0.015973318 -0.38746676
v -0.08333349 -0.04640627 -0.3673488
v 0.012747701 0.10256769 -0.3673488
v 0.014573656 0.09311272 -0.40972725
v -0.07439973 -0.044452794 -0.40957534
v -0.08333349 -0.04640627 -0.3673488
v -0.017576814 -0.08711836 -0.3673488
v -0.019723697 -0.07578852 -0.40900028
v -0.019723697 -0.07578852 -0.40900028
v 0.009305922 -0.0035364479 -0.38746676
v -0.020736493 0.015973318 -0.38746676
v -0.07439973 -0.044452794 -0.40957534
v -0.05330417 0.03712301 0.42843628
v -0.049871642 0.034893904 0.367
v -0.029618045 0.05313031 0.367
v -0.05829354 0.0089739375 0.367
v -0.03147614 0.056777038 0.42843628
v -0.062380746 0.009188134 0.42843628
v -0.0029597413 0.0587967 0.367
v -0.05627386 -0.019542465 0.42843628
v -0.0027455331 0.062883906 0.42843628
v -0.05262714 -0.017684363 0.367
v 0.022960206 0.050374787 0.367
v -0.036619842 -0.041370444 0.42843628
v 0.025189314 0.053807314 0.42843628
v -0.034390736 -0.037937917 0.367
v 0.04119659 0.030121218 0.367
v -0.008684972 -0.050447028 0.42843628
v 0.044843324 0.03197931 0.42843628
v -0.0084707765 -0.04635982 0.367
v 0.046862975 0.003462929 0.367
v 0.020045616 -0.04434015 0.42843628
v 0.050950192 0.003248727 0.42843628
v 0.018187512 -0.04069342 0.367
v 0.03844107 -0.022457028 0.367
v 0.041873597 -0.024686135 0.42843628
v -0.053304203 0.03712301 -0.42843628
v -0.029618077 0.05313031 -0.367
v -0.049871672 0.034893904 -0.367
v -0.05829357 0.0089739375 -0.367
v -0.031476177 0.056777038 -0.42843628
v -0.062380783 0.009188134 -0.42843628
v -0.0029597746 0.0587967 -0.367
v -0.056273896 -0.019542465 -0.42843628
v -0.0027455704 0.062883906 -0.42843628
v -0.052627165 -0.017684363 -0.367
v 0.022960177 0.050374787 -0.367
v -0.03661988 -0.041370444 -0.42843628
v 0.025189275 0.053807314 -0.42843628
v -0.034390766 -0.037937917 -0.367
v 0.04119656 0.030121218 -0.367
v -0.00868501 -0.050447028 -0.42843628
v 0.044843286 0.03197931 -0.42843628
v -0.008470808 -0.04635982 -0.367
v 0.046862945 0.003462929 -0.367
v 0.020045578 -0.04434015 -0.42843628
v 0.050950155 0.003248727 -0.42843628
v 0.018187482 -0.04069342 -0.367
v 0.03844104 -0.022457028 -0.367
v 0.04187356 -0.024686135 -0.42843628
v -0.009854719 0.16292135 0.36177596
v -0.0077267955 0.1362477 0.3794781
v -0.061664127 0.12135155 0.37862742
v -0.07266047 0.14595532 0.36101934
v 0.039908674 0.15786535 0.36203155
v -0.11738314 0.08426845 0.37700033
v -0.13718803 0.10135986 0.35957
v 0.032510024 0.13226818 0.3798277
v 0.08151599 0.13619806 0.3620512
v -0.13304931 0.03635584 0.37601325
v -0.15823321 0.042189877 0.35843092
v 0.065135315 0.115417026 0.3798533
v 0.12549329 0.0821667 0.36187434
v 0.103241354 0.06696815 0.37965748
v 0.1482044 0.039538037 0.36137325
v 0.1224318 0.033229787 0.37896883
v 0.14502703 -0.013137158 0.3608396
v 0.11828307 -0.009909943 0.3784595
v 0.12827215 -0.073346525 0.35964438
v 0.10369085 -0.063696586 0.37711546
v 0.09422808 -0.119864754 0.35855144
v 0.07474203 -0.10255668 0.37599415
v 0.06002132 -0.14094609 0.3579349
v 0.050681233 -0.116592646 0.37541246
v -0.0012667254 -0.14453806 0.35769004
v -0.12729765 -0.021057889 0.37511218
v -0.15282345 -0.02467915 0.35757822
v -0.0008119233 -0.11811451 0.37510058
v -0.05597352 -0.14083228 0.35703146
v -0.10499639 -0.07295267 0.37445223
v -0.12805335 -0.084755115 0.35705832
v -0.04887864 -0.115449876 0.37446108
v -0.087628 -0.12909444 0.35678118
v -0.07110412 -0.10913628 0.37407604
v -0.069746174 0.13994348 0.26380342
v -0.061500315 0.12155114 0.24349795
v -0.0075743496 0.13642596 0.2432243
v -0.009222165 0.15627906 0.2636467
v -0.13178566 0.097361036 0.26430783
v 0.032639794 0.13243653 0.24312812
v 0.038037606 0.15145703 0.26363647
v -0.11724357 0.084482364 0.24428077
v -0.15152444 0.04143881 0.2647105
v 0.06524142 0.11559437 0.24315156
v 0.077284545 0.13103361 0.26366493
v 0.1033407 0.06716815 0.24307458
v 0.119917445 0.07851998 0.26360703
v 0.12253639 0.033440556 0.24351811
v 0.14165641 0.038196415 0.26380703
v 0.11841047 -0.009669817 0.24350202
v 0.13847017 -0.011877749 0.26383933
v 0.103833824 -0.063466676 0.24411176
v 0.12230125 -0.07030677 0.26424384
v 0.07490015 -0.10234544 0.24456885
v 0.08975526 -0.11483743 0.2645982
v -0.1329353 0.036580935 0.24460414
v -0.146284 -0.023008326 0.26493406
v 0.050833914 -0.116409965 0.24481577
v 0.05808976 -0.13447866 0.2648012
v -0.12719788 -0.020844404 0.24488327
v -0.12237819 -0.08109934 0.26500374
v -0.0006592497 -0.11793733 0.2447195
v -0.0011371039 -0.13782291 0.2647007
v -0.10489745 -0.07275977 0.24510884
v -0.08385895 -0.12348238 0.26507816
v -0.04873886 -0.11527925 0.24502742
v -0.054540947 -0.13424706 0.2649606
v -0.070989236 -0.108967416 0.2453227
v -0.009854749 0.16292132 -0.36177596
v -0.0726605 0.14595532 -0.36101934
v -0.061664157 0.121351525 -0.3786274
v -0.0077268216 0.1362477 -0.3794781
v 0.03990864 0.15786532 -0.36203146
v -0.11738315 0.08426845 -0.37700033
v -0.13718805 0.10135985 -0.35957
v 0.03250999 0.13226816 -0.3798277
v 0.08151595 0.13619804 -0.3620512
v -0.13304932 0.03635583 -0.37601325
v -0.15823323 0.04218987 -0.35843092
v 0.06513526 0.11541702 -0.3798533
v 0.12549326 0.08216669 -0.36187434
v 0.103241324 0.06696814 -0.37965748
v 0.14820436 0.039538033 -0.36137325
v 0.12243176 0.033229794 -0.37896883
v 0.145027 -0.013137162 -0.36083958
v 0.11828303 -0.009909943 -0.37845945
v 0.1282721 -0.07334652 -0.35964438
v 0.10369081 -0.06369658 -0.37711546
v 0.09422806 -0.119864754 -0.35855144
v 0.07474198 -0.10255668 -0.37599412
v 0.06002129 -0.14094609 -0.35793486
v 0.0506812 -0.11659262 -0.37541243
v -0.0012667552 -0.14453803 -0.35769004
v -0.12729768 -0.021057885 -0.37511218
v -0.15282346 -0.024679154 -0.35757822
v -0.0008119531 -0.118114494 -0.37510058
v -0.055973545 -0.14083226 -0.35703146
v -0.10499642 -0.07295267 -0.37445223
v -0.12805337 -0.08475511 -0.35705832
v -0.04887867 -0.11544985 -0.37446108
v -0.08762803 -0.12909442 -0.35678118
v -0.07110414 -0.10913626 -0.37407604
v -0.069746196 0.13994347 -0.26380345
v -0.009222195 0.15627906 -0.2636467
v -0.007574361 0.13642594 -0.2432243
v -0.061500333 0.12155114 -0.243498
v -0.13178568 0.09736103 -0.26430786
v 0.032639768 0.13243653 -0.24312812
v 0.03803758 0.15145701 -0.2636365
v -0.11724358 0.08448236 -0.24428077
v -0.15152447 0.041438807 -0.2647105
v 0.06524139 0.115594365 -0.24315159
v 0.077284515 0.1310336 -0.26366493
v 0.10334067 0.06716814 -0.24307458
v 0.119917415 0.078519985 -0.26360703
v 0.12253636 0.033440553 -0.24351816
v 0.14165637 0.038196407 -0.263807
v 0.11841043 -0.009669817 -0.24350202
v 0.13847013 -0.011877749 -0.26383936
v 0.10383381 -0.06346667 -0.24411178
v 0.122301206 -0.07030676 -0.26424384
v 0.07490013 -0.102345414 -0.24456885
v 0.08975521 -0.11483742 -0.2645982
v -0.1329353 0.036580928 -0.24460416
v -0.14628401 -0.023008324 -0.2649341
v 0.050833896 -0.11640996 -0.24481572
v 0.058089722 -0.13447866 -0.26480117
v -0.12719788 -0.0208444 -0.24488327
v -0.12237819 -0.081099324 -0.2650037
v -0.0006592795 -0.11793733 -0.2447195
v -0.0011371262 -0.13782291 -0.2647007
v -0.10489747 -0.07275976 -0.24510889
v -0.083858974 -0.12348236 -0.2650782
v -0.04873888 -0.11527924 -0.24502742
v -0.054540962 -0.13424705 -0.2649606
v -0.07098925 -0.10896741 -0.2453227
vt 0.7104492 0.390625
vt 0.70947266 0.3803711
vt 0.69384766 0.38208008
vt 0.6948242 0.39208984
vt 0.7109375 0.40014648
vt 0.6953125 0.40112305
vt 0.7114258 0.40576172
vt 0.6958008 0.40649414
vt 0.71191406 0.41601562
vt 0.6958008 0.41625977
vt 0.71191406 0.4272461
vt 0.6958008 0.42700195
vt 0.71191406 0.4387207
vt 0.6958008 0.43798828
vt 0.7114258 0.4494629
vt 0.6953125 0.4482422
vt 0.7104492 0.46264648
vt 0.69384766 0.4609375
vt 0.91748047 0.12756348
vt 0.9165039 0.11645508
vt 0.89990234 0.1182251
vt 0.9008789 0.12890625
vt 0.91796875 0.13598633
vt 0.9013672 0.13696289
vt 0.91845703 0.14404297
vt 0.9013672 0.14453125
vt 0.91845703 0.15600586
vt 0.90185547 0.15612793
vt 0.91845703 0.16418457
vt 0.90185547 0.16394043
vt 0.91796875 0.17321777
vt 0.9013672 0.17248535
vt 0.91748047 0.18383789
vt 0.9008789 0.18286133
vt 0.9165039 0.19372559
vt 0.9003906 0.19226074
vt 0.91552734 0.20056152
vt 0.89990234 0.1986084
vt 0.91796875 0.39111328
vt 0.9013672 0.39990234
vt 0.9169922 0.40161133
vt 0.90234375 0.38964844
vt 0.91845703 0.3815918
vt 0.90283203 0.38061523
vt 0.9189453 0.37597656
vt 0.9033203 0.37524414
vt 0.9194336 0.36572266
vt 0.9033203 0.36547852
vt 0.9194336 0.3544922
vt 0.9033203 0.35473633
vt 0.9194336 0.34301758
vt 0.9033203 0.34375
vt 0.9189453 0.3322754
vt 0.90283203 0.3334961
vt 0.91796875 0.3190918
vt 0.9013672 0.32080078
vt 0.91552734 0.085998535
vt 0.8979492 0.09527588
vt 0.9145508 0.0970459
vt 0.8989258 0.08459473
vt 0.9160156 0.07745361
vt 0.89941406 0.076538086
vt 0.9165039 0.06945801
vt 0.89990234 0.06896973
vt 0.9165039 0.057556152
vt 0.89990234 0.057403564
vt 0.9165039 0.04928589
vt 0.89990234 0.049591064
vt 0.9160156 0.040283203
vt 0.89941406 0.041015625
vt 0.91552734 0.02961731
vt 0.8989258 0.030654907
vt 0.9145508 0.019805908
vt 0.8984375 0.021255493
vt 0.9135742 0.0129852295
vt 0.8979492 0.014915466
vt 0.7416992 0.011856079
vt 0.7416992 0.10131836
vt 0.74658203 0.10131836
vt 0.74658203 0.011856079
vt 0.75146484 0.10131836
vt 0.75146484 0.011856079
vt 0.75634766 0.10131836
vt 0.75634766 0.011856079
vt 0.7607422 0.10131836
vt 0.7607422 0.011856079
vt 0.765625 0.10131836
vt 0.765625 0.011856079
vt 0.7705078 0.10131836
vt 0.7705078 0.011856079
vt 0.56396484 0.9584961
vt 0.55908203 0.9584961
vt 0.5546875 0.9609375
vt 0.5683594 0.9609375
vt 0.5522461 0.96533203
vt 0.5708008 0.96533203
vt 0.5522461 0.97021484
vt 0.5708008 0.97021484
vt 0.5546875 0.9746094
vt 0.5683594 0.9746094
vt 0.55908203 0.97753906
vt 0.56396484 0.97753906
vt 0.5541992 0.6323242
vt 0.56640625 0.6323242
vt 0.5654297 0.6245117
vt 0.55566406 0.625
vt 0.8598633 0.4543457
vt 0.8598633 0.46044922
vt 0.8745117 0.46264648
vt 0.87402344 0.45263672
vt 0.6230469 0.2006836
vt 0.6376953 0.19592285
vt 0.62402344 0.19299316
vt 0.65234375 0.2006836
vt 0.6513672 0.19335938
vt 0.9692383 0.87646484
vt 0.9765625 0.8769531
vt 0.97216797 0.8623047
vt 0.9765625 0.8466797
vt 0.9692383 0.84765625
vt 0.9873047 0.0259552
vt 0.9873047 0.015182495
vt 0.97998047 0.013847351
vt 0.97998047 0.027069092
vt 0.8461914 0.4519043
vt 0.8457031 0.46264648
vt 0.8598633 0.46044922
vt 0.8598633 0.4543457
vt 0.38745117 0.9819336
vt 0.39257812 0.9819336
vt 0.39672852 0.9794922
vt 0.39941406 0.97509766
vt 0.38305664 0.9794922
vt 0.39941406 0.97021484
vt 0.38061523 0.97509766
vt 0.39672852 0.9658203
vt 0.38061523 0.97021484
vt 0.39257812 0.9633789
vt 0.38305664 0.9658203
vt 0.38745117 0.9633789
vt 0.9873047 0.69677734
vt 0.97998047 0.6977539
vt 0.9794922 0.70751953
vt 0.9873047 0.7089844
vt 0.42333984 0.60498047
vt 0.4091797 0.6035156
vt 0.40844727 0.61328125
vt 0.42333984 0.6113281
vt 0.9819336 0.61083984
vt 0.9741211 0.6118164
vt 0.9770508 0.6254883
vt 0.9819336 0.6401367
vt 0.9746094 0.63916016
vt 0.69628906 0.97509766
vt 0.6933594 0.9609375
vt 0.68896484 0.9760742
vt 0.68896484 0.9453125
vt 0.69628906 0.94628906
vt 0.98046875 0.11541748
vt 0.98779297 0.11651611
vt 0.98779297 0.10333252
vt 0.98095703 0.10467529
vt 0.43676758 0.60253906
vt 0.42333984 0.60498047
vt 0.42333984 0.6113281
vt 0.4375 0.61328125
vt 0.29248047 0.9448242
vt 0.30322266 0.9423828
vt 0.3034668 0.9399414
vt 0.3046875 0.9448242
vt 0.2927246 0.9370117
vt 0.29541016 0.953125
vt 0.30517578 0.9379883
vt 0.3034668 0.9580078
vt 0.29711914 0.9296875
vt 0.30664062 0.94628906
vt 0.30737305 0.9370117
vt 0.3125 0.9584961
vt 0.30444336 0.92578125
vt 0.30932617 0.94628906
vt 0.3100586 0.9370117
vt 0.3203125 0.9536133
vt 0.31298828 0.92578125
vt 0.31152344 0.9453125
vt 0.31225586 0.93847656
vt 0.32495117 0.94628906
vt 0.3203125 0.9296875
vt 0.31323242 0.9433594
vt 0.31347656 0.9404297
vt 0.32470703 0.9375
vt 0.73095703 0.93408203
vt 0.7421875 0.9394531
vt 0.7416992 0.93652344
vt 0.74316406 0.9345703
vt 0.7314453 0.9423828
vt 0.7338867 0.92578125
vt 0.74365234 0.94140625
vt 0.7421875 0.92089844
vt 0.73535156 0.94921875
vt 0.7451172 0.93310547
vt 0.74609375 0.9423828
vt 0.75097656 0.92089844
vt 0.74316406 0.9536133
vt 0.7480469 0.9326172
vt 0.74853516 0.94189453
vt 0.75878906 0.92529297
vt 0.75146484 0.9536133
vt 0.7504883 0.93408203
vt 0.75097656 0.94091797
vt 0.7636719 0.93310547
vt 0.75878906 0.94921875
vt 0.7519531 0.93603516
vt 0.7519531 0.93847656
vt 0.7631836 0.94189453
vt 0.40600586 0.67285156
vt 0.4116211 0.67333984
vt 0.41455078 0.6645508
vt 0.40966797 0.6621094
vt 0.40649414 0.6816406
vt 0.42138672 0.6557617
vt 0.4182129 0.6513672
vt 0.41186523 0.6801758
vt 0.40966797 0.68896484
vt 0.4296875 0.6533203
vt 0.42871094 0.6479492
vt 0.41430664 0.68603516
vt 0.4189453 0.6977539
vt 0.42211914 0.6928711
vt 0.42626953 0.70166016
vt 0.42773438 0.69628906
vt 0.43554688 0.70166016
vt 0.4350586 0.69628906
vt 0.44628906 0.69921875
vt 0.44433594 0.69433594
vt 0.45483398 0.69384766
vt 0.45117188 0.6894531
vt 0.45898438 0.6879883
vt 0.45385742 0.6855469
vt 0.46020508 0.6772461
vt 0.43920898 0.65478516
vt 0.4404297 0.64941406
vt 0.45458984 0.6767578
vt 0.45996094 0.66748047
vt 0.44799805 0.6586914
vt 0.4506836 0.6542969
vt 0.45458984 0.66845703
vt 0.4580078 0.6616211
vt 0.45361328 0.6645508
vt 0.76708984 0.8408203
vt 0.76220703 0.8432617
vt 0.765625 0.8520508
vt 0.7705078 0.8510742
vt 0.7583008 0.8300781
vt 0.7651367 0.8588867
vt 0.77001953 0.8598633
vt 0.7553711 0.8339844
vt 0.74853516 0.82666016
vt 0.7626953 0.8642578
vt 0.76660156 0.8671875
vt 0.7548828 0.87109375
vt 0.7578125 0.8754883
vt 0.74902344 0.8745117
vt 0.7504883 0.87939453
vt 0.7416992 0.8745117
vt 0.7416992 0.87939453
vt 0.7324219 0.8720703
vt 0.73095703 0.8769531
vt 0.72558594 0.8676758
vt 0.72265625 0.87109375
vt 0.7475586 0.83154297
vt 0.7373047 0.828125
vt 0.72314453 0.86328125
vt 0.71875 0.86572266
vt 0.73779297 0.8330078
vt 0.7270508 0.83251953
vt 0.72265625 0.85498047
vt 0.71728516 0.85498047
vt 0.7294922 0.83691406
vt 0.71972656 0.83984375
vt 0.72265625 0.8466797
vt 0.71777344 0.84521484
vt 0.7236328 0.84277344
vt 0.38891602 0.69140625
vt 0.3852539 0.68066406
vt 0.3803711 0.68359375
vt 0.38330078 0.6923828
vt 0.38842773 0.7001953
vt 0.37353516 0.6743164
vt 0.37670898 0.6699219
vt 0.38305664 0.69921875
vt 0.3852539 0.7080078
vt 0.36523438 0.671875
vt 0.36621094 0.6665039
vt 0.38061523 0.7050781
vt 0.37597656 0.7163086
vt 0.37280273 0.71191406
vt 0.36865234 0.7207031
vt 0.3671875 0.71533203
vt 0.359375 0.7207031
vt 0.35986328 0.71484375
vt 0.3486328 0.7182617
vt 0.35058594 0.7128906
vt 0.3400879 0.71240234
vt 0.34375 0.7084961
vt 0.3359375 0.70654297
vt 0.34106445 0.70458984
vt 0.3347168 0.6958008
vt 0.3557129 0.67333984
vt 0.3544922 0.66796875
vt 0.34033203 0.6958008
vt 0.33496094 0.68603516
vt 0.34692383 0.6777344
vt 0.34423828 0.67285156
vt 0.34033203 0.6875
vt 0.33691406 0.6801758
vt 0.3413086 0.68359375
vt 0.6479492 0.8359375
vt 0.64453125 0.8466797
vt 0.64941406 0.84716797
vt 0.65283203 0.8383789
vt 0.6567383 0.8256836
vt 0.64990234 0.8540039
vt 0.64501953 0.85498047
vt 0.65966797 0.82910156
vt 0.6665039 0.8222656
vt 0.65234375 0.8598633
vt 0.6484375 0.8623047
vt 0.66015625 0.8666992
vt 0.65722656 0.87060547
vt 0.6660156 0.8701172
vt 0.6645508 0.8745117
vt 0.67333984 0.8696289
vt 0.67333984 0.8745117
vt 0.6826172 0.8676758
vt 0.68408203 0.8720703
vt 0.6894531 0.86279297
vt 0.6923828 0.8666992
vt 0.66748047 0.82714844
vt 0.67822266 0.8232422
vt 0.69189453 0.8588867
vt 0.69628906 0.86083984
vt 0.6772461 0.828125
vt 0.6879883 0.828125
vt 0.6928711 0.85009766
vt 0.6977539 0.85009766
vt 0.6855469 0.83203125
vt 0.6953125 0.83496094
vt 0.6923828 0.8417969
vt 0.6972656 0.84033203
vt 0.69140625 0.8378906
vn -0.0010929108 -0.9975586 -0.07171631
vn 0.2479248 -0.9658203 -0.07281494
vn 0.2479248 -0.9658203 -0.07281494
vn -0.0010728836 -0.9975586 -0.07171631
vn -0.17236328 -0.9824219 -0.07269287
vn -0.17236328 -0.9824219 -0.07269287
vn -0.73779297 -0.6713867 -0.07171631
vn -0.73779297 -0.6713867 -0.07183838
vn -0.8466797 -0.52685547 -0.07293701
vn -0.8466797 -0.52685547 -0.07293701
vn -0.9707031 -0.22973633 -0.07232666
vn -0.96972656 -0.23364258 -0.07232666
vn -0.9897461 0.12371826 -0.07147217
vn -0.9897461 0.122924805 -0.07147217
vn -0.76660156 0.6381836 -0.07122803
vn -0.76660156 0.6381836 -0.07122803
vn -0.43188477 0.89941406 -0.068115234
vn -0.43188477 0.89941406 -0.068115234
vn -0.10467529 0.9921875 -0.067993164
vn -0.43188477 0.89941406 -0.068115234
vn -0.43188477 0.89941406 -0.068115234
vn -0.10467529 0.9921875 -0.067993164
vn 0.2800293 0.95751953 -0.06762695
vn 0.2800293 0.95751953 -0.06762695
vn 0.7739258 0.62939453 -0.066833496
vn 0.7739258 0.62939453 -0.066833496
vn 0.7739258 0.62939453 -0.066833496
vn 0.7739258 0.62939453 -0.066833496
vn 0.9770508 0.20166016 -0.06933594
vn 0.9770508 0.20153809 -0.06939697
vn 0.9824219 -0.17346191 -0.068237305
vn 0.9824219 -0.17333984 -0.068237305
vn 0.90185547 -0.4260254 -0.070129395
vn 0.90185547 -0.4260254 -0.070129395
vn 0.70458984 -0.7060547 -0.07098389
vn 0.70458984 -0.7060547 -0.07104492
vn 0.2479248 -0.9658203 -0.07281494
vn 0.2479248 -0.9658203 -0.07281494
vn -0.0011053085 -0.9975586 0.07171631
vn 0.2479248 -0.9658203 0.07281494
vn 0.2479248 -0.9658203 0.07281494
vn -0.0011138916 -0.9975586 0.07171631
vn -0.17236328 -0.9824219 0.07269287
vn -0.17236328 -0.9824219 0.07269287
vn -0.73779297 -0.6713867 0.07171631
vn -0.73779297 -0.6713867 0.071777344
vn -0.8466797 -0.52685547 0.07293701
vn -0.8466797 -0.52685547 0.07293701
vn -0.9707031 -0.22973633 0.07232666
vn -0.9707031 -0.22973633 0.072387695
vn -0.9897461 0.122924805 0.07147217
vn -0.9897461 0.122924805 0.07147217
vn -0.76660156 0.6381836 0.07122803
vn -0.76660156 0.6381836 0.07122803
vn -0.43188477 0.89941406 0.068115234
vn -0.43188477 0.89941406 0.068115234
vn -0.10467529 0.9921875 0.067993164
vn -0.43188477 0.89941406 0.068115234
vn -0.43188477 0.89941406 0.068115234
vn -0.10467529 0.9921875 0.067993164
vn 0.28393555 0.95654297 0.06768799
vn 0.2800293 0.95751953 0.06762695
vn 0.7739258 0.62939453 0.066833496
vn 0.7739258 0.62939453 0.066833496
vn 0.7739258 0.62939453 0.066833496
vn 0.77441406 0.62939453 0.066833496
vn 0.9770508 0.20166016 0.06933594
vn 0.9770508 0.20153809 0.06939697
vn 0.9824219 -0.1730957 0.068237305
vn 0.9824219 -0.17333984 0.068237305
vn 0.90185547 -0.4260254 0.070129395
vn 0.90185547 -0.4260254 0.070129395
vn 0.70458984 -0.7060547 0.07098389
vn 0.70458984 -0.7060547 0.07104492
vn 0.2479248 -0.9658203 0.07281494
vn 0.2479248 -0.9658203 0.07281494
vn -0.052337646 -0.99853516 0
vn -0.052337646 -0.99853516 0
vn 0.8388672 -0.5444336 0
vn 0.8388672 -0.5444336 0
vn 0.8911133 0.45410156 0
vn 0.8911133 0.45410156 0
vn 0.052337646 0.99853516 0
vn 0.052337646 0.99853516 0
vn -0.8388672 0.5444336 0
vn -0.8388672 0.5444336 0
vn -0.8911133 -0.45410156 0
vn -0.8911133 -0.45410156 0
vn -0.052337646 -0.99853516 0
vn -0.052337646 -0.99853516 0
vn -0 1.9669533E-06 1
vn -0 -8.6426735E-06 1
vn -0 -2.2053719E-06 1
vn -0 2.3245811E-06 1
vn -0 -1.7285347E-06 1
vn -0 8.34465E-07 1
vn -0 -1.1324883E-06 1
vn -0 0 1
vn -0 0 1
vn -0 -4.172325E-07 1
vn -0 -4.172325E-07 1
vn -0 -4.2915344E-06 1
vn 0.5932617 0.7885742 0.16137695
vn 0.5932617 0.7885742 0.16137695
vn 0.5932617 0.7885742 0.16137695
vn 0.5932617 0.7885742 0.16137695
vn -0.17993164 -0.21142578 0.9604492
vn -0.17993164 -0.21142578 0.9604492
vn -0.17993164 -0.21142578 0.9604492
vn -0.17993164 -0.21142578 0.9604492
vn 0.70703125 -0.52490234 0.4741211
vn 0.7915039 -0.47753906 0.3815918
vn 0.7373047 -0.66308594 0.12915039
vn 0.7890625 -0.37158203 0.48901367
vn 0.9326172 -0.33325195 0.13879395
vn -0.71972656 0.68359375 0.120666504
vn -0.6948242 0.5463867 0.46801758
vn -0.78222656 0.50439453 0.36572266
vn -0.78564453 0.4111328 0.46191406
vn -0.91552734 0.38305664 0.12487793
vn -0.5048828 -0.84521484 0.17468262
vn -0.5048828 -0.84521484 0.17468262
vn -0.5048828 -0.84521484 0.17468262
vn -0.5048828 -0.84521484 0.17468262
vn 0.14318848 0.22766113 0.9633789
vn 0.14318848 0.22766113 0.9633789
vn 0.14318848 0.22766113 0.9633789
vn 0.14318848 0.22766113 0.9633789
vn -0 -2.2053719E-06 -1
vn -0 -8.6426735E-06 -1
vn -0 1.9669533E-06 -1
vn -0 2.3245811E-06 -1
vn -0 -1.1324883E-06 -1
vn -0 9.536743E-07 -1
vn -0 -3.5762787E-07 -1
vn -0 0 -1
vn -0 1.7881393E-07 -1
vn -0 -1.7881393E-07 -1
vn -0 -1.4305115E-06 -1
vn -0 0 -1
vn 0.5932617 0.7885742 -0.16137695
vn 0.5932617 0.7885742 -0.16137695
vn 0.5932617 0.7885742 -0.16137695
vn 0.5932617 0.7885742 -0.16137695
vn -0.17993164 -0.21142578 -0.9604492
vn -0.17993164 -0.21142578 -0.9604492
vn -0.17993164 -0.21142578 -0.9604492
vn -0.17993164 -0.21142578 -0.9604492
vn 0.70703125 -0.52490234 -0.4741211
vn 0.7373047 -0.66308594 -0.12915039
vn 0.7915039 -0.47753906 -0.3815918
vn 0.7890625 -0.37158203 -0.48901367
vn 0.9326172 -0.33325195 -0.13879395
vn -0.71972656 0.68359375 -0.120666504
vn -0.78222656 0.50439453 -0.36572266
vn -0.6948242 0.5463867 -0.46801758
vn -0.78564453 0.4111328 -0.46191406
vn -0.91552734 0.38305664 -0.12487793
vn -0.5048828 -0.84521484 -0.17468262
vn -0.5048828 -0.84521484 -0.17468262
vn -0.5048828 -0.84521484 -0.17468262
vn -0.5048828 -0.84521484 -0.17468262
vn 0.14318848 0.22766113 -0.9633789
vn 0.14318848 0.22766113 -0.9633789
vn 0.14318848 0.22766113 -0.9633789
vn 0.14318848 0.22766113 -0.9633789
vn -0.83691406 0.54345703 -0.066467285
vn -0.83691406 0.54345703 -0.066467285
vn -0.45288086 0.88916016 -0.066467285
vn -0.99658203 0.052215576 -0.066467285
vn -0.45288086 0.88916016 -0.066467285
vn -0.99658203 0.052215576 -0.066467285
vn 0.052215576 0.99658203 -0.066467285
vn -0.88916016 -0.45288086 -0.066467285
vn 0.052215576 0.99658203 -0.066467285
vn -0.88916016 -0.45288086 -0.066467285
vn 0.54345703 0.83691406 -0.066467285
vn -0.54345703 -0.83691406 -0.066467285
vn 0.54345703 0.83691406 -0.066467285
vn -0.54345703 -0.83691406 -0.066467285
vn 0.88916016 0.45288086 -0.066467285
vn -0.052215576 -0.99658203 -0.066467285
vn 0.88916016 0.45288086 -0.066467285
vn -0.052215576 -0.99658203 -0.066467285
vn 0.99658203 -0.052215576 -0.066467285
vn 0.45288086 -0.88916016 -0.066467285
vn 0.99658203 -0.052215576 -0.066467285
vn 0.45288086 -0.88916016 -0.066467285
vn 0.83691406 -0.54345703 -0.066467285
vn 0.83691406 -0.54345703 -0.066467285
vn -0.83691406 0.54345703 0.066467285
vn -0.45288086 0.88916016 0.066467285
vn -0.83691406 0.54345703 0.066467285
vn -0.99658203 0.052215576 0.066467285
vn -0.45288086 0.88916016 0.066467285
vn -0.99658203 0.052215576 0.066467285
vn 0.052215576 0.99658203 0.066467285
vn -0.88916016 -0.45288086 0.066467285
vn 0.052215576 0.99658203 0.066467285
vn -0.88916016 -0.45288086 0.066467285
vn 0.54345703 0.83691406 0.066467285
vn -0.54345703 -0.83691406 0.066467285
vn 0.54345703 0.83691406 0.066467285
vn -0.54345703 -0.83691406 0.066467285
vn 0.88916016 0.45288086 0.066467285
vn -0.052215576 -0.99658203 0.066467285
vn 0.88916016 0.45288086 0.066467285
vn -0.052215576 -0.99658203 0.066467285
vn 0.99658203 -0.052215576 0.066467285
vn 0.45288086 -0.88916016 0.066467285
vn 0.99658203 -0.052215576 0.066467285
vn 0.45288086 -0.88916016 0.066467285
vn 0.83691406 -0.54345703 0.066467285
vn 0.83691406 -0.54345703 0.066467285
vn -0.10467529 0.9921875 -0.067993164
vn -0.008811951 -0.014564514 1
vn -0.014923096 -0.021484375 0.9995117
vn -0.43188477 0.89941406 -0.068115234
vn 0.2800293 0.95751953 -0.06762695
vn -0.014144897 -0.020401001 0.9995117
vn -0.76660156 0.6381836 -0.07122803
vn 0.070129395 0.26293945 0.96240234
vn 0.7739258 0.62939453 -0.066833496
vn -0.010978699 -0.016860962 1
vn -0.9897461 0.12371826 -0.07147217
vn 0.33203125 0.3659668 0.8696289
vn 0.7739258 0.62939453 -0.066833496
vn 0.36279297 0.24328613 0.89941406
vn 0.9770508 0.20166016 -0.06933594
vn 0.20202637 0.028549194 0.9790039
vn 0.9824219 -0.17346191 -0.068237305
vn -0.012916565 -0.01902771 0.9995117
vn 0.90185547 -0.4260254 -0.070129395
vn -0.014183044 -0.020370483 0.9995117
vn 0.70458984 -0.7060547 -0.07098389
vn -0.012260437 -0.018005371 1
vn 0.2479248 -0.9658203 -0.07281494
vn -0.011550903 -0.017822266 1
vn -0.0010929108 -0.9975586 -0.07171631
vn -0.010688782 -0.016784668 1
vn -0.9707031 -0.22973633 -0.07232666
vn -0.010887146 -0.22363281 0.9746094
vn -0.17236328 -0.9824219 -0.07269287
vn -0.25683594 -0.17114258 0.9511719
vn -0.8466797 -0.52685547 -0.07293701
vn -0.07183838 -0.3857422 0.9199219
vn -0.73779297 -0.6713867 -0.07171631
vn -0.31030273 -0.4038086 0.86083984
vn -0.43188477 0.89941406 -0.068115234
vn -0.007423401 -0.009941101 -1
vn -0.0013828278 -0.0030498505 -1
vn -0.10467529 0.9921875 -0.067993164
vn -0.76660156 0.6381836 -0.07122803
vn 0.09448242 0.33544922 -0.9375
vn 0.2800293 0.95751953 -0.06762695
vn -0.0067100525 -0.008903503 -1
vn -0.9897461 0.122924805 -0.07147217
vn 0.43188477 0.47729492 -0.7651367
vn 0.7739258 0.62939453 -0.066833496
vn 0.46850586 0.32299805 -0.8222656
vn 0.7739258 0.62939453 -0.066833496
vn 0.25146484 0.048034668 -0.9667969
vn 0.9770508 0.20153809 -0.06939697
vn -0.0054092407 -0.0074386597 -1
vn 0.9824219 -0.17333984 -0.068237305
vn -0.0066986084 -0.0088272095 -1
vn 0.90185547 -0.4260254 -0.070129395
vn -0.0047912598 -0.0064964294 -1
vn 0.70458984 -0.7060547 -0.07104492
vn -0.0035552979 -0.005317688 -1
vn -0.96972656 -0.23364258 -0.07232666
vn -0.0040626526 -0.0063095093 -1
vn 0.2479248 -0.9658203 -0.07281494
vn -0.003156662 -0.0051994324 -1
vn -0.8466797 -0.52685547 -0.07293701
vn -0.0042495728 -0.26342773 -0.96484375
vn -0.0010728836 -0.9975586 -0.07171631
vn -0.31591797 -0.20166016 -0.9272461
vn -0.73779297 -0.6713867 -0.07183838
vn -0.080078125 -0.48583984 -0.8701172
vn -0.17236328 -0.9824219 -0.07269287
vn -0.39892578 -0.5161133 -0.7578125
vn -0.10467529 0.9921875 0.067993164
vn -0.43188477 0.89941406 0.068115234
vn -0.014877319 -0.021453857 -0.9995117
vn -0.00881958 -0.014564514 -1
vn 0.28393555 0.95654297 0.06768799
vn -0.014129639 -0.020370483 -0.9995117
vn -0.76660156 0.6381836 0.07122803
vn 0.070129395 0.26293945 -0.96240234
vn 0.7739258 0.62939453 0.066833496
vn -0.010978699 -0.016860962 -1
vn -0.9897461 0.122924805 0.07147217
vn 0.33203125 0.3659668 -0.8696289
vn 0.7739258 0.62939453 0.066833496
vn 0.36279297 0.24328613 -0.89941406
vn 0.9770508 0.20166016 0.06933594
vn 0.20202637 0.028564453 -0.9790039
vn 0.9824219 -0.1730957 0.068237305
vn -0.012916565 -0.01902771 -0.9995117
vn 0.90185547 -0.4260254 0.070129395
vn -0.014198303 -0.020401001 -0.9995117
vn 0.70458984 -0.7060547 0.07098389
vn -0.012260437 -0.018005371 -1
vn 0.2479248 -0.9658203 0.07281494
vn -0.011543274 -0.017807007 -1
vn -0.0011053085 -0.9975586 0.07171631
vn -0.0107040405 -0.016738892 -1
vn -0.9707031 -0.22973633 0.07232666
vn -0.010879517 -0.22363281 -0.9746094
vn -0.17236328 -0.9824219 0.07269287
vn -0.25683594 -0.17114258 -0.9511719
vn -0.8466797 -0.52685547 0.07293701
vn -0.07183838 -0.3857422 -0.9199219
vn -0.73779297 -0.6713867 0.07171631
vn -0.31030273 -0.4038086 -0.86083984
vn -0.43188477 0.89941406 0.068115234
vn -0.10467529 0.9921875 0.067993164
vn -0.0013465881 -0.0030460358 1
vn -0.007419586 -0.009941101 1
vn -0.76660156 0.6381836 0.07122803
vn 0.09448242 0.33544922 0.9375
vn 0.2800293 0.95751953 0.06762695
vn -0.0066986084 -0.008888245 1
vn -0.9897461 0.122924805 0.07147217
vn 0.43188477 0.47729492 0.7651367
vn 0.7739258 0.62939453 0.066833496
vn 0.46850586 0.32299805 0.8222656
vn 0.77441406 0.62939453 0.066833496
vn 0.25146484 0.04800415 0.9667969
vn 0.9770508 0.20153809 0.06939697
vn -0.0054092407 -0.0074272156 1
vn 0.9824219 -0.17333984 0.068237305
vn -0.006702423 -0.008842468 1
vn 0.90185547 -0.4260254 0.070129395
vn -0.004840851 -0.006538391 1
vn 0.70458984 -0.7060547 0.07104492
vn -0.0035629272 -0.0053749084 1
vn -0.9707031 -0.22973633 0.072387695
vn -0.0040779114 -0.006313324 1
vn 0.2479248 -0.9658203 0.07281494
vn -0.0031585693 -0.0051879883 1
vn -0.8466797 -0.52685547 0.07293701
vn -0.0042495728 -0.26342773 0.96484375
vn -0.0011138916 -0.9975586 0.07171631
vn -0.31591797 -0.20166016 0.9272461
vn -0.73779297 -0.6713867 0.071777344
vn -0.080078125 -0.48583984 0.8701172
vn -0.17236328 -0.9824219 0.07269287
vn -0.39892578 -0.5161133 0.7578125
g CartRearWheels_0
f 3/3/3 2/2/2 1/1/1
f 4/4/4 3/3/3 1/1/1
f 4/4/4 1/1/1 5/5/5
f 6/6/6 4/4/4 5/5/5
f 5/5/5 7/7/7 6/6/6
f 7/7/7 8/8/8 6/6/6
f 8/8/8 7/7/7 9/9/9
f 10/10/10 8/8/8 9/9/9
f 10/10/10 9/9/9 11/11/11
f 12/12/12 10/10/10 11/11/11
f 12/12/12 11/11/11 13/13/13
f 14/14/14 12/12/12 13/13/13
f 13/13/13 15/15/15 14/14/14
f 15/15/15 16/16/16 14/14/14
f 16/16/16 15/15/15 17/17/17
f 18/18/18 16/16/16 17/17/17
f 21/21/21 20/20/20 19/19/19
f 22/22/22 21/21/21 19/19/19
f 22/22/22 19/19/19 23/23/23
f 24/24/24 22/22/22 23/23/23
f 24/24/24 23/23/23 25/25/25
f 26/26/26 24/24/24 25/25/25
f 26/26/26 25/25/25 27/27/27
f 28/28/28 26/26/26 27/27/27
f 28/28/28 27/27/27 29/29/29
f 30/30/30 28/28/28 29/29/29
f 29/29/29 31/31/31 30/30/30
f 31/31/31 32/32/32 30/30/30
f 32/32/32 31/31/31 33/33/33
f 34/34/34 32/32/32 33/33/33
f 34/34/34 33/33/33 35/35/35
f 36/36/36 34/34/34 35/35/35
f 35/35/35 37/37/37 36/36/36
f 37/37/37 38/38/38 36/36/36
f 41/41/41 40/40/40 39/39/39
f 40/40/40 42/42/42 39/39/39
f 39/39/39 42/42/42 43/43/43
f 42/42/42 44/44/44 43/43/43
f 45/45/45 43/43/43 44/44/44
f 46/46/46 45/45/45 44/44/44
f 45/45/45 46/46/46 47/47/47
f 46/46/46 48/48/48 47/47/47
f 47/47/47 48/48/48 49/49/49
f 48/48/48 50/50/50 49/49/49
f 49/49/49 50/50/50 51/51/51
f 50/50/50 52/52/52 51/51/51
f 53/53/53 51/51/51 52/52/52
f 54/54/54 53/53/53 52/52/52
f 53/53/53 54/54/54 55/55/55
f 54/54/54 56/56/56 55/55/55
f 59/59/59 58/58/58 57/57/57
f 58/58/58 60/60/60 57/57/57
f 57/57/57 60/60/60 61/61/61
f 60/60/60 62/62/62 61/61/61
f 61/61/61 62/62/62 63/63/63
f 62/62/62 64/64/64 63/63/63
f 63/63/63 64/64/64 65/65/65
f 64/64/64 66/66/66 65/65/65
f 65/65/65 66/66/66 67/67/67
f 66/66/66 68/68/68 67/67/67
f 69/69/69 67/67/67 68/68/68
f 70/70/70 69/69/69 68/68/68
f 69/69/69 70/70/70 71/71/71
f 70/70/70 72/72/72 71/71/71
f 71/71/71 72/72/72 73/73/73
f 72/72/72 74/74/74 73/73/73
f 75/75/75 73/73/73 74/74/74
f 76/76/76 75/75/75 74/74/74
f 79/79/79 78/78/78 77/77/77
f 80/80/80 79/79/79 77/77/77
f 81/81/81 79/79/79 80/80/80
f 82/82/82 81/81/81 80/80/80
f 83/83/83 81/81/81 82/82/82
f 84/84/84 83/83/83 82/82/82
f 85/85/85 83/83/83 84/84/84
f 86/86/86 85/85/85 84/84/84
f 87/87/87 85/85/85 86/86/86
f 88/88/88 87/87/87 86/86/86
f 89/89/89 87/87/87 88/88/88
f 90/90/90 89/89/89 88/88/88
f 93/93/93 92/92/92 91/91/91
f 93/93/93 91/91/91 94/94/94
f 95/95/95 93/93/93 94/94/94
f 96/96/96 95/95/95 94/94/94
f 96/96/96 97/97/97 95/95/95
f 98/98/98 97/97/97 96/96/96
f 98/98/98 99/99/99 97/97/97
f 100/100/100 99/99/99 98/98/98
f 100/100/100 101/101/101 99/99/99
f 102/102/102 101/101/101 100/100/100
f 105/105/105 104/104/104 103/103/103
f 106/106/106 105/105/105 103/103/103
f 109/109/109 108/108/108 107/107/107
f 110/110/110 109/109/109 107/107/107
f 113/113/113 112/112/112 111/111/111
f 111/111/111 112/112/112 114/114/114
f 114/114/114 112/112/112 115/115/115
f 118/118/118 117/117/117 116/116/116
f 118/118/118 119/119/119 117/117/117
f 120/120/120 119/119/119 118/118/118
f 123/123/123 122/122/122 121/121/121
f 124/124/124 123/123/123 121/121/121
f 127/127/127 126/126/126 125/125/125
f 128/128/128 127/127/127 125/125/125
f 131/131/131 130/130/130 129/129/129
f 131/131/131 129/129/129 132/132/132
f 129/129/129 133/133/133 132/132/132
f 132/132/132 133/133/133 134/134/134
f 133/133/133 135/135/135 134/134/134
f 134/134/134 135/135/135 136/136/136
f 135/135/135 137/137/137 136/136/136
f 136/136/136 137/137/137 138/138/138
f 137/137/137 139/139/139 138/138/138
f 138/138/138 139/139/139 140/140/140
f 143/143/143 142/142/142 141/141/141
f 144/144/144 143/143/143 141/141/141
f 147/147/147 146/146/146 145/145/145
f 148/148/148 147/147/147 145/145/145
f 151/151/151 150/150/150 149/149/149
f 151/151/151 149/149/149 152/152/152
f 151/151/151 152/152/152 153/153/153
f 156/156/156 155/155/155 154/154/154
f 157/157/157 155/155/155 156/156/156
f 157/157/157 158/158/158 155/155/155
f 161/161/161 160/160/160 159/159/159
f 162/162/162 161/161/161 159/159/159
f 165/165/165 164/164/164 163/163/163
f 166/166/166 165/165/165 163/163/163
f 169/169/169 168/168/168 167/167/167
f 168/168/168 170/170/170 167/167/167
f 171/171/171 169/169/169 167/167/167
f 170/170/170 172/172/172 167/167/167
f 173/173/173 169/169/169 171/171/171
f 172/172/172 170/170/170 174/174/174
f 175/175/175 173/173/173 171/171/171
f 170/170/170 176/176/176 174/174/174
f 177/177/177 173/173/173 175/175/175
f 174/174/174 176/176/176 178/178/178
f 179/179/179 177/177/177 175/175/175
f 176/176/176 180/180/180 178/178/178
f 181/181/181 177/177/177 179/179/179
f 178/178/178 180/180/180 182/182/182
f 183/183/183 181/181/181 179/179/179
f 180/180/180 184/184/184 182/182/182
f 185/185/185 181/181/181 183/183/183
f 182/182/182 184/184/184 186/186/186
f 187/187/187 185/185/185 183/183/183
f 184/184/184 188/188/188 186/186/186
f 189/189/189 185/185/185 187/187/187
f 186/186/186 188/188/188 190/190/190
f 190/190/190 189/189/189 187/187/187
f 188/188/188 189/189/189 190/190/190
f 193/193/193 192/192/192 191/191/191
f 194/194/194 193/193/193 191/191/191
f 192/192/192 195/195/195 191/191/191
f 196/196/196 194/194/194 191/191/191
f 192/192/192 197/197/197 195/195/195
f 194/194/194 196/196/196 198/198/198
f 197/197/197 199/199/199 195/195/195
f 200/200/200 194/194/194 198/198/198
f 197/197/197 201/201/201 199/199/199
f 200/200/200 198/198/198 202/202/202
f 201/201/201 203/203/203 199/199/199
f 204/204/204 200/200/200 202/202/202
f 201/201/201 205/205/205 203/203/203
f 204/204/204 202/202/202 206/206/206
f 205/205/205 207/207/207 203/203/203
f 208/208/208 204/204/204 206/206/206
f 205/205/205 209/209/209 207/207/207
f 208/208/208 206/206/206 210/210/210
f 209/209/209 211/211/211 207/207/207
f 212/212/212 208/208/208 210/210/210
f 209/209/209 213/213/213 211/211/211
f 212/212/212 210/210/210 214/214/214
f 213/213/213 214/214/214 211/211/211
f 213/213/213 212/212/212 214/214/214
f 217/217/217 216/216/216 215/215/215
f 218/218/218 217/217/217 215/215/215
f 215/215/215 216/216/216 219/219/219
f 220/220/220 217/217/217 218/218/218
f 221/221/221 220/220/220 218/218/218
f 216/216/216 222/222/222 219/219/219
f 223/223/223 219/219/219 222/222/222
f 220/220/220 221/221/221 224/224/224
f 221/221/221 225/225/225 224/224/224
f 226/226/226 223/223/223 222/222/222
f 223/223/223 226/226/226 227/227/227
f 226/226/226 228/228/228 227/227/227
f 226/226/226 222/222/222 228/228/228
f 227/227/227 228/228/228 229/229/229
f 228/228/228 222/222/222 230/230/230
f 228/228/228 230/230/230 229/229/229
f 222/222/222 216/216/216 230/230/230
f 231/231/231 229/229/229 230/230/230
f 216/216/216 232/232/232 230/230/230
f 232/232/232 231/231/231 230/230/230
f 216/216/216 217/217/217 232/232/232
f 231/231/231 232/232/232 233/233/233
f 217/217/217 234/234/234 232/232/232
f 232/232/232 234/234/234 233/233/233
f 217/217/217 220/220/220 234/234/234
f 233/233/233 234/234/234 235/235/235
f 220/220/220 236/236/236 234/234/234
f 234/234/234 236/236/236 235/235/235
f 237/237/237 235/235/235 236/236/236
f 220/220/220 224/224/224 236/236/236
f 238/238/238 237/237/237 236/236/236
f 224/224/224 238/238/238 236/236/236
f 237/237/237 238/238/238 239/239/239
f 224/224/224 240/240/240 238/238/238
f 240/240/240 224/224/224 225/225/225
f 241/241/241 240/240/240 225/225/225
f 238/238/238 242/242/242 239/239/239
f 240/240/240 242/242/242 238/238/238
f 239/239/239 242/242/242 243/243/243
f 244/244/244 240/240/240 241/241/241
f 240/240/240 244/244/244 242/242/242
f 245/245/245 244/244/244 241/241/241
f 242/242/242 246/246/246 243/243/243
f 244/244/244 246/246/246 242/242/242
f 247/247/247 243/243/243 246/246/246
f 248/248/248 244/244/244 245/245/245
f 244/244/244 248/248/248 246/246/246
f 248/248/248 247/247/247 246/246/246
f 247/247/247 248/248/248 245/245/245
f 251/251/251 250/250/250 249/249/249
f 252/252/252 251/251/251 249/249/249
f 249/249/249 250/250/250 253/253/253
f 251/251/251 252/252/252 254/254/254
f 252/252/252 255/255/255 254/254/254
f 250/250/250 256/256/256 253/253/253
f 257/257/257 253/253/253 256/256/256
f 254/254/254 255/255/255 258/258/258
f 255/255/255 259/259/259 258/258/258
f 258/258/258 259/259/259 260/260/260
f 258/258/258 260/260/260 254/254/254
f 259/259/259 261/261/261 260/260/260
f 260/260/260 262/262/262 254/254/254
f 262/262/262 260/260/260 261/261/261
f 254/254/254 262/262/262 251/251/251
f 263/263/263 262/262/262 261/261/261
f 251/251/251 262/262/262 264/264/264
f 262/262/262 263/263/263 264/264/264
f 251/251/251 264/264/264 250/250/250
f 263/263/263 265/265/265 264/264/264
f 264/264/264 266/266/266 250/250/250
f 266/266/266 264/264/264 265/265/265
f 266/266/266 256/256/256 250/250/250
f 267/267/267 266/266/266 265/265/265
f 268/268/268 266/266/266 267/267/267
f 266/266/266 268/268/268 256/256/256
f 269/269/269 268/268/268 267/267/267
f 268/268/268 270/270/270 256/256/256
f 270/270/270 257/257/257 256/256/256
f 257/257/257 270/270/270 271/271/271
f 268/268/268 269/269/269 272/272/272
f 268/268/268 272/272/272 270/270/270
f 269/269/269 273/273/273 272/272/272
f 270/270/270 274/274/274 271/271/271
f 272/272/272 274/274/274 270/270/270
f 271/271/271 274/274/274 275/275/275
f 276/276/276 272/272/272 273/273/273
f 272/272/272 276/276/276 274/274/274
f 277/277/277 276/276/276 273/273/273
f 274/274/274 278/278/278 275/275/275
f 276/276/276 278/278/278 274/274/274
f 275/275/275 278/278/278 279/279/279
f 280/280/280 276/276/276 277/277/277
f 276/276/276 280/280/280 278/278/278
f 281/281/281 280/280/280 277/277/277
f 281/281/281 279/279/279 282/282/282
f 278/278/278 282/282/282 279/279/279
f 280/280/280 281/281/281 282/282/282
f 280/280/280 282/282/282 278/278/278
f 285/285/285 284/284/284 283/283/283
f 286/286/286 285/285/285 283/283/283
f 286/286/286 283/283/283 287/287/287
f 285/285/285 288/288/288 284/284/284
f 288/288/288 289/289/289 284/284/284
f 290/290/290 286/286/286 287/287/287
f 287/287/287 291/291/291 290/290/290
f 289/289/289 288/288/288 292/292/292
f 293/293/293 289/289/289 292/292/292
f 291/291/291 294/294/294 290/290/290
f 294/294/294 291/291/291 295/295/295
f 296/296/296 294/294/294 295/295/295
f 296/296/296 290/290/290 294/294/294
f 296/296/296 295/295/295 297/297/297
f 298/298/298 290/290/290 296/296/296
f 298/298/298 296/296/296 297/297/297
f 286/286/286 290/290/290 298/298/298
f 297/297/297 299/299/299 298/298/298
f 300/300/300 286/286/286 298/298/298
f 299/299/299 300/300/300 298/298/298
f 300/300/300 285/285/285 286/286/286
f 300/300/300 299/299/299 301/301/301
f 300/300/300 302/302/302 285/285/285
f 302/302/302 300/300/300 301/301/301
f 302/302/302 288/288/288 285/285/285
f 302/302/302 301/301/301 303/303/303
f 302/302/302 304/304/304 288/288/288
f 304/304/304 302/302/302 303/303/303
f 303/303/303 305/305/305 304/304/304
f 304/304/304 292/292/292 288/288/288
f 305/305/305 306/306/306 304/304/304
f 304/304/304 306/306/306 292/292/292
f 306/306/306 305/305/305 307/307/307
f 306/306/306 308/308/308 292/292/292
f 292/292/292 308/308/308 293/293/293
f 308/308/308 309/309/309 293/293/293
f 310/310/310 306/306/306 307/307/307
f 306/306/306 310/310/310 308/308/308
f 310/310/310 307/307/307 311/311/311
f 308/308/308 312/312/312 309/309/309
f 310/310/310 312/312/312 308/308/308
f 312/312/312 313/313/313 309/309/309
f 314/314/314 310/310/310 311/311/311
f 310/310/310 314/314/314 312/312/312
f 311/311/311 315/315/315 314/314/314
f 316/316/316 315/315/315 313/313/313
f 312/312/312 316/316/316 313/313/313
f 315/315/315 316/316/316 314/314/314
f 314/314/314 316/316/316 312/312/312
f 319/319/319 318/318/318 317/317/317
f 320/320/320 319/319/319 317/317/317
f 320/320/320 317/317/317 321/321/321
f 318/318/318 319/319/319 322/322/322
f 323/323/323 318/318/318 322/322/322
f 324/324/324 320/320/320 321/321/321
f 321/321/321 325/325/325 324/324/324
f 323/323/323 322/322/322 326/326/326
f 327/327/327 323/323/323 326/326/326
f 327/327/327 326/326/326 328/328/328
f 322/322/322 328/328/328 326/326/326
f 329/329/329 327/327/327 328/328/328
f 330/330/330 328/328/328 322/322/322
f 328/328/328 330/330/330 329/329/329
f 319/319/319 330/330/330 322/322/322
f 330/330/330 331/331/331 329/329/329
f 332/332/332 330/330/330 319/319/319
f 331/331/331 330/330/330 332/332/332
f 320/320/320 332/332/332 319/319/319
f 333/333/333 331/331/331 332/332/332
f 334/334/334 332/332/332 320/320/320
f 332/332/332 334/334/334 333/333/333
f 324/324/324 334/334/334 320/320/320
f 334/334/334 335/335/335 333/333/333
f 334/334/334 336/336/336 335/335/335
f 324/324/324 336/336/336 334/334/334
f 336/336/336 337/337/337 335/335/335
f 324/324/324 338/338/338 336/336/336
f 325/325/325 338/338/338 324/324/324
f 338/338/338 325/325/325 339/339/339
f 337/337/337 336/336/336 340/340/340
f 338/338/338 340/340/340 336/336/336
f 341/341/341 337/337/337 340/340/340
f 342/342/342 338/338/338 339/339/339
f 338/338/338 342/342/342 340/340/340
f 342/342/342 339/339/339 343/343/343
f 340/340/340 344/344/344 341/341/341
f 342/342/342 344/344/344 340/340/340
f 344/344/344 345/345/345 341/341/341
f 346/346/346 342/342/342 343/343/343
f 342/342/342 346/346/346 344/344/344
f 346/346/346 343/343/343 347/347/347
f 344/344/344 348/348/348 345/345/345
f 346/346/346 348/348/348 344/344/344
f 348/348/348 349/349/349 345/345/345
f 347/347/347 349/349/349 350/350/350
f 350/350/350 346/346/346 347/347/347
f 346/346/346 350/350/350 348/348/348
f 349/349/349 348/348/348 350/350/350
