g HardCurrency
v 0.049999997 0.047938284 0
v 0.024999999 0.047938284 -0.043573916
v -0 0 0
v -0 0 0
v 0.024999999 0.047938284 0.043573916
v 0.049999997 0.047938284 0
v -0 0 0
v -0.024999997 0.047938284 0.043573923
v 0.024999999 0.047938284 0.043573916
v -0 0 0
v -0.049999997 0.047938284 4.398662E-09
v -0.024999997 0.047938284 0.043573923
v -0 0 0
v -0.024999997 0.047938284 -0.043573923
v -0.049999997 0.047938284 4.398662E-09
v -0 0 0
v 0.024999999 0.047938284 -0.043573916
v -0.024999997 0.047938284 -0.043573923
v 0.03 0.073560275 0
v 0.015 0.073560275 -0.026144352
v 0.024999999 0.047938284 -0.043573916
v 0.049999997 0.047938284 0
v 0.049999997 0.047938284 0
v 0.024999999 0.047938284 0.043573916
v 0.015 0.073560275 0.026144352
v 0.03 0.073560275 0
v 0.024999999 0.047938284 0.043573916
v -0.024999997 0.047938284 0.043573923
v -0.014999997 0.073560275 0.026144354
v 0.015 0.073560275 0.026144352
v -0.024999997 0.047938284 0.043573923
v -0.049999997 0.047938284 4.398662E-09
v -0.03 0.073560275 2.6391973E-09
v -0.014999997 0.073560275 0.026144354
v -0.049999997 0.047938284 4.398662E-09
v -0.024999997 0.047938284 -0.043573923
v -0.014999997 0.073560275 -0.026144354
v -0.03 0.073560275 2.6391973E-09
v -0.024999997 0.047938284 -0.043573923
v 0.024999999 0.047938284 -0.043573916
v 0.015 0.073560275 -0.026144352
v -0.014999997 0.073560275 -0.026144354
v 0.015 0.073560275 -0.026144352
v 0.03 0.073560275 0
v -0.014999997 0.073560275 -0.026144354
v -0.03 0.073560275 2.6391973E-09
v 0.015 0.073560275 0.026144352
v -0.014999997 0.073560275 0.026144354
vt 0.4609419 0.03359955
vt 0.22178592 0.033599537
vt 0.34248626 0.34134886
vt 0.16632904 0.033653215
vt 0.045627963 0.3414022
vt 0.28478405 0.3414028
vt 0.8288996 0.68182695
vt 0.9479162 0.37342262
vt 0.7098851 0.3734218
vt 0.31916657 0.44780985
vt 0.20071088 0.75555915
vt 0.439867 0.75555915
vt 0.16382754 0.70240575
vt 0.284528 0.3946565
vt 0.04537185 0.39465642
vt 0.458894 0.19096969
vt 0.76729876 0.30998522
vt 0.76729876 0.07195413
vt 0.70282626 0.6070453
vt 0.55933267 0.6070453
vt 0.5110525 0.7543498
vt 0.75020856 0.75434977
vt 0.5292468 0.80881125
vt 0.29009083 0.80881125
vt 0.33837104 0.9561158
vt 0.48186463 0.9561157
vt 0.8188756 0.04322735
vt 0.8188756 0.28125843
vt 0.9663993 0.23365225
vt 0.9663993 0.09083357
vt 0.95790887 0.9354411
vt 0.95790887 0.6962851
vt 0.81060433 0.7436672
vt 0.8106043 0.8871609
vt 0.043196425 0.9508125
vt 0.28235248 0.9508126
vt 0.23407233 0.8035081
vt 0.09057861 0.80350804
vt 0.53600866 0.95633465
vt 0.77403975 0.95633465
vt 0.7264336 0.80881095
vt 0.5836149 0.8088109
vt 0.39758143 0.49070808
vt 0.52204645 0.56211454
vt 0.3975782 0.3478894
vt 0.52204 0.27647728
vt 0.6465082 0.49070245
vt 0.646505 0.34788382
vn 0.64321786 -0.6708812 -0.36903834
vn 0.64321786 -0.6708812 -0.36903834
vn 0.64321786 -0.6708812 -0.36903834
vn 0.64321786 -0.6708812 0.36903834
vn 0.64321786 -0.6708812 0.36903834
vn 0.64321786 -0.6708812 0.36903834
vn 1.10266924E-07 -0.6726193 0.73998874
vn 1.10266924E-07 -0.6726193 0.73998874
vn 1.10266924E-07 -0.6726193 0.73998874
vn -0.64321786 -0.67088115 0.36903834
vn -0.64321786 -0.67088115 0.36903834
vn -0.64321786 -0.67088115 0.36903834
vn -0.6432178 -0.6708812 -0.36903828
vn -0.6432178 -0.6708812 -0.36903828
vn -0.6432178 -0.6708812 -0.36903828
vn 1.10266924E-07 -0.6726193 -0.73998874
vn 1.10266924E-07 -0.6726193 -0.73998874
vn 1.10266924E-07 -0.6726193 -0.73998874
vn 0.7182397 0.56064326 -0.41208118
vn 0.7182397 0.56064326 -0.41208118
vn 0.7182397 0.56064326 -0.41208118
vn 0.7182397 0.56064326 -0.41208118
vn 0.7182397 0.56064326 0.41208118
vn 0.7182397 0.56064326 0.41208118
vn 0.7182397 0.56064326 0.41208118
vn 0.7182397 0.56064326 0.41208118
vn -0 0.5624561 0.82682717
vn -0 0.5624561 0.82682717
vn -0 0.5624561 0.82682717
vn -0 0.5624561 0.82682717
vn -0.71823967 0.56064326 0.41208124
vn -0.71823967 0.56064326 0.41208124
vn -0.71823967 0.56064326 0.41208124
vn -0.71823967 0.56064326 0.41208124
vn -0.7182398 0.5606432 -0.41208118
vn -0.7182398 0.5606432 -0.41208118
vn -0.7182398 0.5606432 -0.41208118
vn -0.7182398 0.5606432 -0.41208118
vn -0 0.5624561 -0.82682717
vn -0 0.5624561 -0.82682717
vn -0 0.5624561 -0.82682717
vn -0 0.5624561 -0.82682717
vn 2.9685276E-07 1 0
vn 2.9685276E-07 1 0
vn 2.9685276E-07 1 0
vn -0 1 0
vn -0 1 0
vn -0 1 0
g HardCurrency_0
f 3/3/3 2/2/2 1/1/1
f 6/6/6 5/5/5 4/4/4
f 9/9/9 8/8/8 7/7/7
f 12/12/12 11/11/11 10/10/10
f 15/15/15 14/14/14 13/13/13
f 18/18/18 17/17/17 16/16/16
f 21/21/21 20/20/20 19/19/19
f 22/22/22 21/21/21 19/19/19
f 25/25/25 24/24/24 23/23/23
f 26/26/26 25/25/25 23/23/23
f 29/29/29 28/28/28 27/27/27
f 30/30/30 29/29/29 27/27/27
f 33/33/33 32/32/32 31/31/31
f 34/34/34 33/33/33 31/31/31
f 37/37/37 36/36/36 35/35/35
f 38/38/38 37/37/37 35/35/35
f 41/41/41 40/40/40 39/39/39
f 42/42/42 41/41/41 39/39/39
f 45/45/45 44/44/44 43/43/43
f 46/46/46 44/44/44 45/45/45
f 47/47/47 44/44/44 46/46/46
f 48/48/48 47/47/47 46/46/46
